0~0~0,0~0~0,30301,0~0~0,0~23~0,CLK,BX08,0~0~0,MDA_2,VACATION,BKN16,0200-1000,Some Reasons,Some Comments,2~0~0,2~2~0,2~0~0,0~0~0,30~0~0,7~0~0,14~0~0,7~0~0
0~0~0,0~0~0,30302,0~0~0,0~23~0,RR,BX08,0~0~0,MDA_3,VACATION,BKN16,2200-0600,Some Reasons,Some Comments,2~0~0,2~2~0,2~0~0,0~0~0,30~0~0,7~0~0,14~0~0,7~0~0
0~0~0,0~0~0,30303,0~0~0,0~23~0,BSA,BX08,0~0~0,MDA_4,VACATION,BKN16,0000-0800,Some Reasons,Some Comments,2~0~0,2~2~0,2~0~0,0~0~0,30~0~0,7~0~0,14~0~0,7~0~0
0~0~0,0~0~0,30304,0~0~0,0~23~0,SC,BX08,0~0~0,MDA_4A,VACATION,BKN16,2300-0700,Some Reasons,Some Comments,2~0~0,2~2~0,2~0~0,0~0~0,30~0~0,7~0~0,14~0~0,7~0~0
0~0~0,0~0~0,30305,0~0~0,0~23~0,WR1,BX08,0~0~0,MDA_1,VACATION,BKN16,2200-0600,Some Reasons,Some Comments,2~0~0,2~2~0,2~0~0,0~0~0,30~0~0,7~0~0,14~0~0,7~0~0
0~0~0,0~0~0,30306,0~0~0,0~23~0,GU2,BX08,0~0~0,MDA_1L,VACATION,BKN16,0300-1100,Some Reasons,Some Comments,2~0~0,2~2~0,2~0~0,0~0~0,30~0~0,7~0~0,14~0~0,7~0~0
0~0~0,0~0~0,30307,0~0~0,0~23~0,GU3,BX08,0~0~0,MDA_2,VACATION,BKN16,0400-1200,Some Reasons,Some Comments,2~0~0,2~2~0,2~0~0,0~0~0,30~0~0,7~0~0,14~0~0,7~0~0
0~0~0,0~0~0,30308,0~0~0,0~23~0,MB3,BX08,0~0~0,MDA_3,VACATION,BKN16,0500-1300,Some Reasons,Some Comments,2~0~0,2~2~0,2~0~0,0~0~0,30~0~0,7~0~0,14~0~0,7~0~0
0~0~0,0~0~0,30309,0~0~0,0~23~0,WR2,BX08,0~0~0,MDA_4,VACATION,BKN16,0700-1500,Some Reasons,Some Comments,2~0~0,2~2~0,2~0~0,0~0~0,30~0~0,7~0~0,14~0~0,7~0~0
0~0~0,0~0~0,30310,0~0~0,0~23~0,WR3,BX08,0~0~0,MDA_4A,VACATION,BKN16,0800-1600,Some Reasons,Some Comments,2~0~0,2~2~0,2~0~0,0~0~0,30~0~0,7~0~0,14~0~0,7~0~0
0~0~0,0~0~0,30311,0~0~0,0~23~0,SKD,BX08,0~0~0,MDA_1,VACATION,BKN16,1000-1800,Some Reasons,Some Comments,2~0~0,2~2~0,2~0~0,0~0~0,30~0~0,7~0~0,14~0~0,7~0~0
0~0~0,0~0~0,30312,0~0~0,0~23~0,NS,BX08,0~0~0,MDA_1L,VACATION,BKN16,1100-1900,Some Reasons,Some Comments,2~0~0,2~2~0,2~0~0,0~0~0,30~0~0,7~0~0,14~0~0,7~0~0
0~0~0,0~0~0,30313,0~0~0,0~23~0,SS,BX08,0~0~0,MDA_2,VACATION,BKN16,1200-2000,Some Reasons,Some Comments,2~0~0,2~2~0,2~0~0,0~0~0,30~0~0,7~0~0,14~0~0,7~0~0
0~0~0,0~0~0,30314,0~0~0,0~23~0,BOA,BX08,0~0~0,MDA_3,VACATION,BKN16,0600-1400,Some Reasons,Some Comments,2~0~0,2~2~0,2~0~0,0~0~0,30~0~0,7~0~0,14~0~0,7~0~0
0~0~0,0~0~0,30315,0~0~0,0~23~0,CFC,BX08,0~0~0,MDA_4,VACATION,BKN16,0100-0900,Some Reasons,Some Comments,2~0~0,2~2~0,2~0~0,0~0~0,30~0~0,7~0~0,14~0~0,7~0~0
0~0~0,0~0~0,30316,0~0~0,0~23~0,BCA,BX08,0~0~0,MDA_4A,VACATION,BKN16,0200-1000,Some Reasons,Some Comments,2~0~0,2~2~0,2~0~0,0~0~0,30~0~0,7~0~0,14~0~0,7~0~0
0~0~0,0~0~0,30317,0~0~0,0~23~0,EZP,BX08,0~0~0,MDA_1,VACATION,BKN16,2200-0600,Some Reasons,Some Comments,2~0~0,2~2~0,2~0~0,0~0~0,30~0~0,7~0~0,14~0~0,7~0~0
0~0~0,0~0~0,30318,0~0~0,0~23~0,GU1,BX08,0~0~0,MDA_1L,VACATION,BKN16,0000-0800,Some Reasons,Some Comments,2~0~0,2~2~0,2~0~0,0~0~0,30~0~0,7~0~0,14~0~0,7~0~0
0~0~0,0~0~0,30319,0~0~0,0~23~0,GO,BX08,0~0~0,MDA_2,VACATION,BKN16,2300-0700,Some Reasons,Some Comments,2~0~0,2~2~0,2~0~0,0~0~0,30~0~0,7~0~0,14~0~0,7~0~0
0~0~0,0~0~0,30320,0~0~0,0~23~0,MB2,BX08,0~0~0,MDA_3,VACATION,BKN16,2200-0600,Some Reasons,Some Comments,2~0~0,2~2~0,2~0~0,0~0~0,30~0~0,7~0~0,14~0~0,7~0~0
0~0~0,0~0~0,30321,0~0~0,0~23~0,MB1,BX08,0~0~0,MDA_4,VACATION,BKN16,0300-1100,Some Reasons,Some Comments,2~0~0,2~2~0,2~0~0,0~0~0,30~0~0,7~0~0,14~0~0,7~0~0
0~0~0,0~0~0,30322,0~0~0,0~23~0,CLK,BX08,0~0~0,MDA_4A,VACATION,BKN16,0400-1200,Some Reasons,Some Comments,2~0~0,2~2~0,2~0~0,0~0~0,30~0~0,7~0~0,14~0~0,7~0~0
0~0~0,0~0~0,30323,0~0~0,0~23~0,RR,BX08,0~0~0,MDA_1,VACATION,BKN16,0500-1300,Some Reasons,Some Comments,2~0~0,2~2~0,2~0~0,0~0~0,30~0~0,7~0~0,14~0~0,7~0~0
0~0~0,0~0~0,30324,0~0~0,0~23~0,BSA,BX08,0~0~0,MDA_1L,VACATION,BKN16,0700-1500,Some Reasons,Some Comments,2~0~0,2~2~0,2~0~0,0~0~0,30~0~0,7~0~0,14~0~0,7~0~0
0~0~0,0~0~0,30325,0~0~0,0~23~0,SC,BX08,0~0~0,MDA_2,VACATION,BKN16,0800-1600,Some Reasons,Some Comments,2~0~0,2~2~0,2~0~0,0~0~0,30~0~0,7~0~0,14~0~0,7~0~0
0~0~0,0~0~0,30326,0~0~0,0~23~0,WR1,BX08,0~0~0,MDA_3,VACATION,BKN16,1000-1800,Some Reasons,Some Comments,2~0~0,2~2~0,2~0~0,0~0~0,30~0~0,7~0~0,14~0~0,7~0~0
0~0~0,0~0~0,30327,0~0~0,0~23~0,GU2,BX08,0~0~0,MDA_4,VACATION,BKN16,1100-1900,Some Reasons,Some Comments,2~0~0,2~2~0,2~0~0,0~0~0,30~0~0,7~0~0,14~0~0,7~0~0
0~0~0,0~0~0,30328,0~0~0,0~23~0,GU3,BX08,0~0~0,MDA_4A,VACATION,BKN16,1200-2000,Some Reasons,Some Comments,2~0~0,2~2~0,2~0~0,0~0~0,30~0~0,7~0~0,14~0~0,7~0~0
0~0~0,0~0~0,30329,0~0~0,0~23~0,MB3,BX08,0~0~0,MDA_1,VACATION,BKN16,0600-1400,Some Reasons,Some Comments,2~0~0,2~2~0,2~0~0,0~0~0,30~0~0,7~0~0,14~0~0,7~0~0
0~0~0,0~0~0,30330,0~0~0,0~23~0,WR2,BX08,0~0~0,MDA_1L,VACATION,BKN16,0100-0900,Some Reasons,Some Comments,2~0~0,2~2~0,2~0~0,0~0~0,30~0~0,7~0~0,14~0~0,7~0~0
0~0~0,0~0~0,30331,0~0~0,0~23~0,WR3,BX08,0~0~0,MDA_2,VACATION,BKN16,0200-1000,Some Reasons,Some Comments,2~0~0,2~2~0,2~0~0,0~0~0,30~0~0,7~0~0,14~0~0,7~0~0
0~0~0,0~0~0,30332,0~0~0,0~23~0,SKD,BX08,0~0~0,MDA_3,VACATION,BKN16,2200-0600,Some Reasons,Some Comments,2~0~0,2~2~0,2~0~0,0~0~0,30~0~0,7~0~0,14~0~0,7~0~0
0~0~0,0~0~0,30333,0~0~0,0~23~0,NS,BX08,0~0~0,MDA_4,VACATION,BKN16,0000-0800,Some Reasons,Some Comments,2~0~0,2~2~0,2~0~0,0~0~0,30~0~0,7~0~0,14~0~0,7~0~0
0~0~0,0~0~0,30334,0~0~0,0~23~0,SS,BX08,0~0~0,MDA_4A,VACATION,BKN16,2300-0700,Some Reasons,Some Comments,2~0~0,2~2~0,2~0~0,0~0~0,30~0~0,7~0~0,14~0~0,7~0~0
0~0~0,0~0~0,30335,0~0~0,0~23~0,BOA,BX08,0~0~0,MDA_1,VACATION,BKN16,2200-0600,Some Reasons,Some Comments,2~0~0,2~2~0,2~0~0,0~0~0,30~0~0,7~0~0,14~0~0,7~0~0
0~0~0,0~0~0,30336,0~0~0,0~23~0,CFC,BX08,0~0~0,MDA_1L,VACATION,BKN16,0300-1100,Some Reasons,Some Comments,2~0~0,2~2~0,2~0~0,0~0~0,30~0~0,7~0~0,14~0~0,7~0~0
0~0~0,0~0~0,30337,0~0~0,0~23~0,BCA,BX08,0~0~0,MDA_2,VACATION,BKN16,0400-1200,Some Reasons,Some Comments,2~0~0,2~2~0,2~0~0,0~0~0,30~0~0,7~0~0,14~0~0,7~0~0
0~0~0,0~0~0,30338,0~0~0,0~23~0,EZP,BX08,0~0~0,MDA_3,VACATION,BKN16,0500-1300,Some Reasons,Some Comments,2~0~0,2~2~0,2~0~0,0~0~0,30~0~0,7~0~0,14~0~0,7~0~0
0~0~0,0~0~0,30339,0~0~0,0~23~0,GU1,BX08,0~0~0,MDA_4,VACATION,BKN16,0700-1500,Some Reasons,Some Comments,2~0~0,2~2~0,2~0~0,0~0~0,30~0~0,7~0~0,14~0~0,7~0~0
0~0~0,0~0~0,30340,0~0~0,0~23~0,GO,BX08,0~0~0,MDA_4A,VACATION,BKN16,0800-1600,Some Reasons,Some Comments,2~0~0,2~2~0,2~0~0,0~0~0,30~0~0,7~0~0,14~0~0,7~0~0
0~0~0,0~0~0,30341,0~0~0,0~23~0,MB2,BX08,0~0~0,MDA_1,VACATION,BKN16,1000-1800,Some Reasons,Some Comments,2~0~0,2~2~0,2~0~0,0~0~0,30~0~0,7~0~0,14~0~0,7~0~0
0~0~0,0~0~0,30342,0~0~0,0~23~0,MB1,BX08,0~0~0,MDA_1L,VACATION,BKN16,1100-1900,Some Reasons,Some Comments,2~0~0,2~2~0,2~0~0,0~0~0,30~0~0,7~0~0,14~0~0,7~0~0
0~0~0,0~0~0,30343,0~0~0,0~23~0,CLK,BX08,0~0~0,MDA_2,VACATION,BKN16,1200-2000,Some Reasons,Some Comments,2~0~0,2~2~0,2~0~0,0~0~0,30~0~0,7~0~0,14~0~0,7~0~0
0~0~0,0~0~0,30344,0~0~0,0~23~0,RR,BX08,0~0~0,MDA_3,VACATION,BKN16,0600-1400,Some Reasons,Some Comments,2~0~0,2~2~0,2~0~0,0~0~0,30~0~0,7~0~0,14~0~0,7~0~0
0~0~0,0~0~0,30345,0~0~0,0~23~0,BSA,BX08,0~0~0,MDA_4,VACATION,BKN16,0100-0900,Some Reasons,Some Comments,2~0~0,2~2~0,2~0~0,0~0~0,30~0~0,7~0~0,14~0~0,7~0~0
0~0~0,0~0~0,30346,0~0~0,0~23~0,SC,BX08,0~0~0,MDA_4A,VACATION,BKN16,0200-1000,Some Reasons,Some Comments,2~0~0,2~2~0,2~0~0,0~0~0,30~0~0,7~0~0,14~0~0,7~0~0
0~0~0,0~0~0,30347,0~0~0,0~23~0,WR1,BX08,0~0~0,MDA_1,VACATION,BKN16,2200-0600,Some Reasons,Some Comments,2~0~0,2~2~0,2~0~0,0~0~0,30~0~0,7~0~0,14~0~0,7~0~0
0~0~0,0~0~0,30348,0~0~0,0~23~0,GU2,BX08,0~0~0,MDA_1L,VACATION,BKN16,0000-0800,Some Reasons,Some Comments,2~0~0,2~2~0,2~0~0,0~0~0,30~0~0,7~0~0,14~0~0,7~0~0
0~0~0,0~0~0,30349,0~0~0,0~23~0,GU3,BX08,0~0~0,MDA_2,VACATION,BKN16,2300-0700,Some Reasons,Some Comments,2~0~0,2~2~0,2~0~0,0~0~0,30~0~0,7~0~0,14~0~0,7~0~0
0~0~0,0~0~0,30350,0~0~0,0~23~0,MB3,BX08,0~0~0,MDA_3,VACATION,BKN16,2200-0600,Some Reasons,Some Comments,2~0~0,2~2~0,2~0~0,0~0~0,30~0~0,7~0~0,14~0~0,7~0~0
0~0~0,0~0~0,30351,0~0~0,0~23~0,WR2,BX08,0~0~0,MDA_4,VACATION,BKN16,0300-1100,Some Reasons,Some Comments,2~0~0,2~2~0,2~0~0,0~0~0,30~0~0,7~0~0,14~0~0,7~0~0
0~0~0,0~0~0,30352,0~0~0,0~23~0,WR3,BX08,0~0~0,MDA_4A,VACATION,BKN16,0400-1200,Some Reasons,Some Comments,2~0~0,2~2~0,2~0~0,0~0~0,30~0~0,7~0~0,14~0~0,7~0~0
0~0~0,0~0~0,30353,0~0~0,0~23~0,SKD,BX08,0~0~0,MDA_1,VACATION,BKN16,0500-1300,Some Reasons,Some Comments,2~0~0,2~2~0,2~0~0,0~0~0,30~0~0,7~0~0,14~0~0,7~0~0
0~0~0,0~0~0,30354,0~0~0,0~23~0,NS,BX08,0~0~0,MDA_1L,VACATION,BKN16,0700-1500,Some Reasons,Some Comments,2~0~0,2~2~0,2~0~0,0~0~0,30~0~0,7~0~0,14~0~0,7~0~0
0~0~0,0~0~0,30355,0~0~0,0~23~0,SS,BX08,0~0~0,MDA_2,VACATION,BKN16,0800-1600,Some Reasons,Some Comments,2~0~0,2~2~0,2~0~0,0~0~0,30~0~0,7~0~0,14~0~0,7~0~0
0~0~0,0~0~0,30356,0~0~0,0~23~0,BOA,BX08,0~0~0,MDA_3,VACATION,BKN16,1000-1800,Some Reasons,Some Comments,2~0~0,2~2~0,2~0~0,0~0~0,30~0~0,7~0~0,14~0~0,7~0~0
0~0~0,0~0~0,30357,0~0~0,0~23~0,CFC,BX08,0~0~0,MDA_4,VACATION,BKN16,1100-1900,Some Reasons,Some Comments,2~0~0,2~2~0,2~0~0,0~0~0,30~0~0,7~0~0,14~0~0,7~0~0
0~0~0,0~0~0,30358,0~0~0,0~23~0,BCA,BX08,0~0~0,MDA_4A,VACATION,BKN16,1200-2000,Some Reasons,Some Comments,2~0~0,2~2~0,2~0~0,0~0~0,30~0~0,7~0~0,14~0~0,7~0~0
0~0~0,0~0~0,30359,0~0~0,0~23~0,EZP,BX08,0~0~0,MDA_1,VACATION,BKN16,0600-1400,Some Reasons,Some Comments,2~0~0,2~2~0,2~0~0,0~0~0,30~0~0,7~0~0,14~0~0,7~0~0
0~0~0,0~0~0,30360,0~0~0,0~23~0,GU1,BX08,0~0~0,MDA_1L,VACATION,BKN16,0100-0900,Some Reasons,Some Comments,2~0~0,2~2~0,2~0~0,0~0~0,30~0~0,7~0~0,14~0~0,7~0~0
0~0~0,0~0~0,30361,0~0~0,0~23~0,GO,BX08,0~0~0,MDA_2,VACATION,BKN16,0200-1000,Some Reasons,Some Comments,2~0~0,2~2~0,2~0~0,0~0~0,30~0~0,7~0~0,14~0~0,7~0~0
0~0~0,0~0~0,30362,0~0~0,0~23~0,MB2,BX08,0~0~0,MDA_3,VACATION,BKN16,2200-0600,Some Reasons,Some Comments,2~0~0,2~2~0,2~0~0,0~0~0,30~0~0,7~0~0,14~0~0,7~0~0
0~0~0,0~0~0,30363,0~0~0,0~23~0,MB1,BX08,0~0~0,MDA_4,VACATION,BKN16,0000-0800,Some Reasons,Some Comments,2~0~0,2~2~0,2~0~0,0~0~0,30~0~0,7~0~0,14~0~0,7~0~0
0~0~0,0~0~0,30364,0~0~0,0~23~0,CLK,BX08,0~0~0,MDA_4A,VACATION,BKN16,2300-0700,Some Reasons,Some Comments,2~0~0,2~2~0,2~0~0,0~0~0,30~0~0,7~0~0,14~0~0,7~0~0
0~0~0,0~0~0,30365,0~0~0,0~23~0,RR,BX08,0~0~0,MDA_1,VACATION,BKN16,2200-0600,Some Reasons,Some Comments,2~0~0,2~2~0,2~0~0,0~0~0,30~0~0,7~0~0,14~0~0,7~0~0
0~0~0,0~0~0,30366,0~0~0,0~23~0,BSA,BX08,0~0~0,MDA_1L,VACATION,BKN16,0300-1100,Some Reasons,Some Comments,2~0~0,2~2~0,2~0~0,0~0~0,30~0~0,7~0~0,14~0~0,7~0~0
0~0~0,0~0~0,30367,0~0~0,0~23~0,SC,BX08,0~0~0,MDA_2,VACATION,BKN16,0400-1200,Some Reasons,Some Comments,2~0~0,2~2~0,2~0~0,0~0~0,30~0~0,7~0~0,14~0~0,7~0~0
0~0~0,0~0~0,30368,0~0~0,0~23~0,WR1,BX08,0~0~0,MDA_3,VACATION,BKN16,0500-1300,Some Reasons,Some Comments,2~0~0,2~2~0,2~0~0,0~0~0,30~0~0,7~0~0,14~0~0,7~0~0
0~0~0,0~0~0,30369,0~0~0,0~23~0,GU2,BX08,0~0~0,MDA_4,VACATION,BKN16,0700-1500,Some Reasons,Some Comments,2~0~0,2~2~0,2~0~0,0~0~0,30~0~0,7~0~0,14~0~0,7~0~0
0~0~0,0~0~0,30370,0~0~0,0~23~0,GU3,BX08,0~0~0,MDA_4A,VACATION,BKN16,0800-1600,Some Reasons,Some Comments,2~0~0,2~2~0,2~0~0,0~0~0,30~0~0,7~0~0,14~0~0,7~0~0
0~0~0,0~0~0,30371,0~0~0,0~23~0,MB3,BX08,0~0~0,MDA_1,VACATION,BKN16,1000-1800,Some Reasons,Some Comments,2~0~0,2~2~0,2~0~0,0~0~0,30~0~0,7~0~0,14~0~0,7~0~0
0~0~0,0~0~0,30372,0~0~0,0~23~0,WR2,BX08,0~0~0,MDA_1L,VACATION,BKN16,1100-1900,Some Reasons,Some Comments,2~0~0,2~2~0,2~0~0,0~0~0,30~0~0,7~0~0,14~0~0,7~0~0
0~0~0,0~0~0,30373,0~0~0,0~23~0,WR3,BX08,0~0~0,MDA_2,VACATION,BKN16,1200-2000,Some Reasons,Some Comments,2~0~0,2~2~0,2~0~0,0~0~0,30~0~0,7~0~0,14~0~0,7~0~0
0~0~0,0~0~0,30374,0~0~0,0~23~0,SKD,BX08,0~0~0,MDA_3,VACATION,BKN16,0600-1400,Some Reasons,Some Comments,2~0~0,2~2~0,2~0~0,0~0~0,30~0~0,7~0~0,14~0~0,7~0~0
0~0~0,0~0~0,30375,0~0~0,0~23~0,NS,BX08,0~0~0,MDA_4,VACATION,BKN16,0100-0900,Some Reasons,Some Comments,2~0~0,2~2~0,2~0~0,0~0~0,30~0~0,7~0~0,14~0~0,7~0~0
0~0~0,0~0~0,30376,0~0~0,0~23~0,SS,BX08,0~0~0,MDA_4A,VACATION,BKN16,0200-1000,Some Reasons,Some Comments,2~0~0,2~2~0,2~0~0,0~0~0,30~0~0,7~0~0,14~0~0,7~0~0
0~0~0,0~0~0,30377,0~0~0,0~23~0,BOA,BX08,0~0~0,MDA_1,VACATION,BKN16,2200-0600,Some Reasons,Some Comments,2~0~0,2~2~0,2~0~0,0~0~0,30~0~0,7~0~0,14~0~0,7~0~0
0~0~0,0~0~0,30378,0~0~0,0~23~0,CFC,BX08,0~0~0,MDA_1L,VACATION,BKN16,0000-0800,Some Reasons,Some Comments,2~0~0,2~2~0,2~0~0,0~0~0,30~0~0,7~0~0,14~0~0,7~0~0
0~0~0,0~0~0,30379,0~0~0,0~23~0,BCA,BX08,0~0~0,MDA_2,VACATION,BKN16,2300-0700,Some Reasons,Some Comments,2~0~0,2~2~0,2~0~0,0~0~0,30~0~0,7~0~0,14~0~0,7~0~0
0~0~0,0~0~0,30380,0~0~0,0~23~0,EZP,BX08,0~0~0,MDA_3,VACATION,BKN16,2200-0600,Some Reasons,Some Comments,2~0~0,2~2~0,2~0~0,0~0~0,30~0~0,7~0~0,14~0~0,7~0~0
0~0~0,0~0~0,30381,0~0~0,0~23~0,GU1,BX08,0~0~0,MDA_4,VACATION,BKN16,0300-1100,Some Reasons,Some Comments,2~0~0,2~2~0,2~0~0,0~0~0,30~0~0,7~0~0,14~0~0,7~0~0
0~0~0,0~0~0,30382,0~0~0,0~23~0,GO,BX08,0~0~0,MDA_4A,VACATION,BKN16,0400-1200,Some Reasons,Some Comments,2~0~0,2~2~0,2~0~0,0~0~0,30~0~0,7~0~0,14~0~0,7~0~0
0~0~0,0~0~0,30383,0~0~0,0~23~0,MB2,BX08,0~0~0,MDA_1,VACATION,BKN16,0500-1300,Some Reasons,Some Comments,2~0~0,2~2~0,2~0~0,0~0~0,30~0~0,7~0~0,14~0~0,7~0~0
0~0~0,0~0~0,30384,0~0~0,0~23~0,MB1,BX08,0~0~0,MDA_1L,VACATION,BKN16,0700-1500,Some Reasons,Some Comments,2~0~0,2~2~0,2~0~0,0~0~0,30~0~0,7~0~0,14~0~0,7~0~0
0~0~0,0~0~0,30385,0~0~0,0~23~0,CLK,BX08,0~0~0,MDA_2,VACATION,BKN16,0800-1600,Some Reasons,Some Comments,2~0~0,2~2~0,2~0~0,0~0~0,30~0~0,7~0~0,14~0~0,7~0~0
0~0~0,0~0~0,30386,0~0~0,0~23~0,RR,BX08,0~0~0,MDA_3,VACATION,BKN16,1000-1800,Some Reasons,Some Comments,2~0~0,2~2~0,2~0~0,0~0~0,30~0~0,7~0~0,14~0~0,7~0~0
0~0~0,0~0~0,30387,0~0~0,0~23~0,BSA,BX08,0~0~0,MDA_4,VACATION,BKN16,1100-1900,Some Reasons,Some Comments,2~0~0,2~2~0,2~0~0,0~0~0,30~0~0,7~0~0,14~0~0,7~0~0
0~0~0,0~0~0,30388,0~0~0,0~23~0,SC,BX08,0~0~0,MDA_4A,VACATION,BKN16,1200-2000,Some Reasons,Some Comments,2~0~0,2~2~0,2~0~0,0~0~0,30~0~0,7~0~0,14~0~0,7~0~0
0~0~0,0~0~0,30389,0~0~0,0~23~0,WR1,BX08,0~0~0,MDA_1,VACATION,BKN16,0600-1400,Some Reasons,Some Comments,2~0~0,2~2~0,2~0~0,0~0~0,30~0~0,7~0~0,14~0~0,7~0~0
0~0~0,0~0~0,30390,0~0~0,0~23~0,GU2,BX08,0~0~0,MDA_1L,VACATION,BKN16,0100-0900,Some Reasons,Some Comments,2~0~0,2~2~0,2~0~0,0~0~0,30~0~0,7~0~0,14~0~0,7~0~0
0~0~0,0~0~0,30391,0~0~0,0~23~0,GU3,BX08,0~0~0,MDA_2,VACATION,BKN16,0200-1000,Some Reasons,Some Comments,2~0~0,2~2~0,2~0~0,0~0~0,30~0~0,7~0~0,14~0~0,7~0~0
0~0~0,0~0~0,30392,0~0~0,0~23~0,MB3,BX08,0~0~0,MDA_3,VACATION,BKN16,2200-0600,Some Reasons,Some Comments,2~0~0,2~2~0,2~0~0,0~0~0,30~0~0,7~0~0,14~0~0,7~0~0
0~0~0,0~0~0,30393,0~0~0,0~23~0,WR2,BX08,0~0~0,MDA_4,VACATION,BKN16,0000-0800,Some Reasons,Some Comments,2~0~0,2~2~0,2~0~0,0~0~0,30~0~0,7~0~0,14~0~0,7~0~0
0~0~0,0~0~0,30394,0~0~0,0~23~0,WR3,BX08,0~0~0,MDA_4A,VACATION,BKN16,2300-0700,Some Reasons,Some Comments,2~0~0,2~2~0,2~0~0,0~0~0,30~0~0,7~0~0,14~0~0,7~0~0
0~0~0,0~0~0,30395,0~0~0,0~23~0,SKD,BX08,0~0~0,MDA_1,VACATION,BKN16,2200-0600,Some Reasons,Some Comments,2~0~0,2~2~0,2~0~0,0~0~0,30~0~0,7~0~0,14~0~0,7~0~0
0~0~0,0~0~0,30396,0~0~0,0~23~0,NS,BX08,0~0~0,MDA_1L,VACATION,BKN16,0300-1100,Some Reasons,Some Comments,2~0~0,2~2~0,2~0~0,0~0~0,30~0~0,7~0~0,14~0~0,7~0~0
0~0~0,0~0~0,30397,0~0~0,0~23~0,SS,BX08,0~0~0,MDA_2,VACATION,BKN16,0400-1200,Some Reasons,Some Comments,2~0~0,2~2~0,2~0~0,0~0~0,30~0~0,7~0~0,14~0~0,7~0~0
0~0~0,0~0~0,30398,0~0~0,0~23~0,BOA,BX08,0~0~0,MDA_3,VACATION,BKN16,0500-1300,Some Reasons,Some Comments,2~0~0,2~2~0,2~0~0,0~0~0,30~0~0,7~0~0,14~0~0,7~0~0
0~0~0,0~0~0,30399,0~0~0,0~23~0,CFC,BX08,0~0~0,MDA_4,VACATION,BKN16,0700-1500,Some Reasons,Some Comments,2~0~0,2~2~0,2~0~0,0~0~0,30~0~0,7~0~0,14~0~0,7~0~0
0~0~0,0~0~0,30400,0~0~0,0~23~0,BCA,BX08,0~0~0,MDA_4A,VACATION,BKN16,0800-1600,Some Reasons,Some Comments,2~0~0,2~2~0,2~0~0,0~0~0,30~0~0,7~0~0,14~0~0,7~0~0
0~0~0,0~0~0,30401,0~0~0,0~23~0,EZP,BX08,0~0~0,MDA_1,VACATION,BKN16,1000-1800,Some Reasons,Some Comments,2~0~0,2~2~0,2~0~0,0~0~0,30~0~0,7~0~0,14~0~0,7~0~0
0~0~0,0~0~0,30402,0~0~0,0~23~0,GU1,BX08,0~0~0,MDA_1L,VACATION,BKN16,1100-1900,Some Reasons,Some Comments,2~0~0,2~2~0,2~0~0,0~0~0,30~0~0,7~0~0,14~0~0,7~0~0
0~0~0,0~0~0,30403,0~0~0,0~23~0,GO,BX08,0~0~0,MDA_2,VACATION,BKN16,1200-2000,Some Reasons,Some Comments,2~0~0,2~2~0,2~0~0,0~0~0,30~0~0,7~0~0,14~0~0,7~0~0
0~0~0,0~0~0,30404,0~0~0,0~23~0,MB2,BX08,0~0~0,MDA_3,VACATION,BKN16,0600-1400,Some Reasons,Some Comments,2~0~0,2~2~0,2~0~0,0~0~0,30~0~0,7~0~0,14~0~0,7~0~0
0~0~0,0~0~0,30405,0~0~0,0~23~0,MB1,BX08,0~0~0,MDA_4,VACATION,BKN16,0100-0900,Some Reasons,Some Comments,2~0~0,2~2~0,2~0~0,0~0~0,30~0~0,7~0~0,14~0~0,7~0~0
0~0~0,0~0~0,30406,0~0~0,0~23~0,CLK,BX08,0~0~0,MDA_4A,VACATION,BKN16,0200-1000,Some Reasons,Some Comments,2~0~0,2~2~0,2~0~0,0~0~0,30~0~0,7~0~0,14~0~0,7~0~0
0~0~0,0~0~0,30407,0~0~0,0~23~0,RR,BX08,0~0~0,MDA_1,VACATION,BKN16,2200-0600,Some Reasons,Some Comments,2~0~0,2~2~0,2~0~0,0~0~0,30~0~0,7~0~0,14~0~0,7~0~0
0~0~0,0~0~0,30408,0~0~0,0~23~0,BSA,BX08,0~0~0,MDA_1L,VACATION,BKN16,0000-0800,Some Reasons,Some Comments,2~0~0,2~2~0,2~0~0,0~0~0,30~0~0,7~0~0,14~0~0,7~0~0
0~0~0,0~0~0,30409,0~0~0,0~23~0,SC,BX08,0~0~0,MDA_2,VACATION,BKN16,2300-0700,Some Reasons,Some Comments,2~0~0,2~2~0,2~0~0,0~0~0,30~0~0,7~0~0,14~0~0,7~0~0
0~0~0,0~0~0,30410,0~0~0,0~23~0,WR1,BX08,0~0~0,MDA_3,VACATION,BKN16,2200-0600,Some Reasons,Some Comments,2~0~0,2~2~0,2~0~0,0~0~0,30~0~0,7~0~0,14~0~0,7~0~0
0~0~0,0~0~0,30411,0~0~0,0~23~0,GU2,BX08,0~0~0,MDA_4,VACATION,BKN16,0300-1100,Some Reasons,Some Comments,2~0~0,2~2~0,2~0~0,0~0~0,30~0~0,7~0~0,14~0~0,7~0~0
0~0~0,0~0~0,30412,0~0~0,0~23~0,GU3,BX08,0~0~0,MDA_4A,VACATION,BKN16,0400-1200,Some Reasons,Some Comments,2~0~0,2~2~0,2~0~0,0~0~0,30~0~0,7~0~0,14~0~0,7~0~0
0~0~0,0~0~0,30413,0~0~0,0~23~0,MB3,BX08,0~0~0,MDA_1,VACATION,BKN16,0500-1300,Some Reasons,Some Comments,2~0~0,2~2~0,2~0~0,0~0~0,30~0~0,7~0~0,14~0~0,7~0~0
0~0~0,0~0~0,30414,0~0~0,0~23~0,WR2,BX08,0~0~0,MDA_1L,VACATION,BKN16,0700-1500,Some Reasons,Some Comments,2~0~0,2~2~0,2~0~0,0~0~0,30~0~0,7~0~0,14~0~0,7~0~0
0~0~0,0~0~0,30415,0~0~0,0~23~0,WR3,BX08,0~0~0,MDA_2,VACATION,BKN16,0800-1600,Some Reasons,Some Comments,2~0~0,2~2~0,2~0~0,0~0~0,30~0~0,7~0~0,14~0~0,7~0~0
0~0~0,0~0~0,30416,0~0~0,0~23~0,SKD,BX08,0~0~0,MDA_3,VACATION,BKN16,1000-1800,Some Reasons,Some Comments,2~0~0,2~2~0,2~0~0,0~0~0,30~0~0,7~0~0,14~0~0,7~0~0
0~0~0,0~0~0,30417,0~0~0,0~23~0,NS,BX08,0~0~0,MDA_4,VACATION,BKN16,1100-1900,Some Reasons,Some Comments,2~0~0,2~2~0,2~0~0,0~0~0,30~0~0,7~0~0,14~0~0,7~0~0
0~0~0,0~0~0,30418,0~0~0,0~23~0,SS,BX08,0~0~0,MDA_4A,VACATION,BKN16,1200-2000,Some Reasons,Some Comments,2~0~0,2~2~0,2~0~0,0~0~0,30~0~0,7~0~0,14~0~0,7~0~0
0~0~0,0~0~0,30419,0~0~0,0~23~0,BOA,BX08,0~0~0,MDA_1,VACATION,BKN16,0600-1400,Some Reasons,Some Comments,2~0~0,2~2~0,2~0~0,0~0~0,30~0~0,7~0~0,14~0~0,7~0~0
0~0~0,0~0~0,30420,0~0~0,0~23~0,CFC,BX08,0~0~0,MDA_1L,VACATION,BKN16,0100-0900,Some Reasons,Some Comments,2~0~0,2~2~0,2~0~0,0~0~0,30~0~0,7~0~0,14~0~0,7~0~0
0~0~0,0~0~0,30421,0~0~0,0~23~0,BCA,BX08,0~0~0,MDA_2,VACATION,BKN16,0200-1000,Some Reasons,Some Comments,2~0~0,2~2~0,2~0~0,0~0~0,30~0~0,7~0~0,14~0~0,7~0~0
0~0~0,0~0~0,30422,0~0~0,0~23~0,EZP,BX08,0~0~0,MDA_3,VACATION,BKN16,2200-0600,Some Reasons,Some Comments,2~0~0,2~2~0,2~0~0,0~0~0,30~0~0,7~0~0,14~0~0,7~0~0
0~0~0,0~0~0,30423,0~0~0,0~23~0,GU1,BX08,0~0~0,MDA_4,VACATION,BKN16,0000-0800,Some Reasons,Some Comments,2~0~0,2~2~0,2~0~0,0~0~0,30~0~0,7~0~0,14~0~0,7~0~0
0~0~0,0~0~0,30424,0~0~0,0~23~0,GO,BX08,0~0~0,MDA_4A,VACATION,BKN16,2300-0700,Some Reasons,Some Comments,2~0~0,2~2~0,2~0~0,0~0~0,30~0~0,7~0~0,14~0~0,7~0~0
0~0~0,0~0~0,30425,0~0~0,0~23~0,MB2,BX08,0~0~0,MDA_1,VACATION,BKN16,2200-0600,Some Reasons,Some Comments,2~0~0,2~2~0,2~0~0,0~0~0,30~0~0,7~0~0,14~0~0,7~0~0
0~0~0,0~0~0,30426,0~0~0,0~23~0,MB1,BX08,0~0~0,MDA_1L,VACATION,BKN16,0300-1100,Some Reasons,Some Comments,2~0~0,2~2~0,2~0~0,0~0~0,30~0~0,7~0~0,14~0~0,7~0~0
0~0~0,0~0~0,30427,0~0~0,0~23~0,CLK,BX08,0~0~0,MDA_2,VACATION,BKN16,0400-1200,Some Reasons,Some Comments,2~0~0,2~2~0,2~0~0,0~0~0,30~0~0,7~0~0,14~0~0,7~0~0
0~0~0,0~0~0,30428,0~0~0,0~23~0,RR,BX08,0~0~0,MDA_3,VACATION,BKN16,0500-1300,Some Reasons,Some Comments,2~0~0,2~2~0,2~0~0,0~0~0,30~0~0,7~0~0,14~0~0,7~0~0
0~0~0,0~0~0,30429,0~0~0,0~23~0,BSA,BX08,0~0~0,MDA_4,VACATION,BKN16,0700-1500,Some Reasons,Some Comments,2~0~0,2~2~0,2~0~0,0~0~0,30~0~0,7~0~0,14~0~0,7~0~0
0~0~0,0~0~0,30430,0~0~0,0~23~0,SC,BX08,0~0~0,MDA_4A,VACATION,BKN16,0800-1600,Some Reasons,Some Comments,2~0~0,2~2~0,2~0~0,0~0~0,30~0~0,7~0~0,14~0~0,7~0~0
0~0~0,0~0~0,30431,0~0~0,0~23~0,WR1,BX08,0~0~0,MDA_1,VACATION,BKN16,1000-1800,Some Reasons,Some Comments,2~0~0,2~2~0,2~0~0,0~0~0,30~0~0,7~0~0,14~0~0,7~0~0
0~0~0,0~0~0,30432,0~0~0,0~23~0,GU2,BX08,0~0~0,MDA_1L,VACATION,BKN16,1100-1900,Some Reasons,Some Comments,2~0~0,2~2~0,2~0~0,0~0~0,30~0~0,7~0~0,14~0~0,7~0~0
0~0~0,0~0~0,30433,0~0~0,0~23~0,GU3,BX08,0~0~0,MDA_2,VACATION,BKN16,1200-2000,Some Reasons,Some Comments,2~0~0,2~2~0,2~0~0,0~0~0,30~0~0,7~0~0,14~0~0,7~0~0
0~0~0,0~0~0,30434,0~0~0,0~23~0,MB3,BX08,0~0~0,MDA_3,VACATION,BKN16,0600-1400,Some Reasons,Some Comments,2~0~0,2~2~0,2~0~0,0~0~0,30~0~0,7~0~0,14~0~0,7~0~0
0~0~0,0~0~0,30435,0~0~0,0~23~0,WR2,BX08,0~0~0,MDA_4,VACATION,BKN16,0100-0900,Some Reasons,Some Comments,2~0~0,2~2~0,2~0~0,0~0~0,30~0~0,7~0~0,14~0~0,7~0~0
0~0~0,0~0~0,30436,0~0~0,0~23~0,WR3,BX08,0~0~0,MDA_4A,VACATION,BKN16,0200-1000,Some Reasons,Some Comments,2~0~0,2~2~0,2~0~0,0~0~0,30~0~0,7~0~0,14~0~0,7~0~0
0~0~0,0~0~0,30437,0~0~0,0~23~0,SKD,BX08,0~0~0,MDA_1,VACATION,BKN16,2200-0600,Some Reasons,Some Comments,2~0~0,2~2~0,2~0~0,0~0~0,30~0~0,7~0~0,14~0~0,7~0~0
0~0~0,0~0~0,30438,0~0~0,0~23~0,NS,BX08,0~0~0,MDA_1L,VACATION,BKN16,0000-0800,Some Reasons,Some Comments,2~0~0,2~2~0,2~0~0,0~0~0,30~0~0,7~0~0,14~0~0,7~0~0
0~0~0,0~0~0,30439,0~0~0,0~23~0,SS,BX08,0~0~0,MDA_2,VACATION,BKN16,2300-0700,Some Reasons,Some Comments,2~0~0,2~2~0,2~0~0,0~0~0,30~0~0,7~0~0,14~0~0,7~0~0
0~0~0,0~0~0,30440,0~0~0,0~23~0,BOA,BX08,0~0~0,MDA_3,VACATION,BKN16,2200-0600,Some Reasons,Some Comments,2~0~0,2~2~0,2~0~0,0~0~0,30~0~0,7~0~0,14~0~0,7~0~0
0~0~0,0~0~0,30441,0~0~0,0~23~0,CFC,BX08,0~0~0,MDA_4,VACATION,BKN16,0300-1100,Some Reasons,Some Comments,2~0~0,2~2~0,2~0~0,0~0~0,30~0~0,7~0~0,14~0~0,7~0~0
0~0~0,0~0~0,30442,0~0~0,0~23~0,BCA,BX08,0~0~0,MDA_4A,VACATION,BKN16,0400-1200,Some Reasons,Some Comments,2~0~0,2~2~0,2~0~0,0~0~0,30~0~0,7~0~0,14~0~0,7~0~0
0~0~0,0~0~0,30443,0~0~0,0~23~0,EZP,BX08,0~0~0,MDA_1,VACATION,BKN16,0500-1300,Some Reasons,Some Comments,2~0~0,2~2~0,2~0~0,0~0~0,30~0~0,7~0~0,14~0~0,7~0~0
0~0~0,0~0~0,30444,0~0~0,0~23~0,GU1,BX08,0~0~0,MDA_1L,VACATION,BKN16,0700-1500,Some Reasons,Some Comments,2~0~0,2~2~0,2~0~0,0~0~0,30~0~0,7~0~0,14~0~0,7~0~0
0~0~0,0~0~0,30445,0~0~0,0~23~0,GO,BX08,0~0~0,MDA_2,VACATION,BKN16,0800-1600,Some Reasons,Some Comments,2~0~0,2~2~0,2~0~0,0~0~0,30~0~0,7~0~0,14~0~0,7~0~0
0~0~0,0~0~0,30446,0~0~0,0~23~0,MB2,BX08,0~0~0,MDA_3,VACATION,BKN16,1000-1800,Some Reasons,Some Comments,2~0~0,2~2~0,2~0~0,0~0~0,30~0~0,7~0~0,14~0~0,7~0~0
0~0~0,0~0~0,30447,0~0~0,0~23~0,MB1,BX08,0~0~0,MDA_4,VACATION,BKN16,1100-1900,Some Reasons,Some Comments,2~0~0,2~2~0,2~0~0,0~0~0,30~0~0,7~0~0,14~0~0,7~0~0
0~0~0,0~0~0,30448,0~0~0,0~23~0,CLK,BX08,0~0~0,MDA_4A,VACATION,BKN16,1200-2000,Some Reasons,Some Comments,2~0~0,2~2~0,2~0~0,0~0~0,30~0~0,7~0~0,14~0~0,7~0~0
0~0~0,0~0~0,30449,0~0~0,0~23~0,RR,BX08,0~0~0,MDA_1,VACATION,BKN16,0600-1400,Some Reasons,Some Comments,2~0~0,2~2~0,2~0~0,0~0~0,30~0~0,7~0~0,14~0~0,7~0~0
0~0~0,0~0~0,30450,0~0~0,0~23~0,BSA,BX08,0~0~0,MDA_1L,VACATION,BKN16,0100-0900,Some Reasons,Some Comments,2~0~0,2~2~0,2~0~0,0~0~0,30~0~0,7~0~0,14~0~0,7~0~0
0~0~0,0~0~0,30451,0~0~0,0~23~0,SC,BX08,0~0~0,MDA_2,VACATION,BKN16,0200-1000,Some Reasons,Some Comments,2~0~0,2~2~0,2~0~0,0~0~0,30~0~0,7~0~0,14~0~0,7~0~0
0~0~0,0~0~0,30452,0~0~0,0~23~0,WR1,BX08,0~0~0,MDA_3,VACATION,BKN16,2200-0600,Some Reasons,Some Comments,2~0~0,2~2~0,2~0~0,0~0~0,30~0~0,7~0~0,14~0~0,7~0~0
0~0~0,0~0~0,30453,0~0~0,0~23~0,GU2,BX08,0~0~0,MDA_4,VACATION,BKN16,0000-0800,Some Reasons,Some Comments,2~0~0,2~2~0,2~0~0,0~0~0,30~0~0,7~0~0,14~0~0,7~0~0
0~0~0,0~0~0,30454,0~0~0,0~23~0,GU3,BX08,0~0~0,MDA_4A,VACATION,BKN16,2300-0700,Some Reasons,Some Comments,2~0~0,2~2~0,2~0~0,0~0~0,30~0~0,7~0~0,14~0~0,7~0~0
0~0~0,0~0~0,30455,0~0~0,0~23~0,MB3,BX08,0~0~0,MDA_1,VACATION,BKN16,2200-0600,Some Reasons,Some Comments,2~0~0,2~2~0,2~0~0,0~0~0,30~0~0,7~0~0,14~0~0,7~0~0
0~0~0,0~0~0,30456,0~0~0,0~23~0,WR2,BX08,0~0~0,MDA_1L,VACATION,BKN16,0300-1100,Some Reasons,Some Comments,2~0~0,2~2~0,2~0~0,0~0~0,30~0~0,7~0~0,14~0~0,7~0~0
0~0~0,0~0~0,30457,0~0~0,0~23~0,WR3,BX08,0~0~0,MDA_2,VACATION,BKN16,0400-1200,Some Reasons,Some Comments,2~0~0,2~2~0,2~0~0,0~0~0,30~0~0,7~0~0,14~0~0,7~0~0
0~0~0,0~0~0,30458,0~0~0,0~23~0,SKD,BX08,0~0~0,MDA_3,VACATION,BKN16,0500-1300,Some Reasons,Some Comments,2~0~0,2~2~0,2~0~0,0~0~0,30~0~0,7~0~0,14~0~0,7~0~0
0~0~0,0~0~0,30459,0~0~0,0~23~0,NS,BX08,0~0~0,MDA_4,VACATION,BKN16,0700-1500,Some Reasons,Some Comments,2~0~0,2~2~0,2~0~0,0~0~0,30~0~0,7~0~0,14~0~0,7~0~0
0~0~0,0~0~0,30460,0~0~0,0~23~0,SS,BX08,0~0~0,MDA_4A,VACATION,BKN16,0800-1600,Some Reasons,Some Comments,2~0~0,2~2~0,2~0~0,0~0~0,30~0~0,7~0~0,14~0~0,7~0~0
0~0~0,0~0~0,30461,0~0~0,0~23~0,BOA,BX08,0~0~0,MDA_1,VACATION,BKN16,1000-1800,Some Reasons,Some Comments,2~0~0,2~2~0,2~0~0,0~0~0,30~0~0,7~0~0,14~0~0,7~0~0
0~0~0,0~0~0,30462,0~0~0,0~23~0,CFC,BX08,0~0~0,MDA_1L,VACATION,BKN16,1100-1900,Some Reasons,Some Comments,2~0~0,2~2~0,2~0~0,0~0~0,30~0~0,7~0~0,14~0~0,7~0~0
0~0~0,0~0~0,30463,0~0~0,0~23~0,BCA,BX08,0~0~0,MDA_2,VACATION,BKN16,1200-2000,Some Reasons,Some Comments,2~0~0,2~2~0,2~0~0,0~0~0,30~0~0,7~0~0,14~0~0,7~0~0
0~0~0,0~0~0,30464,0~0~0,0~23~0,EZP,BX08,0~0~0,MDA_3,VACATION,BKN16,0600-1400,Some Reasons,Some Comments,2~0~0,2~2~0,2~0~0,0~0~0,30~0~0,7~0~0,14~0~0,7~0~0
0~0~0,0~0~0,30465,0~0~0,0~23~0,GU1,BX08,0~0~0,MDA_4,VACATION,BKN16,0100-0900,Some Reasons,Some Comments,2~0~0,2~2~0,2~0~0,0~0~0,30~0~0,7~0~0,14~0~0,7~0~0
0~0~0,0~0~0,30466,0~0~0,0~23~0,GO,BX08,0~0~0,MDA_4A,VACATION,BKN16,0200-1000,Some Reasons,Some Comments,2~0~0,2~2~0,2~0~0,0~0~0,30~0~0,7~0~0,14~0~0,7~0~0
0~0~0,0~0~0,30467,0~0~0,0~23~0,MB2,BX08,0~0~0,MDA_1,VACATION,BKN16,2200-0600,Some Reasons,Some Comments,2~0~0,2~2~0,2~0~0,0~0~0,30~0~0,7~0~0,14~0~0,7~0~0
0~0~0,0~0~0,30468,0~0~0,0~23~0,MB1,BX08,0~0~0,MDA_1L,VACATION,BKN16,0000-0800,Some Reasons,Some Comments,2~0~0,2~2~0,2~0~0,0~0~0,30~0~0,7~0~0,14~0~0,7~0~0
0~0~0,0~0~0,30469,0~0~0,0~23~0,CLK,BX08,0~0~0,MDA_2,VACATION,BKN16,2300-0700,Some Reasons,Some Comments,2~0~0,2~2~0,2~0~0,0~0~0,30~0~0,7~0~0,14~0~0,7~0~0
0~0~0,0~0~0,30470,0~0~0,0~23~0,RR,BX08,0~0~0,MDA_3,VACATION,BKN16,2200-0600,Some Reasons,Some Comments,2~0~0,2~2~0,2~0~0,0~0~0,30~0~0,7~0~0,14~0~0,7~0~0
0~0~0,0~0~0,30471,0~0~0,0~23~0,BSA,BX08,0~0~0,MDA_4,VACATION,BKN16,0300-1100,Some Reasons,Some Comments,2~0~0,2~2~0,2~0~0,0~0~0,30~0~0,7~0~0,14~0~0,7~0~0
0~0~0,0~0~0,30472,0~0~0,0~23~0,SC,BX08,0~0~0,MDA_4A,VACATION,BKN16,0400-1200,Some Reasons,Some Comments,2~0~0,2~2~0,2~0~0,0~0~0,30~0~0,7~0~0,14~0~0,7~0~0
0~0~0,0~0~0,30473,0~0~0,0~23~0,WR1,BX08,0~0~0,MDA_1,VACATION,BKN16,0500-1300,Some Reasons,Some Comments,2~0~0,2~2~0,2~0~0,0~0~0,30~0~0,7~0~0,14~0~0,7~0~0
0~0~0,0~0~0,30474,0~0~0,0~23~0,GU2,BX08,0~0~0,MDA_1L,VACATION,BKN16,0700-1500,Some Reasons,Some Comments,2~0~0,2~2~0,2~0~0,0~0~0,30~0~0,7~0~0,14~0~0,7~0~0
0~0~0,0~0~0,30475,0~0~0,0~23~0,GU3,BX08,0~0~0,MDA_2,VACATION,BKN16,0800-1600,Some Reasons,Some Comments,2~0~0,2~2~0,2~0~0,0~0~0,30~0~0,7~0~0,14~0~0,7~0~0
0~0~0,0~0~0,30476,0~0~0,0~23~0,MB3,BX08,0~0~0,MDA_3,VACATION,BKN16,1000-1800,Some Reasons,Some Comments,2~0~0,2~2~0,2~0~0,0~0~0,30~0~0,7~0~0,14~0~0,7~0~0
0~0~0,0~0~0,30477,0~0~0,0~23~0,WR2,BX08,0~0~0,MDA_4,VACATION,BKN16,1100-1900,Some Reasons,Some Comments,2~0~0,2~2~0,2~0~0,0~0~0,30~0~0,7~0~0,14~0~0,7~0~0
0~0~0,0~0~0,30478,0~0~0,0~23~0,WR3,BX08,0~0~0,MDA_4A,VACATION,BKN16,1200-2000,Some Reasons,Some Comments,2~0~0,2~2~0,2~0~0,0~0~0,30~0~0,7~0~0,14~0~0,7~0~0
0~0~0,0~0~0,30479,0~0~0,0~23~0,SKD,BX08,0~0~0,MDA_1,VACATION,BKN16,0600-1400,Some Reasons,Some Comments,2~0~0,2~2~0,2~0~0,0~0~0,30~0~0,7~0~0,14~0~0,7~0~0
0~0~0,0~0~0,30480,0~0~0,0~23~0,NS,BX08,0~0~0,MDA_1L,VACATION,BKN16,0100-0900,Some Reasons,Some Comments,2~0~0,2~2~0,2~0~0,0~0~0,30~0~0,7~0~0,14~0~0,7~0~0
0~0~0,0~0~0,30481,0~0~0,0~23~0,SS,BX08,0~0~0,MDA_2,VACATION,BKN16,0200-1000,Some Reasons,Some Comments,2~0~0,2~2~0,2~0~0,0~0~0,30~0~0,7~0~0,14~0~0,7~0~0
0~0~0,0~0~0,30482,0~0~0,0~23~0,BOA,BX08,0~0~0,MDA_3,VACATION,BKN16,2200-0600,Some Reasons,Some Comments,2~0~0,2~2~0,2~0~0,0~0~0,30~0~0,7~0~0,14~0~0,7~0~0
0~0~0,0~0~0,30483,0~0~0,0~23~0,CFC,BX08,0~0~0,MDA_4,VACATION,BKN16,0000-0800,Some Reasons,Some Comments,2~0~0,2~2~0,2~0~0,0~0~0,30~0~0,7~0~0,14~0~0,7~0~0
0~0~0,0~0~0,30484,0~0~0,0~23~0,BCA,BX08,0~0~0,MDA_4A,VACATION,BKN16,2300-0700,Some Reasons,Some Comments,2~0~0,2~2~0,2~0~0,0~0~0,30~0~0,7~0~0,14~0~0,7~0~0
0~0~0,0~0~0,30485,0~0~0,0~23~0,EZP,BX08,0~0~0,MDA_1,VACATION,BKN16,2200-0600,Some Reasons,Some Comments,2~0~0,2~2~0,2~0~0,0~0~0,30~0~0,7~0~0,14~0~0,7~0~0
0~0~0,0~0~0,30486,0~0~0,0~23~0,GU1,BX08,0~0~0,MDA_1L,VACATION,BKN16,0300-1100,Some Reasons,Some Comments,2~0~0,2~2~0,2~0~0,0~0~0,30~0~0,7~0~0,14~0~0,7~0~0
0~0~0,0~0~0,30487,0~0~0,0~23~0,GO,BX08,0~0~0,MDA_2,VACATION,BKN16,0400-1200,Some Reasons,Some Comments,2~0~0,2~2~0,2~0~0,0~0~0,30~0~0,7~0~0,14~0~0,7~0~0
0~0~0,0~0~0,30488,0~0~0,0~23~0,MB2,BX08,0~0~0,MDA_3,VACATION,BKN16,0500-1300,Some Reasons,Some Comments,2~0~0,2~2~0,2~0~0,0~0~0,30~0~0,7~0~0,14~0~0,7~0~0
0~0~0,0~0~0,30489,0~0~0,0~23~0,MB1,BX08,0~0~0,MDA_4,VACATION,BKN16,0700-1500,Some Reasons,Some Comments,2~0~0,2~2~0,2~0~0,0~0~0,30~0~0,7~0~0,14~0~0,7~0~0
0~0~0,0~0~0,30490,0~0~0,0~23~0,CLK,BX08,0~0~0,MDA_4A,VACATION,BKN16,0800-1600,Some Reasons,Some Comments,2~0~0,2~2~0,2~0~0,0~0~0,30~0~0,7~0~0,14~0~0,7~0~0
0~0~0,0~0~0,30491,0~0~0,0~23~0,RR,BX08,0~0~0,MDA_1,VACATION,BKN16,1000-1800,Some Reasons,Some Comments,2~0~0,2~2~0,2~0~0,0~0~0,30~0~0,7~0~0,14~0~0,7~0~0
0~0~0,0~0~0,30492,0~0~0,0~23~0,BSA,BX08,0~0~0,MDA_1L,VACATION,BKN16,1100-1900,Some Reasons,Some Comments,2~0~0,2~2~0,2~0~0,0~0~0,30~0~0,7~0~0,14~0~0,7~0~0
0~0~0,0~0~0,30493,0~0~0,0~23~0,SC,BX08,0~0~0,MDA_2,VACATION,BKN16,1200-2000,Some Reasons,Some Comments,2~0~0,2~2~0,2~0~0,0~0~0,30~0~0,7~0~0,14~0~0,7~0~0
0~0~0,0~0~0,30494,0~0~0,0~23~0,WR1,BX08,0~0~0,MDA_3,VACATION,BKN16,0600-1400,Some Reasons,Some Comments,2~0~0,2~2~0,2~0~0,0~0~0,30~0~0,7~0~0,14~0~0,7~0~0
0~0~0,0~0~0,30495,0~0~0,0~23~0,GU2,BX08,0~0~0,MDA_4,VACATION,BKN16,0100-0900,Some Reasons,Some Comments,2~0~0,2~2~0,2~0~0,0~0~0,30~0~0,7~0~0,14~0~0,7~0~0
0~0~0,0~0~0,30496,0~0~0,0~23~0,GU3,BX08,0~0~0,MDA_4A,VACATION,BKN16,0200-1000,Some Reasons,Some Comments,2~0~0,2~2~0,2~0~0,0~0~0,30~0~0,7~0~0,14~0~0,7~0~0
0~0~0,0~0~0,30497,0~0~0,0~23~0,MB3,BX08,0~0~0,MDA_1,VACATION,BKN16,2200-0600,Some Reasons,Some Comments,2~0~0,2~2~0,2~0~0,0~0~0,30~0~0,7~0~0,14~0~0,7~0~0
0~0~0,0~0~0,30498,0~0~0,0~23~0,WR2,BX08,0~0~0,MDA_1L,VACATION,BKN16,0000-0800,Some Reasons,Some Comments,2~0~0,2~2~0,2~0~0,0~0~0,30~0~0,7~0~0,14~0~0,7~0~0
0~0~0,0~0~0,30499,0~0~0,0~23~0,WR3,BX08,0~0~0,MDA_2,VACATION,BKN16,2300-0700,Some Reasons,Some Comments,2~0~0,2~2~0,2~0~0,0~0~0,30~0~0,7~0~0,14~0~0,7~0~0
0~0~0,0~0~0,30500,0~0~0,0~23~0,SKD,BX08,0~0~0,MDA_3,VACATION,BKN16,2200-0600,Some Reasons,Some Comments,2~0~0,2~2~0,2~0~0,0~0~0,30~0~0,7~0~0,14~0~0,7~0~0
