0~0~0,0~0~0,30201,0~0~0,0~23~0,GU2,BX08,0~0~0,MDA_4,VACATION,BKN16,0300-1100,Some Reasons,Some Comments,2~0~0,2~2~0,2~0~0,0~0~0,30~0~0,7~0~0,14~0~0,7~0~0
0~0~0,0~0~0,30202,0~0~0,0~23~0,GU3,BX08,0~0~0,MDA_4A,VACATION,BKN16,0400-1200,Some Reasons,Some Comments,2~0~0,2~2~0,2~0~0,0~0~0,30~0~0,7~0~0,14~0~0,7~0~0
0~0~0,0~0~0,30203,0~0~0,0~23~0,MB3,BX08,0~0~0,MDA_1,VACATION,BKN16,0500-1300,Some Reasons,Some Comments,2~0~0,2~2~0,2~0~0,0~0~0,30~0~0,7~0~0,14~0~0,7~0~0
0~0~0,0~0~0,30204,0~0~0,0~23~0,WR2,BX08,0~0~0,MDA_1L,VACATION,BKN16,0700-1500,Some Reasons,Some Comments,2~0~0,2~2~0,2~0~0,0~0~0,30~0~0,7~0~0,14~0~0,7~0~0
0~0~0,0~0~0,30205,0~0~0,0~23~0,WR3,BX08,0~0~0,MDA_2,VACATION,BKN16,0800-1600,Some Reasons,Some Comments,2~0~0,2~2~0,2~0~0,0~0~0,30~0~0,7~0~0,14~0~0,7~0~0
0~0~0,0~0~0,30206,0~0~0,0~23~0,SKD,BX08,0~0~0,MDA_3,VACATION,BKN16,1000-1800,Some Reasons,Some Comments,2~0~0,2~2~0,2~0~0,0~0~0,30~0~0,7~0~0,14~0~0,7~0~0
0~0~0,0~0~0,30207,0~0~0,0~23~0,NS,BX08,0~0~0,MDA_4,VACATION,BKN16,1100-1900,Some Reasons,Some Comments,2~0~0,2~2~0,2~0~0,0~0~0,30~0~0,7~0~0,14~0~0,7~0~0
0~0~0,0~0~0,30208,0~0~0,0~23~0,SS,BX08,0~0~0,MDA_4A,VACATION,BKN16,1200-2000,Some Reasons,Some Comments,2~0~0,2~2~0,2~0~0,0~0~0,30~0~0,7~0~0,14~0~0,7~0~0
0~0~0,0~0~0,30209,0~0~0,0~23~0,BOA,BX08,0~0~0,MDA_1,VACATION,BKN16,0600-1400,Some Reasons,Some Comments,2~0~0,2~2~0,2~0~0,0~0~0,30~0~0,7~0~0,14~0~0,7~0~0
0~0~0,0~0~0,30210,0~0~0,0~23~0,CFC,BX08,0~0~0,MDA_1L,VACATION,BKN16,0100-0900,Some Reasons,Some Comments,2~0~0,2~2~0,2~0~0,0~0~0,30~0~0,7~0~0,14~0~0,7~0~0
0~0~0,0~0~0,30211,0~0~0,0~23~0,BCA,BX08,0~0~0,MDA_2,VACATION,BKN16,0200-1000,Some Reasons,Some Comments,2~0~0,2~2~0,2~0~0,0~0~0,30~0~0,7~0~0,14~0~0,7~0~0
0~0~0,0~0~0,30212,0~0~0,0~23~0,EZP,BX08,0~0~0,MDA_3,VACATION,BKN16,2200-0600,Some Reasons,Some Comments,2~0~0,2~2~0,2~0~0,0~0~0,30~0~0,7~0~0,14~0~0,7~0~0
0~0~0,0~0~0,30213,0~0~0,0~23~0,GU1,BX08,0~0~0,MDA_4,VACATION,BKN16,0000-0800,Some Reasons,Some Comments,2~0~0,2~2~0,2~0~0,0~0~0,30~0~0,7~0~0,14~0~0,7~0~0
0~0~0,0~0~0,30214,0~0~0,0~23~0,GO,BX08,0~0~0,MDA_4A,VACATION,BKN16,2300-0700,Some Reasons,Some Comments,2~0~0,2~2~0,2~0~0,0~0~0,30~0~0,7~0~0,14~0~0,7~0~0
0~0~0,0~0~0,30215,0~0~0,0~23~0,MB2,BX08,0~0~0,MDA_1,VACATION,BKN16,2200-0600,Some Reasons,Some Comments,2~0~0,2~2~0,2~0~0,0~0~0,30~0~0,7~0~0,14~0~0,7~0~0
0~0~0,0~0~0,30216,0~0~0,0~23~0,MB1,BX08,0~0~0,MDA_1L,VACATION,BKN16,0300-1100,Some Reasons,Some Comments,2~0~0,2~2~0,2~0~0,0~0~0,30~0~0,7~0~0,14~0~0,7~0~0
0~0~0,0~0~0,30217,0~0~0,0~23~0,CLK,BX08,0~0~0,MDA_2,VACATION,BKN16,0400-1200,Some Reasons,Some Comments,2~0~0,2~2~0,2~0~0,0~0~0,30~0~0,7~0~0,14~0~0,7~0~0
0~0~0,0~0~0,30218,0~0~0,0~23~0,RR,BX08,0~0~0,MDA_3,VACATION,BKN16,0500-1300,Some Reasons,Some Comments,2~0~0,2~2~0,2~0~0,0~0~0,30~0~0,7~0~0,14~0~0,7~0~0
0~0~0,0~0~0,30219,0~0~0,0~23~0,BSA,BX08,0~0~0,MDA_4,VACATION,BKN16,0700-1500,Some Reasons,Some Comments,2~0~0,2~2~0,2~0~0,0~0~0,30~0~0,7~0~0,14~0~0,7~0~0
0~0~0,0~0~0,30220,0~0~0,0~23~0,SC,BX08,0~0~0,MDA_4A,VACATION,BKN16,0800-1600,Some Reasons,Some Comments,2~0~0,2~2~0,2~0~0,0~0~0,30~0~0,7~0~0,14~0~0,7~0~0
0~0~0,0~0~0,30221,0~0~0,0~23~0,WR1,BX08,0~0~0,MDA_1,VACATION,BKN16,1000-1800,Some Reasons,Some Comments,2~0~0,2~2~0,2~0~0,0~0~0,30~0~0,7~0~0,14~0~0,7~0~0
0~0~0,0~0~0,30222,0~0~0,0~23~0,GU2,BX08,0~0~0,MDA_1L,VACATION,BKN16,1100-1900,Some Reasons,Some Comments,2~0~0,2~2~0,2~0~0,0~0~0,30~0~0,7~0~0,14~0~0,7~0~0
0~0~0,0~0~0,30223,0~0~0,0~23~0,GU3,BX08,0~0~0,MDA_2,VACATION,BKN16,1200-2000,Some Reasons,Some Comments,2~0~0,2~2~0,2~0~0,0~0~0,30~0~0,7~0~0,14~0~0,7~0~0
0~0~0,0~0~0,30224,0~0~0,0~23~0,MB3,BX08,0~0~0,MDA_3,VACATION,BKN16,0600-1400,Some Reasons,Some Comments,2~0~0,2~2~0,2~0~0,0~0~0,30~0~0,7~0~0,14~0~0,7~0~0
0~0~0,0~0~0,30225,0~0~0,0~23~0,WR2,BX08,0~0~0,MDA_4,VACATION,BKN16,0100-0900,Some Reasons,Some Comments,2~0~0,2~2~0,2~0~0,0~0~0,30~0~0,7~0~0,14~0~0,7~0~0
0~0~0,0~0~0,30226,0~0~0,0~23~0,WR3,BX08,0~0~0,MDA_4A,VACATION,BKN16,0200-1000,Some Reasons,Some Comments,2~0~0,2~2~0,2~0~0,0~0~0,30~0~0,7~0~0,14~0~0,7~0~0
0~0~0,0~0~0,30227,0~0~0,0~23~0,SKD,BX08,0~0~0,MDA_1,VACATION,BKN16,2200-0600,Some Reasons,Some Comments,2~0~0,2~2~0,2~0~0,0~0~0,30~0~0,7~0~0,14~0~0,7~0~0
0~0~0,0~0~0,30228,0~0~0,0~23~0,NS,BX08,0~0~0,MDA_1L,VACATION,BKN16,0000-0800,Some Reasons,Some Comments,2~0~0,2~2~0,2~0~0,0~0~0,30~0~0,7~0~0,14~0~0,7~0~0
0~0~0,0~0~0,30229,0~0~0,0~23~0,SS,BX08,0~0~0,MDA_2,VACATION,BKN16,2300-0700,Some Reasons,Some Comments,2~0~0,2~2~0,2~0~0,0~0~0,30~0~0,7~0~0,14~0~0,7~0~0
0~0~0,0~0~0,30230,0~0~0,0~23~0,BOA,BX08,0~0~0,MDA_3,VACATION,BKN16,2200-0600,Some Reasons,Some Comments,2~0~0,2~2~0,2~0~0,0~0~0,30~0~0,7~0~0,14~0~0,7~0~0
0~0~0,0~0~0,30231,0~0~0,0~23~0,CFC,BX08,0~0~0,MDA_4,VACATION,BKN16,0300-1100,Some Reasons,Some Comments,2~0~0,2~2~0,2~0~0,0~0~0,30~0~0,7~0~0,14~0~0,7~0~0
0~0~0,0~0~0,30232,0~0~0,0~23~0,BCA,BX08,0~0~0,MDA_4A,VACATION,BKN16,0400-1200,Some Reasons,Some Comments,2~0~0,2~2~0,2~0~0,0~0~0,30~0~0,7~0~0,14~0~0,7~0~0
0~0~0,0~0~0,30233,0~0~0,0~23~0,EZP,BX08,0~0~0,MDA_1,VACATION,BKN16,0500-1300,Some Reasons,Some Comments,2~0~0,2~2~0,2~0~0,0~0~0,30~0~0,7~0~0,14~0~0,7~0~0
0~0~0,0~0~0,30234,0~0~0,0~23~0,GU1,BX08,0~0~0,MDA_1L,VACATION,BKN16,0700-1500,Some Reasons,Some Comments,2~0~0,2~2~0,2~0~0,0~0~0,30~0~0,7~0~0,14~0~0,7~0~0
0~0~0,0~0~0,30235,0~0~0,0~23~0,GO,BX08,0~0~0,MDA_2,VACATION,BKN16,0800-1600,Some Reasons,Some Comments,2~0~0,2~2~0,2~0~0,0~0~0,30~0~0,7~0~0,14~0~0,7~0~0
0~0~0,0~0~0,30236,0~0~0,0~23~0,MB2,BX08,0~0~0,MDA_3,VACATION,BKN16,1000-1800,Some Reasons,Some Comments,2~0~0,2~2~0,2~0~0,0~0~0,30~0~0,7~0~0,14~0~0,7~0~0
0~0~0,0~0~0,30237,0~0~0,0~23~0,MB1,BX08,0~0~0,MDA_4,VACATION,BKN16,1100-1900,Some Reasons,Some Comments,2~0~0,2~2~0,2~0~0,0~0~0,30~0~0,7~0~0,14~0~0,7~0~0
0~0~0,0~0~0,30238,0~0~0,0~23~0,CLK,BX08,0~0~0,MDA_4A,VACATION,BKN16,1200-2000,Some Reasons,Some Comments,2~0~0,2~2~0,2~0~0,0~0~0,30~0~0,7~0~0,14~0~0,7~0~0
0~0~0,0~0~0,30239,0~0~0,0~23~0,RR,BX08,0~0~0,MDA_1,VACATION,BKN16,0600-1400,Some Reasons,Some Comments,2~0~0,2~2~0,2~0~0,0~0~0,30~0~0,7~0~0,14~0~0,7~0~0
0~0~0,0~0~0,30240,0~0~0,0~23~0,BSA,BX08,0~0~0,MDA_1L,VACATION,BKN16,0100-0900,Some Reasons,Some Comments,2~0~0,2~2~0,2~0~0,0~0~0,30~0~0,7~0~0,14~0~0,7~0~0
0~0~0,0~0~0,30241,0~0~0,0~23~0,SC,BX08,0~0~0,MDA_2,VACATION,BKN16,0200-1000,Some Reasons,Some Comments,2~0~0,2~2~0,2~0~0,0~0~0,30~0~0,7~0~0,14~0~0,7~0~0
0~0~0,0~0~0,30242,0~0~0,0~23~0,WR1,BX08,0~0~0,MDA_3,VACATION,BKN16,2200-0600,Some Reasons,Some Comments,2~0~0,2~2~0,2~0~0,0~0~0,30~0~0,7~0~0,14~0~0,7~0~0
0~0~0,0~0~0,30243,0~0~0,0~23~0,GU2,BX08,0~0~0,MDA_4,VACATION,BKN16,0000-0800,Some Reasons,Some Comments,2~0~0,2~2~0,2~0~0,0~0~0,30~0~0,7~0~0,14~0~0,7~0~0
0~0~0,0~0~0,30244,0~0~0,0~23~0,GU3,BX08,0~0~0,MDA_4A,VACATION,BKN16,2300-0700,Some Reasons,Some Comments,2~0~0,2~2~0,2~0~0,0~0~0,30~0~0,7~0~0,14~0~0,7~0~0
0~0~0,0~0~0,30245,0~0~0,0~23~0,MB3,BX08,0~0~0,MDA_1,VACATION,BKN16,2200-0600,Some Reasons,Some Comments,2~0~0,2~2~0,2~0~0,0~0~0,30~0~0,7~0~0,14~0~0,7~0~0
0~0~0,0~0~0,30246,0~0~0,0~23~0,WR2,BX08,0~0~0,MDA_1L,VACATION,BKN16,0300-1100,Some Reasons,Some Comments,2~0~0,2~2~0,2~0~0,0~0~0,30~0~0,7~0~0,14~0~0,7~0~0
0~0~0,0~0~0,30247,0~0~0,0~23~0,WR3,BX08,0~0~0,MDA_2,VACATION,BKN16,0400-1200,Some Reasons,Some Comments,2~0~0,2~2~0,2~0~0,0~0~0,30~0~0,7~0~0,14~0~0,7~0~0
0~0~0,0~0~0,30248,0~0~0,0~23~0,SKD,BX08,0~0~0,MDA_3,VACATION,BKN16,0500-1300,Some Reasons,Some Comments,2~0~0,2~2~0,2~0~0,0~0~0,30~0~0,7~0~0,14~0~0,7~0~0
0~0~0,0~0~0,30249,0~0~0,0~23~0,NS,BX08,0~0~0,MDA_4,VACATION,BKN16,0700-1500,Some Reasons,Some Comments,2~0~0,2~2~0,2~0~0,0~0~0,30~0~0,7~0~0,14~0~0,7~0~0
0~0~0,0~0~0,30250,0~0~0,0~23~0,SS,BX08,0~0~0,MDA_4A,VACATION,BKN16,0800-1600,Some Reasons,Some Comments,2~0~0,2~2~0,2~0~0,0~0~0,30~0~0,7~0~0,14~0~0,7~0~0
0~0~0,0~0~0,30251,0~0~0,0~23~0,BOA,BX08,0~0~0,MDA_1,VACATION,BKN16,1000-1800,Some Reasons,Some Comments,2~0~0,2~2~0,2~0~0,0~0~0,30~0~0,7~0~0,14~0~0,7~0~0
0~0~0,0~0~0,30252,0~0~0,0~23~0,CFC,BX08,0~0~0,MDA_1L,VACATION,BKN16,1100-1900,Some Reasons,Some Comments,2~0~0,2~2~0,2~0~0,0~0~0,30~0~0,7~0~0,14~0~0,7~0~0
0~0~0,0~0~0,30253,0~0~0,0~23~0,BCA,BX08,0~0~0,MDA_2,VACATION,BKN16,1200-2000,Some Reasons,Some Comments,2~0~0,2~2~0,2~0~0,0~0~0,30~0~0,7~0~0,14~0~0,7~0~0
0~0~0,0~0~0,30254,0~0~0,0~23~0,EZP,BX08,0~0~0,MDA_3,VACATION,BKN16,0600-1400,Some Reasons,Some Comments,2~0~0,2~2~0,2~0~0,0~0~0,30~0~0,7~0~0,14~0~0,7~0~0
0~0~0,0~0~0,30255,0~0~0,0~23~0,GU1,BX08,0~0~0,MDA_4,VACATION,BKN16,0100-0900,Some Reasons,Some Comments,2~0~0,2~2~0,2~0~0,0~0~0,30~0~0,7~0~0,14~0~0,7~0~0
0~0~0,0~0~0,30256,0~0~0,0~23~0,GO,BX08,0~0~0,MDA_4A,VACATION,BKN16,0200-1000,Some Reasons,Some Comments,2~0~0,2~2~0,2~0~0,0~0~0,30~0~0,7~0~0,14~0~0,7~0~0
0~0~0,0~0~0,30257,0~0~0,0~23~0,MB2,BX08,0~0~0,MDA_1,VACATION,BKN16,2200-0600,Some Reasons,Some Comments,2~0~0,2~2~0,2~0~0,0~0~0,30~0~0,7~0~0,14~0~0,7~0~0
0~0~0,0~0~0,30258,0~0~0,0~23~0,MB1,BX08,0~0~0,MDA_1L,VACATION,BKN16,0000-0800,Some Reasons,Some Comments,2~0~0,2~2~0,2~0~0,0~0~0,30~0~0,7~0~0,14~0~0,7~0~0
0~0~0,0~0~0,30259,0~0~0,0~23~0,CLK,BX08,0~0~0,MDA_2,VACATION,BKN16,2300-0700,Some Reasons,Some Comments,2~0~0,2~2~0,2~0~0,0~0~0,30~0~0,7~0~0,14~0~0,7~0~0
0~0~0,0~0~0,30260,0~0~0,0~23~0,RR,BX08,0~0~0,MDA_3,VACATION,BKN16,2200-0600,Some Reasons,Some Comments,2~0~0,2~2~0,2~0~0,0~0~0,30~0~0,7~0~0,14~0~0,7~0~0
0~0~0,0~0~0,30261,0~0~0,0~23~0,BSA,BX08,0~0~0,MDA_4,VACATION,BKN16,0300-1100,Some Reasons,Some Comments,2~0~0,2~2~0,2~0~0,0~0~0,30~0~0,7~0~0,14~0~0,7~0~0
0~0~0,0~0~0,30262,0~0~0,0~23~0,SC,BX08,0~0~0,MDA_4A,VACATION,BKN16,0400-1200,Some Reasons,Some Comments,2~0~0,2~2~0,2~0~0,0~0~0,30~0~0,7~0~0,14~0~0,7~0~0
0~0~0,0~0~0,30263,0~0~0,0~23~0,WR1,BX08,0~0~0,MDA_1,VACATION,BKN16,0500-1300,Some Reasons,Some Comments,2~0~0,2~2~0,2~0~0,0~0~0,30~0~0,7~0~0,14~0~0,7~0~0
0~0~0,0~0~0,30264,0~0~0,0~23~0,GU2,BX08,0~0~0,MDA_1L,VACATION,BKN16,0700-1500,Some Reasons,Some Comments,2~0~0,2~2~0,2~0~0,0~0~0,30~0~0,7~0~0,14~0~0,7~0~0
0~0~0,0~0~0,30265,0~0~0,0~23~0,GU3,BX08,0~0~0,MDA_2,VACATION,BKN16,0800-1600,Some Reasons,Some Comments,2~0~0,2~2~0,2~0~0,0~0~0,30~0~0,7~0~0,14~0~0,7~0~0
0~0~0,0~0~0,30266,0~0~0,0~23~0,MB3,BX08,0~0~0,MDA_3,VACATION,BKN16,1000-1800,Some Reasons,Some Comments,2~0~0,2~2~0,2~0~0,0~0~0,30~0~0,7~0~0,14~0~0,7~0~0
0~0~0,0~0~0,30267,0~0~0,0~23~0,WR2,BX08,0~0~0,MDA_4,VACATION,BKN16,1100-1900,Some Reasons,Some Comments,2~0~0,2~2~0,2~0~0,0~0~0,30~0~0,7~0~0,14~0~0,7~0~0
0~0~0,0~0~0,30268,0~0~0,0~23~0,WR3,BX08,0~0~0,MDA_4A,VACATION,BKN16,1200-2000,Some Reasons,Some Comments,2~0~0,2~2~0,2~0~0,0~0~0,30~0~0,7~0~0,14~0~0,7~0~0
0~0~0,0~0~0,30269,0~0~0,0~23~0,SKD,BX08,0~0~0,MDA_1,VACATION,BKN16,0600-1400,Some Reasons,Some Comments,2~0~0,2~2~0,2~0~0,0~0~0,30~0~0,7~0~0,14~0~0,7~0~0
0~0~0,0~0~0,30270,0~0~0,0~23~0,NS,BX08,0~0~0,MDA_1L,VACATION,BKN16,0100-0900,Some Reasons,Some Comments,2~0~0,2~2~0,2~0~0,0~0~0,30~0~0,7~0~0,14~0~0,7~0~0
0~0~0,0~0~0,30271,0~0~0,0~23~0,SS,BX08,0~0~0,MDA_2,VACATION,BKN16,0200-1000,Some Reasons,Some Comments,2~0~0,2~2~0,2~0~0,0~0~0,30~0~0,7~0~0,14~0~0,7~0~0
0~0~0,0~0~0,30272,0~0~0,0~23~0,BOA,BX08,0~0~0,MDA_3,VACATION,BKN16,2200-0600,Some Reasons,Some Comments,2~0~0,2~2~0,2~0~0,0~0~0,30~0~0,7~0~0,14~0~0,7~0~0
0~0~0,0~0~0,30273,0~0~0,0~23~0,CFC,BX08,0~0~0,MDA_4,VACATION,BKN16,0000-0800,Some Reasons,Some Comments,2~0~0,2~2~0,2~0~0,0~0~0,30~0~0,7~0~0,14~0~0,7~0~0
0~0~0,0~0~0,30274,0~0~0,0~23~0,BCA,BX08,0~0~0,MDA_4A,VACATION,BKN16,2300-0700,Some Reasons,Some Comments,2~0~0,2~2~0,2~0~0,0~0~0,30~0~0,7~0~0,14~0~0,7~0~0
0~0~0,0~0~0,30275,0~0~0,0~23~0,EZP,BX08,0~0~0,MDA_1,VACATION,BKN16,2200-0600,Some Reasons,Some Comments,2~0~0,2~2~0,2~0~0,0~0~0,30~0~0,7~0~0,14~0~0,7~0~0
0~0~0,0~0~0,30276,0~0~0,0~23~0,GU1,BX08,0~0~0,MDA_1L,VACATION,BKN16,0300-1100,Some Reasons,Some Comments,2~0~0,2~2~0,2~0~0,0~0~0,30~0~0,7~0~0,14~0~0,7~0~0
0~0~0,0~0~0,30277,0~0~0,0~23~0,GO,BX08,0~0~0,MDA_2,VACATION,BKN16,0400-1200,Some Reasons,Some Comments,2~0~0,2~2~0,2~0~0,0~0~0,30~0~0,7~0~0,14~0~0,7~0~0
0~0~0,0~0~0,30278,0~0~0,0~23~0,MB2,BX08,0~0~0,MDA_3,VACATION,BKN16,0500-1300,Some Reasons,Some Comments,2~0~0,2~2~0,2~0~0,0~0~0,30~0~0,7~0~0,14~0~0,7~0~0
0~0~0,0~0~0,30279,0~0~0,0~23~0,MB1,BX08,0~0~0,MDA_4,VACATION,BKN16,0700-1500,Some Reasons,Some Comments,2~0~0,2~2~0,2~0~0,0~0~0,30~0~0,7~0~0,14~0~0,7~0~0
0~0~0,0~0~0,30280,0~0~0,0~23~0,CLK,BX08,0~0~0,MDA_4A,VACATION,BKN16,0800-1600,Some Reasons,Some Comments,2~0~0,2~2~0,2~0~0,0~0~0,30~0~0,7~0~0,14~0~0,7~0~0
0~0~0,0~0~0,30281,0~0~0,0~23~0,RR,BX08,0~0~0,MDA_1,VACATION,BKN16,1000-1800,Some Reasons,Some Comments,2~0~0,2~2~0,2~0~0,0~0~0,30~0~0,7~0~0,14~0~0,7~0~0
0~0~0,0~0~0,30282,0~0~0,0~23~0,BSA,BX08,0~0~0,MDA_1L,VACATION,BKN16,1100-1900,Some Reasons,Some Comments,2~0~0,2~2~0,2~0~0,0~0~0,30~0~0,7~0~0,14~0~0,7~0~0
0~0~0,0~0~0,30283,0~0~0,0~23~0,SC,BX08,0~0~0,MDA_2,VACATION,BKN16,1200-2000,Some Reasons,Some Comments,2~0~0,2~2~0,2~0~0,0~0~0,30~0~0,7~0~0,14~0~0,7~0~0
0~0~0,0~0~0,30284,0~0~0,0~23~0,WR1,BX08,0~0~0,MDA_3,VACATION,BKN16,0600-1400,Some Reasons,Some Comments,2~0~0,2~2~0,2~0~0,0~0~0,30~0~0,7~0~0,14~0~0,7~0~0
0~0~0,0~0~0,30285,0~0~0,0~23~0,GU2,BX08,0~0~0,MDA_4,VACATION,BKN16,0100-0900,Some Reasons,Some Comments,2~0~0,2~2~0,2~0~0,0~0~0,30~0~0,7~0~0,14~0~0,7~0~0
0~0~0,0~0~0,30286,0~0~0,0~23~0,GU3,BX08,0~0~0,MDA_4A,VACATION,BKN16,0200-1000,Some Reasons,Some Comments,2~0~0,2~2~0,2~0~0,0~0~0,30~0~0,7~0~0,14~0~0,7~0~0
0~0~0,0~0~0,30287,0~0~0,0~23~0,MB3,BX08,0~0~0,MDA_1,VACATION,BKN16,2200-0600,Some Reasons,Some Comments,2~0~0,2~2~0,2~0~0,0~0~0,30~0~0,7~0~0,14~0~0,7~0~0
0~0~0,0~0~0,30288,0~0~0,0~23~0,WR2,BX08,0~0~0,MDA_1L,VACATION,BKN16,0000-0800,Some Reasons,Some Comments,2~0~0,2~2~0,2~0~0,0~0~0,30~0~0,7~0~0,14~0~0,7~0~0
0~0~0,0~0~0,30289,0~0~0,0~23~0,WR3,BX08,0~0~0,MDA_2,VACATION,BKN16,2300-0700,Some Reasons,Some Comments,2~0~0,2~2~0,2~0~0,0~0~0,30~0~0,7~0~0,14~0~0,7~0~0
0~0~0,0~0~0,30290,0~0~0,0~23~0,SKD,BX08,0~0~0,MDA_3,VACATION,BKN16,2200-0600,Some Reasons,Some Comments,2~0~0,2~2~0,2~0~0,0~0~0,30~0~0,7~0~0,14~0~0,7~0~0
0~0~0,0~0~0,30291,0~0~0,0~23~0,NS,BX08,0~0~0,MDA_4,VACATION,BKN16,0300-1100,Some Reasons,Some Comments,2~0~0,2~2~0,2~0~0,0~0~0,30~0~0,7~0~0,14~0~0,7~0~0
0~0~0,0~0~0,30292,0~0~0,0~23~0,SS,BX08,0~0~0,MDA_4A,VACATION,BKN16,0400-1200,Some Reasons,Some Comments,2~0~0,2~2~0,2~0~0,0~0~0,30~0~0,7~0~0,14~0~0,7~0~0
0~0~0,0~0~0,30293,0~0~0,0~23~0,BOA,BX08,0~0~0,MDA_1,VACATION,BKN16,0500-1300,Some Reasons,Some Comments,2~0~0,2~2~0,2~0~0,0~0~0,30~0~0,7~0~0,14~0~0,7~0~0
0~0~0,0~0~0,30294,0~0~0,0~23~0,CFC,BX08,0~0~0,MDA_1L,VACATION,BKN16,0700-1500,Some Reasons,Some Comments,2~0~0,2~2~0,2~0~0,0~0~0,30~0~0,7~0~0,14~0~0,7~0~0
0~0~0,0~0~0,30295,0~0~0,0~23~0,BCA,BX08,0~0~0,MDA_2,VACATION,BKN16,0800-1600,Some Reasons,Some Comments,2~0~0,2~2~0,2~0~0,0~0~0,30~0~0,7~0~0,14~0~0,7~0~0
0~0~0,0~0~0,30296,0~0~0,0~23~0,EZP,BX08,0~0~0,MDA_3,VACATION,BKN16,1000-1800,Some Reasons,Some Comments,2~0~0,2~2~0,2~0~0,0~0~0,30~0~0,7~0~0,14~0~0,7~0~0
0~0~0,0~0~0,30297,0~0~0,0~23~0,GU1,BX08,0~0~0,MDA_4,VACATION,BKN16,1100-1900,Some Reasons,Some Comments,2~0~0,2~2~0,2~0~0,0~0~0,30~0~0,7~0~0,14~0~0,7~0~0
0~0~0,0~0~0,30298,0~0~0,0~23~0,GO,BX08,0~0~0,MDA_4A,VACATION,BKN16,1200-2000,Some Reasons,Some Comments,2~0~0,2~2~0,2~0~0,0~0~0,30~0~0,7~0~0,14~0~0,7~0~0
0~0~0,0~0~0,30299,0~0~0,0~23~0,MB2,BX08,0~0~0,MDA_1,VACATION,BKN16,0600-1400,Some Reasons,Some Comments,2~0~0,2~2~0,2~0~0,0~0~0,30~0~0,7~0~0,14~0~0,7~0~0
0~0~0,0~0~0,30300,0~0~0,0~23~0,MB1,BX08,0~0~0,MDA_1L,VACATION,BKN16,0100-0900,Some Reasons,Some Comments,2~0~0,2~2~0,2~0~0,0~0~0,30~0~0,7~0~0,14~0~0,7~0~0
0~0~0,0~0~0,30501,0~0~0,0~23~0,NS,BX08,0~0~0,MDA_4,VACATION,BKN16,0300-1100,Some Reasons,Some Comments,2~0~0,2~2~0,2~0~0,0~0~0,30~0~0,7~0~0,14~0~0,7~0~0
0~0~0,0~0~0,30502,0~0~0,0~23~0,SS,BX08,0~0~0,MDA_4A,VACATION,BKN16,0400-1200,Some Reasons,Some Comments,2~0~0,2~2~0,2~0~0,0~0~0,30~0~0,7~0~0,14~0~0,7~0~0
0~0~0,0~0~0,30503,0~0~0,0~23~0,BOA,BX08,0~0~0,MDA_1,VACATION,BKN16,0500-1300,Some Reasons,Some Comments,2~0~0,2~2~0,2~0~0,0~0~0,30~0~0,7~0~0,14~0~0,7~0~0
0~0~0,0~0~0,30504,0~0~0,0~23~0,CFC,BX08,0~0~0,MDA_1L,VACATION,BKN16,0700-1500,Some Reasons,Some Comments,2~0~0,2~2~0,2~0~0,0~0~0,30~0~0,7~0~0,14~0~0,7~0~0
0~0~0,0~0~0,30505,0~0~0,0~23~0,BCA,BX08,0~0~0,MDA_2,VACATION,BKN16,0800-1600,Some Reasons,Some Comments,2~0~0,2~2~0,2~0~0,0~0~0,30~0~0,7~0~0,14~0~0,7~0~0
0~0~0,0~0~0,30506,0~0~0,0~23~0,EZP,BX08,0~0~0,MDA_3,VACATION,BKN16,1000-1800,Some Reasons,Some Comments,2~0~0,2~2~0,2~0~0,0~0~0,30~0~0,7~0~0,14~0~0,7~0~0
0~0~0,0~0~0,30507,0~0~0,0~23~0,GU1,BX08,0~0~0,MDA_4,VACATION,BKN16,1100-1900,Some Reasons,Some Comments,2~0~0,2~2~0,2~0~0,0~0~0,30~0~0,7~0~0,14~0~0,7~0~0
0~0~0,0~0~0,30508,0~0~0,0~23~0,GO,BX08,0~0~0,MDA_4A,VACATION,BKN16,1200-2000,Some Reasons,Some Comments,2~0~0,2~2~0,2~0~0,0~0~0,30~0~0,7~0~0,14~0~0,7~0~0
0~0~0,0~0~0,30509,0~0~0,0~23~0,MB2,BX08,0~0~0,MDA_1,VACATION,BKN16,0600-1400,Some Reasons,Some Comments,2~0~0,2~2~0,2~0~0,0~0~0,30~0~0,7~0~0,14~0~0,7~0~0
0~0~0,0~0~0,30510,0~0~0,0~23~0,MB1,BX08,0~0~0,MDA_1L,VACATION,BKN16,0100-0900,Some Reasons,Some Comments,2~0~0,2~2~0,2~0~0,0~0~0,30~0~0,7~0~0,14~0~0,7~0~0
0~0~0,0~0~0,30511,0~0~0,0~23~0,CLK,BX08,0~0~0,MDA_2,VACATION,BKN16,0200-1000,Some Reasons,Some Comments,2~0~0,2~2~0,2~0~0,0~0~0,30~0~0,7~0~0,14~0~0,7~0~0
0~0~0,0~0~0,30512,0~0~0,0~23~0,RR,BX08,0~0~0,MDA_3,VACATION,BKN16,2200-0600,Some Reasons,Some Comments,2~0~0,2~2~0,2~0~0,0~0~0,30~0~0,7~0~0,14~0~0,7~0~0
0~0~0,0~0~0,30513,0~0~0,0~23~0,BSA,BX08,0~0~0,MDA_4,VACATION,BKN16,0000-0800,Some Reasons,Some Comments,2~0~0,2~2~0,2~0~0,0~0~0,30~0~0,7~0~0,14~0~0,7~0~0
0~0~0,0~0~0,30514,0~0~0,0~23~0,SC,BX08,0~0~0,MDA_4A,VACATION,BKN16,2300-0700,Some Reasons,Some Comments,2~0~0,2~2~0,2~0~0,0~0~0,30~0~0,7~0~0,14~0~0,7~0~0
0~0~0,0~0~0,30515,0~0~0,0~23~0,WR1,BX08,0~0~0,MDA_1,VACATION,BKN16,2200-0600,Some Reasons,Some Comments,2~0~0,2~2~0,2~0~0,0~0~0,30~0~0,7~0~0,14~0~0,7~0~0
0~0~0,0~0~0,30516,0~0~0,0~23~0,GU2,BX08,0~0~0,MDA_1L,VACATION,BKN16,0300-1100,Some Reasons,Some Comments,2~0~0,2~2~0,2~0~0,0~0~0,30~0~0,7~0~0,14~0~0,7~0~0
0~0~0,0~0~0,30517,0~0~0,0~23~0,GU3,BX08,0~0~0,MDA_2,VACATION,BKN16,0400-1200,Some Reasons,Some Comments,2~0~0,2~2~0,2~0~0,0~0~0,30~0~0,7~0~0,14~0~0,7~0~0
0~0~0,0~0~0,30518,0~0~0,0~23~0,MB3,BX08,0~0~0,MDA_3,VACATION,BKN16,0500-1300,Some Reasons,Some Comments,2~0~0,2~2~0,2~0~0,0~0~0,30~0~0,7~0~0,14~0~0,7~0~0
0~0~0,0~0~0,30519,0~0~0,0~23~0,WR2,BX08,0~0~0,MDA_4,VACATION,BKN16,0700-1500,Some Reasons,Some Comments,2~0~0,2~2~0,2~0~0,0~0~0,30~0~0,7~0~0,14~0~0,7~0~0
0~0~0,0~0~0,30520,0~0~0,0~23~0,WR3,BX08,0~0~0,MDA_4A,VACATION,BKN16,0800-1600,Some Reasons,Some Comments,2~0~0,2~2~0,2~0~0,0~0~0,30~0~0,7~0~0,14~0~0,7~0~0
0~0~0,0~0~0,30521,0~0~0,0~23~0,SKD,BX08,0~0~0,MDA_1,VACATION,BKN16,1000-1800,Some Reasons,Some Comments,2~0~0,2~2~0,2~0~0,0~0~0,30~0~0,7~0~0,14~0~0,7~0~0
0~0~0,0~0~0,30522,0~0~0,0~23~0,NS,BX08,0~0~0,MDA_1L,VACATION,BKN16,1100-1900,Some Reasons,Some Comments,2~0~0,2~2~0,2~0~0,0~0~0,30~0~0,7~0~0,14~0~0,7~0~0
0~0~0,0~0~0,30523,0~0~0,0~23~0,SS,BX08,0~0~0,MDA_2,VACATION,BKN16,1200-2000,Some Reasons,Some Comments,2~0~0,2~2~0,2~0~0,0~0~0,30~0~0,7~0~0,14~0~0,7~0~0
0~0~0,0~0~0,30524,0~0~0,0~23~0,BOA,BX08,0~0~0,MDA_3,VACATION,BKN16,0600-1400,Some Reasons,Some Comments,2~0~0,2~2~0,2~0~0,0~0~0,30~0~0,7~0~0,14~0~0,7~0~0
0~0~0,0~0~0,30525,0~0~0,0~23~0,CFC,BX08,0~0~0,MDA_4,VACATION,BKN16,0100-0900,Some Reasons,Some Comments,2~0~0,2~2~0,2~0~0,0~0~0,30~0~0,7~0~0,14~0~0,7~0~0
0~0~0,0~0~0,30526,0~0~0,0~23~0,BCA,BX08,0~0~0,MDA_4A,VACATION,BKN16,0200-1000,Some Reasons,Some Comments,2~0~0,2~2~0,2~0~0,0~0~0,30~0~0,7~0~0,14~0~0,7~0~0
0~0~0,0~0~0,30527,0~0~0,0~23~0,EZP,BX08,0~0~0,MDA_1,VACATION,BKN16,2200-0600,Some Reasons,Some Comments,2~0~0,2~2~0,2~0~0,0~0~0,30~0~0,7~0~0,14~0~0,7~0~0
0~0~0,0~0~0,30528,0~0~0,0~23~0,GU1,BX08,0~0~0,MDA_1L,VACATION,BKN16,0000-0800,Some Reasons,Some Comments,2~0~0,2~2~0,2~0~0,0~0~0,30~0~0,7~0~0,14~0~0,7~0~0
0~0~0,0~0~0,30529,0~0~0,0~23~0,GO,BX08,0~0~0,MDA_2,VACATION,BKN16,2300-0700,Some Reasons,Some Comments,2~0~0,2~2~0,2~0~0,0~0~0,30~0~0,7~0~0,14~0~0,7~0~0
0~0~0,0~0~0,30530,0~0~0,0~23~0,MB2,BX08,0~0~0,MDA_3,VACATION,BKN16,2200-0600,Some Reasons,Some Comments,2~0~0,2~2~0,2~0~0,0~0~0,30~0~0,7~0~0,14~0~0,7~0~0
0~0~0,0~0~0,30531,0~0~0,0~23~0,MB1,BX08,0~0~0,MDA_4,VACATION,BKN16,0300-1100,Some Reasons,Some Comments,2~0~0,2~2~0,2~0~0,0~0~0,30~0~0,7~0~0,14~0~0,7~0~0
0~0~0,0~0~0,30532,0~0~0,0~23~0,CLK,BX08,0~0~0,MDA_4A,VACATION,BKN16,0400-1200,Some Reasons,Some Comments,2~0~0,2~2~0,2~0~0,0~0~0,30~0~0,7~0~0,14~0~0,7~0~0
0~0~0,0~0~0,30533,0~0~0,0~23~0,RR,BX08,0~0~0,MDA_1,VACATION,BKN16,0500-1300,Some Reasons,Some Comments,2~0~0,2~2~0,2~0~0,0~0~0,30~0~0,7~0~0,14~0~0,7~0~0
0~0~0,0~0~0,30534,0~0~0,0~23~0,BSA,BX08,0~0~0,MDA_1L,VACATION,BKN16,0700-1500,Some Reasons,Some Comments,2~0~0,2~2~0,2~0~0,0~0~0,30~0~0,7~0~0,14~0~0,7~0~0
0~0~0,0~0~0,30535,0~0~0,0~23~0,SC,BX08,0~0~0,MDA_2,VACATION,BKN16,0800-1600,Some Reasons,Some Comments,2~0~0,2~2~0,2~0~0,0~0~0,30~0~0,7~0~0,14~0~0,7~0~0
0~0~0,0~0~0,30536,0~0~0,0~23~0,WR1,BX08,0~0~0,MDA_3,VACATION,BKN16,1000-1800,Some Reasons,Some Comments,2~0~0,2~2~0,2~0~0,0~0~0,30~0~0,7~0~0,14~0~0,7~0~0
0~0~0,0~0~0,30537,0~0~0,0~23~0,GU2,BX08,0~0~0,MDA_4,VACATION,BKN16,1100-1900,Some Reasons,Some Comments,2~0~0,2~2~0,2~0~0,0~0~0,30~0~0,7~0~0,14~0~0,7~0~0
0~0~0,0~0~0,30538,0~0~0,0~23~0,GU3,BX08,0~0~0,MDA_4A,VACATION,BKN16,1200-2000,Some Reasons,Some Comments,2~0~0,2~2~0,2~0~0,0~0~0,30~0~0,7~0~0,14~0~0,7~0~0
0~0~0,0~0~0,30539,0~0~0,0~23~0,MB3,BX08,0~0~0,MDA_1,VACATION,BKN16,0600-1400,Some Reasons,Some Comments,2~0~0,2~2~0,2~0~0,0~0~0,30~0~0,7~0~0,14~0~0,7~0~0
0~0~0,0~0~0,30540,0~0~0,0~23~0,WR2,BX08,0~0~0,MDA_1L,VACATION,BKN16,0100-0900,Some Reasons,Some Comments,2~0~0,2~2~0,2~0~0,0~0~0,30~0~0,7~0~0,14~0~0,7~0~0
0~0~0,0~0~0,30541,0~0~0,0~23~0,WR3,BX08,0~0~0,MDA_2,VACATION,BKN16,0200-1000,Some Reasons,Some Comments,2~0~0,2~2~0,2~0~0,0~0~0,30~0~0,7~0~0,14~0~0,7~0~0
0~0~0,0~0~0,30542,0~0~0,0~23~0,SKD,BX08,0~0~0,MDA_3,VACATION,BKN16,2200-0600,Some Reasons,Some Comments,2~0~0,2~2~0,2~0~0,0~0~0,30~0~0,7~0~0,14~0~0,7~0~0
0~0~0,0~0~0,30543,0~0~0,0~23~0,NS,BX08,0~0~0,MDA_4,VACATION,BKN16,0000-0800,Some Reasons,Some Comments,2~0~0,2~2~0,2~0~0,0~0~0,30~0~0,7~0~0,14~0~0,7~0~0
0~0~0,0~0~0,30544,0~0~0,0~23~0,SS,BX08,0~0~0,MDA_4A,VACATION,BKN16,2300-0700,Some Reasons,Some Comments,2~0~0,2~2~0,2~0~0,0~0~0,30~0~0,7~0~0,14~0~0,7~0~0
0~0~0,0~0~0,30545,0~0~0,0~23~0,BOA,BX08,0~0~0,MDA_1,VACATION,BKN16,2200-0600,Some Reasons,Some Comments,2~0~0,2~2~0,2~0~0,0~0~0,30~0~0,7~0~0,14~0~0,7~0~0
0~0~0,0~0~0,30546,0~0~0,0~23~0,CFC,BX08,0~0~0,MDA_1L,VACATION,BKN16,0300-1100,Some Reasons,Some Comments,2~0~0,2~2~0,2~0~0,0~0~0,30~0~0,7~0~0,14~0~0,7~0~0
0~0~0,0~0~0,30547,0~0~0,0~23~0,BCA,BX08,0~0~0,MDA_2,VACATION,BKN16,0400-1200,Some Reasons,Some Comments,2~0~0,2~2~0,2~0~0,0~0~0,30~0~0,7~0~0,14~0~0,7~0~0
0~0~0,0~0~0,30548,0~0~0,0~23~0,EZP,BX08,0~0~0,MDA_3,VACATION,BKN16,0500-1300,Some Reasons,Some Comments,2~0~0,2~2~0,2~0~0,0~0~0,30~0~0,7~0~0,14~0~0,7~0~0
0~0~0,0~0~0,30549,0~0~0,0~23~0,GU1,BX08,0~0~0,MDA_4,VACATION,BKN16,0700-1500,Some Reasons,Some Comments,2~0~0,2~2~0,2~0~0,0~0~0,30~0~0,7~0~0,14~0~0,7~0~0
0~0~0,0~0~0,30550,0~0~0,0~23~0,GO,BX08,0~0~0,MDA_4A,VACATION,BKN16,0800-1600,Some Reasons,Some Comments,2~0~0,2~2~0,2~0~0,0~0~0,30~0~0,7~0~0,14~0~0,7~0~0
0~0~0,0~0~0,30551,0~0~0,0~23~0,MB2,BX08,0~0~0,MDA_1,VACATION,BKN16,1000-1800,Some Reasons,Some Comments,2~0~0,2~2~0,2~0~0,0~0~0,30~0~0,7~0~0,14~0~0,7~0~0
0~0~0,0~0~0,30552,0~0~0,0~23~0,MB1,BX08,0~0~0,MDA_1L,VACATION,BKN16,1100-1900,Some Reasons,Some Comments,2~0~0,2~2~0,2~0~0,0~0~0,30~0~0,7~0~0,14~0~0,7~0~0
0~0~0,0~0~0,30553,0~0~0,0~23~0,CLK,BX08,0~0~0,MDA_2,VACATION,BKN16,1200-2000,Some Reasons,Some Comments,2~0~0,2~2~0,2~0~0,0~0~0,30~0~0,7~0~0,14~0~0,7~0~0
0~0~0,0~0~0,30554,0~0~0,0~23~0,RR,BX08,0~0~0,MDA_3,VACATION,BKN16,0600-1400,Some Reasons,Some Comments,2~0~0,2~2~0,2~0~0,0~0~0,30~0~0,7~0~0,14~0~0,7~0~0
0~0~0,0~0~0,30555,0~0~0,0~23~0,BSA,BX08,0~0~0,MDA_4,VACATION,BKN16,0100-0900,Some Reasons,Some Comments,2~0~0,2~2~0,2~0~0,0~0~0,30~0~0,7~0~0,14~0~0,7~0~0
0~0~0,0~0~0,30556,0~0~0,0~23~0,SC,BX08,0~0~0,MDA_4A,VACATION,BKN16,0200-1000,Some Reasons,Some Comments,2~0~0,2~2~0,2~0~0,0~0~0,30~0~0,7~0~0,14~0~0,7~0~0
0~0~0,0~0~0,30557,0~0~0,0~23~0,WR1,BX08,0~0~0,MDA_1,VACATION,BKN16,2200-0600,Some Reasons,Some Comments,2~0~0,2~2~0,2~0~0,0~0~0,30~0~0,7~0~0,14~0~0,7~0~0
0~0~0,0~0~0,30558,0~0~0,0~23~0,GU2,BX08,0~0~0,MDA_1L,VACATION,BKN16,0000-0800,Some Reasons,Some Comments,2~0~0,2~2~0,2~0~0,0~0~0,30~0~0,7~0~0,14~0~0,7~0~0
0~0~0,0~0~0,30559,0~0~0,0~23~0,GU3,BX08,0~0~0,MDA_2,VACATION,BKN16,2300-0700,Some Reasons,Some Comments,2~0~0,2~2~0,2~0~0,0~0~0,30~0~0,7~0~0,14~0~0,7~0~0
0~0~0,0~0~0,30560,0~0~0,0~23~0,MB3,BX08,0~0~0,MDA_3,VACATION,BKN16,2200-0600,Some Reasons,Some Comments,2~0~0,2~2~0,2~0~0,0~0~0,30~0~0,7~0~0,14~0~0,7~0~0
0~0~0,0~0~0,30561,0~0~0,0~23~0,WR2,BX08,0~0~0,MDA_4,VACATION,BKN16,0300-1100,Some Reasons,Some Comments,2~0~0,2~2~0,2~0~0,0~0~0,30~0~0,7~0~0,14~0~0,7~0~0
0~0~0,0~0~0,30562,0~0~0,0~23~0,WR3,BX08,0~0~0,MDA_4A,VACATION,BKN16,0400-1200,Some Reasons,Some Comments,2~0~0,2~2~0,2~0~0,0~0~0,30~0~0,7~0~0,14~0~0,7~0~0
0~0~0,0~0~0,30563,0~0~0,0~23~0,SKD,BX08,0~0~0,MDA_1,VACATION,BKN16,0500-1300,Some Reasons,Some Comments,2~0~0,2~2~0,2~0~0,0~0~0,30~0~0,7~0~0,14~0~0,7~0~0
0~0~0,0~0~0,30564,0~0~0,0~23~0,NS,BX08,0~0~0,MDA_1L,VACATION,BKN16,0700-1500,Some Reasons,Some Comments,2~0~0,2~2~0,2~0~0,0~0~0,30~0~0,7~0~0,14~0~0,7~0~0
0~0~0,0~0~0,30565,0~0~0,0~23~0,SS,BX08,0~0~0,MDA_2,VACATION,BKN16,0800-1600,Some Reasons,Some Comments,2~0~0,2~2~0,2~0~0,0~0~0,30~0~0,7~0~0,14~0~0,7~0~0
0~0~0,0~0~0,30566,0~0~0,0~23~0,BOA,BX08,0~0~0,MDA_3,VACATION,BKN16,1000-1800,Some Reasons,Some Comments,2~0~0,2~2~0,2~0~0,0~0~0,30~0~0,7~0~0,14~0~0,7~0~0
0~0~0,0~0~0,30567,0~0~0,0~23~0,CFC,BX08,0~0~0,MDA_4,VACATION,BKN16,1100-1900,Some Reasons,Some Comments,2~0~0,2~2~0,2~0~0,0~0~0,30~0~0,7~0~0,14~0~0,7~0~0
0~0~0,0~0~0,30568,0~0~0,0~23~0,BCA,BX08,0~0~0,MDA_4A,VACATION,BKN16,1200-2000,Some Reasons,Some Comments,2~0~0,2~2~0,2~0~0,0~0~0,30~0~0,7~0~0,14~0~0,7~0~0
0~0~0,0~0~0,30569,0~0~0,0~23~0,EZP,BX08,0~0~0,MDA_1,VACATION,BKN16,0600-1400,Some Reasons,Some Comments,2~0~0,2~2~0,2~0~0,0~0~0,30~0~0,7~0~0,14~0~0,7~0~0
0~0~0,0~0~0,30570,0~0~0,0~23~0,GU1,BX08,0~0~0,MDA_1L,VACATION,BKN16,0100-0900,Some Reasons,Some Comments,2~0~0,2~2~0,2~0~0,0~0~0,30~0~0,7~0~0,14~0~0,7~0~0
0~0~0,0~0~0,30571,0~0~0,0~23~0,GO,BX08,0~0~0,MDA_2,VACATION,BKN16,0200-1000,Some Reasons,Some Comments,2~0~0,2~2~0,2~0~0,0~0~0,30~0~0,7~0~0,14~0~0,7~0~0
0~0~0,0~0~0,30572,0~0~0,0~23~0,MB2,BX08,0~0~0,MDA_3,VACATION,BKN16,2200-0600,Some Reasons,Some Comments,2~0~0,2~2~0,2~0~0,0~0~0,30~0~0,7~0~0,14~0~0,7~0~0
0~0~0,0~0~0,30573,0~0~0,0~23~0,MB1,BX08,0~0~0,MDA_4,VACATION,BKN16,0000-0800,Some Reasons,Some Comments,2~0~0,2~2~0,2~0~0,0~0~0,30~0~0,7~0~0,14~0~0,7~0~0
0~0~0,0~0~0,30574,0~0~0,0~23~0,CLK,BX08,0~0~0,MDA_4A,VACATION,BKN16,2300-0700,Some Reasons,Some Comments,2~0~0,2~2~0,2~0~0,0~0~0,30~0~0,7~0~0,14~0~0,7~0~0
0~0~0,0~0~0,30575,0~0~0,0~23~0,RR,BX08,0~0~0,MDA_1,VACATION,BKN16,2200-0600,Some Reasons,Some Comments,2~0~0,2~2~0,2~0~0,0~0~0,30~0~0,7~0~0,14~0~0,7~0~0
0~0~0,0~0~0,30576,0~0~0,0~23~0,BSA,BX08,0~0~0,MDA_1L,VACATION,BKN16,0300-1100,Some Reasons,Some Comments,2~0~0,2~2~0,2~0~0,0~0~0,30~0~0,7~0~0,14~0~0,7~0~0
0~0~0,0~0~0,30577,0~0~0,0~23~0,SC,BX08,0~0~0,MDA_2,VACATION,BKN16,0400-1200,Some Reasons,Some Comments,2~0~0,2~2~0,2~0~0,0~0~0,30~0~0,7~0~0,14~0~0,7~0~0
0~0~0,0~0~0,30578,0~0~0,0~23~0,WR1,BX08,0~0~0,MDA_3,VACATION,BKN16,0500-1300,Some Reasons,Some Comments,2~0~0,2~2~0,2~0~0,0~0~0,30~0~0,7~0~0,14~0~0,7~0~0
0~0~0,0~0~0,30579,0~0~0,0~23~0,GU2,BX08,0~0~0,MDA_4,VACATION,BKN16,0700-1500,Some Reasons,Some Comments,2~0~0,2~2~0,2~0~0,0~0~0,30~0~0,7~0~0,14~0~0,7~0~0
0~0~0,0~0~0,30580,0~0~0,0~23~0,GU3,BX08,0~0~0,MDA_4A,VACATION,BKN16,0800-1600,Some Reasons,Some Comments,2~0~0,2~2~0,2~0~0,0~0~0,30~0~0,7~0~0,14~0~0,7~0~0
0~0~0,0~0~0,30581,0~0~0,0~23~0,MB3,BX08,0~0~0,MDA_1,VACATION,BKN16,1000-1800,Some Reasons,Some Comments,2~0~0,2~2~0,2~0~0,0~0~0,30~0~0,7~0~0,14~0~0,7~0~0
0~0~0,0~0~0,30582,0~0~0,0~23~0,WR2,BX08,0~0~0,MDA_1L,VACATION,BKN16,1100-1900,Some Reasons,Some Comments,2~0~0,2~2~0,2~0~0,0~0~0,30~0~0,7~0~0,14~0~0,7~0~0
0~0~0,0~0~0,30583,0~0~0,0~23~0,WR3,BX08,0~0~0,MDA_2,VACATION,BKN16,1200-2000,Some Reasons,Some Comments,2~0~0,2~2~0,2~0~0,0~0~0,30~0~0,7~0~0,14~0~0,7~0~0
0~0~0,0~0~0,30584,0~0~0,0~23~0,SKD,BX08,0~0~0,MDA_3,VACATION,BKN16,0600-1400,Some Reasons,Some Comments,2~0~0,2~2~0,2~0~0,0~0~0,30~0~0,7~0~0,14~0~0,7~0~0
0~0~0,0~0~0,30585,0~0~0,0~23~0,NS,BX08,0~0~0,MDA_4,VACATION,BKN16,0100-0900,Some Reasons,Some Comments,2~0~0,2~2~0,2~0~0,0~0~0,30~0~0,7~0~0,14~0~0,7~0~0
0~0~0,0~0~0,30586,0~0~0,0~23~0,SS,BX08,0~0~0,MDA_4A,VACATION,BKN16,0200-1000,Some Reasons,Some Comments,2~0~0,2~2~0,2~0~0,0~0~0,30~0~0,7~0~0,14~0~0,7~0~0
0~0~0,0~0~0,30587,0~0~0,0~23~0,BOA,BX08,0~0~0,MDA_1,VACATION,BKN16,2200-0600,Some Reasons,Some Comments,2~0~0,2~2~0,2~0~0,0~0~0,30~0~0,7~0~0,14~0~0,7~0~0
0~0~0,0~0~0,30588,0~0~0,0~23~0,CFC,BX08,0~0~0,MDA_1L,VACATION,BKN16,0000-0800,Some Reasons,Some Comments,2~0~0,2~2~0,2~0~0,0~0~0,30~0~0,7~0~0,14~0~0,7~0~0
0~0~0,0~0~0,30589,0~0~0,0~23~0,BCA,BX08,0~0~0,MDA_2,VACATION,BKN16,2300-0700,Some Reasons,Some Comments,2~0~0,2~2~0,2~0~0,0~0~0,30~0~0,7~0~0,14~0~0,7~0~0
0~0~0,0~0~0,30590,0~0~0,0~23~0,EZP,BX08,0~0~0,MDA_3,VACATION,BKN16,2200-0600,Some Reasons,Some Comments,2~0~0,2~2~0,2~0~0,0~0~0,30~0~0,7~0~0,14~0~0,7~0~0
0~0~0,0~0~0,30591,0~0~0,0~23~0,GU1,BX08,0~0~0,MDA_4,VACATION,BKN16,0300-1100,Some Reasons,Some Comments,2~0~0,2~2~0,2~0~0,0~0~0,30~0~0,7~0~0,14~0~0,7~0~0
0~0~0,0~0~0,30592,0~0~0,0~23~0,GO,BX08,0~0~0,MDA_4A,VACATION,BKN16,0400-1200,Some Reasons,Some Comments,2~0~0,2~2~0,2~0~0,0~0~0,30~0~0,7~0~0,14~0~0,7~0~0
0~0~0,0~0~0,30593,0~0~0,0~23~0,MB2,BX08,0~0~0,MDA_1,VACATION,BKN16,0500-1300,Some Reasons,Some Comments,2~0~0,2~2~0,2~0~0,0~0~0,30~0~0,7~0~0,14~0~0,7~0~0
0~0~0,0~0~0,30594,0~0~0,0~23~0,MB1,BX08,0~0~0,MDA_1L,VACATION,BKN16,0700-1500,Some Reasons,Some Comments,2~0~0,2~2~0,2~0~0,0~0~0,30~0~0,7~0~0,14~0~0,7~0~0
0~0~0,0~0~0,30595,0~0~0,0~23~0,CLK,BX08,0~0~0,MDA_2,VACATION,BKN16,0800-1600,Some Reasons,Some Comments,2~0~0,2~2~0,2~0~0,0~0~0,30~0~0,7~0~0,14~0~0,7~0~0
0~0~0,0~0~0,30596,0~0~0,0~23~0,RR,BX08,0~0~0,MDA_3,VACATION,BKN16,1000-1800,Some Reasons,Some Comments,2~0~0,2~2~0,2~0~0,0~0~0,30~0~0,7~0~0,14~0~0,7~0~0
0~0~0,0~0~0,30597,0~0~0,0~23~0,BSA,BX08,0~0~0,MDA_4,VACATION,BKN16,1100-1900,Some Reasons,Some Comments,2~0~0,2~2~0,2~0~0,0~0~0,30~0~0,7~0~0,14~0~0,7~0~0
0~0~0,0~0~0,30598,0~0~0,0~23~0,SC,BX08,0~0~0,MDA_4A,VACATION,BKN16,1200-2000,Some Reasons,Some Comments,2~0~0,2~2~0,2~0~0,0~0~0,30~0~0,7~0~0,14~0~0,7~0~0
0~0~0,0~0~0,30599,0~0~0,0~23~0,WR1,BX08,0~0~0,MDA_1,VACATION,BKN16,0600-1400,Some Reasons,Some Comments,2~0~0,2~2~0,2~0~0,0~0~0,30~0~0,7~0~0,14~0~0,7~0~0
0~0~0,0~0~0,30600,0~0~0,0~23~0,GU2,BX08,0~0~0,MDA_1L,VACATION,BKN16,0100-0900,Some Reasons,Some Comments,2~0~0,2~2~0,2~0~0,0~0~0,30~0~0,7~0~0,14~0~0,7~0~0
