BX08,0~0~0,1~0~0,29FE,201,27,ROLLOVER,BKN16,0~-23~0,0~-20~0,Some Reasons,Some Comments,0~-6~0,0~-5~0,3~0~0,4~0~0,30201,0~-5~0,23:00:00,GU2,BX08,0~0~0,MDA_4,VACATION,BKN16,0200-1000,2~0~0,2~2~0,2~0~0,0~0~0,30~0~0,7~0~0,14~0~0,7~0~0,BX12,0~0~0,0~8~0,MN02
BX08,0~0~0,1~0~0,29FE,202,27,ROLLOVER,BKN16,0~-23~0,0~-20~0,Some Reasons,Some Comments,0~-6~0,0~-5~0,3~0~0,4~0~0,30202,0~-5~0,23:00:00,GU3,BX08,0~0~0,MDA_4A,VACATION,BKN16,2200-0600,2~0~0,2~2~0,2~0~0,0~0~0,30~0~0,7~0~0,14~0~0,7~0~0,BX12,0~0~0,0~8~0,MN02
BX08,0~0~0,1~0~0,29FE,203,45,RELAY,BKN16,0~-23~0,0~-20~0,Some Reasons,Some Comments,0~-6~0,0~-5~0,3~0~0,4~0~0,30203,0~-5~0,23:00:00,MB3,BX08,0~0~0,MDA_1,VACATION,BKN16,0000-0800,2~0~0,2~2~0,2~0~0,0~0~0,30~0~0,7~0~0,14~0~0,7~0~0,BX12,0~0~0,0~8~0,MN02
BX08,0~0~0,1~0~0,29FE,204,27,ROLLOVER,BKN16,0~-23~0,0~-20~0,Some Reasons,Some Comments,0~-6~0,0~-5~0,3~0~0,4~0~0,30204,0~-5~0,23:00:00,WR2,BX08,0~0~0,MDA_1L,VACATION,BKN16,2300-0700,2~0~0,2~2~0,2~0~0,0~0~0,30~0~0,7~0~0,14~0~0,7~0~0,BX12,0~0~0,0~8~0,MN02
BX08,0~0~0,1~0~0,29FE,205,27,ROLLOVER,BKN16,0~-23~0,0~-20~0,Some Reasons,Some Comments,0~-6~0,0~-5~0,3~0~0,4~0~0,30205,0~-5~0,23:00:00,WR3,BX08,0~0~0,MDA_2,VACATION,BKN16,2200-0600,2~0~0,2~2~0,2~0~0,0~0~0,30~0~0,7~0~0,14~0~0,7~0~0,BX12,0~0~0,0~8~0,MN02
BX08,0~0~0,1~0~0,29FE,206,28,RELAY,BKN16,0~-23~0,0~-20~0,Some Reasons,Some Comments,0~-6~0,0~-5~0,3~0~0,4~0~0,30206,0~-5~0,23:00:00,SKD,BX08,0~0~0,MDA_3,VACATION,BKN16,0300-1100,2~0~0,2~2~0,2~0~0,0~0~0,30~0~0,7~0~0,14~0~0,7~0~0,BX12,0~0~0,0~8~0,MN02
BX08,0~0~0,1~0~0,29FE,207,2,ROLLOVER,BKN16,0~-23~0,0~-20~0,Some Reasons,Some Comments,0~-6~0,0~-5~0,3~0~0,4~0~0,30207,0~-5~0,23:00:00,NS,BX08,0~0~0,MDA_4,VACATION,BKN16,0400-1200,2~0~0,2~2~0,2~0~0,0~0~0,30~0~0,7~0~0,14~0~0,7~0~0,BX12,0~0~0,0~8~0,MN02
BX08,0~0~0,1~0~0,29FE,208,27,ROLLOVER,BKN16,0~-23~0,0~-20~0,Some Reasons,Some Comments,0~-6~0,0~-5~0,3~0~0,4~0~0,30208,0~-5~0,23:00:00,SS,BX08,0~0~0,MDA_4A,VACATION,BKN16,0500-1300,2~0~0,2~2~0,2~0~0,0~0~0,30~0~0,7~0~0,14~0~0,7~0~0,BX12,0~0~0,0~8~0,MN02
BX08,0~0~0,1~0~0,29FE,209,65,RELAY,BKN16,0~-23~0,0~-20~0,Some Reasons,Some Comments,0~-6~0,0~-5~0,3~0~0,4~0~0,30209,0~-5~0,23:00:00,BOA,BX08,0~0~0,MDA_1,VACATION,BKN16,0700-1500,2~0~0,2~2~0,2~0~0,0~0~0,30~0~0,7~0~0,14~0~0,7~0~0,BX12,0~0~0,0~8~0,MN02
BX08,0~0~0,1~0~0,29FE,210,96,ROLLOVER,BKN16,0~-23~0,0~-20~0,Some Reasons,Some Comments,0~-6~0,0~-5~0,3~0~0,4~0~0,30210,0~-5~0,23:00:00,CFC,BX08,0~0~0,MDA_1L,VACATION,BKN16,0800-1600,2~0~0,2~2~0,2~0~0,0~0~0,30~0~0,7~0~0,14~0~0,7~0~0,BX12,0~0~0,0~8~0,MN02
BX08,0~0~0,1~0~0,29FE,211,27,ROLLOVER,BKN16,0~-23~0,0~-20~0,Some Reasons,Some Comments,0~-6~0,0~-5~0,3~0~0,4~0~0,30211,0~-5~0,23:00:00,BCA,BX08,0~0~0,MDA_2,VACATION,BKN16,1000-1800,2~0~0,2~2~0,2~0~0,0~0~0,30~0~0,7~0~0,14~0~0,7~0~0,BX12,0~0~0,0~8~0,MN02
BX08,0~0~0,1~0~0,29FE,212,2,RELAY,BKN16,0~-23~0,0~-20~0,Some Reasons,Some Comments,0~-6~0,0~-5~0,3~0~0,4~0~0,30212,0~-5~0,23:00:00,EZP,BX08,0~0~0,MDA_3,VACATION,BKN16,1100-1900,2~0~0,2~2~0,2~0~0,0~0~0,30~0~0,7~0~0,14~0~0,7~0~0,BX12,0~0~0,0~8~0,MN02
BX08,0~0~0,1~0~0,29FE,213,66,ROLLOVER,BKN16,0~-23~0,0~-20~0,Some Reasons,Some Comments,0~-6~0,0~-5~0,3~0~0,4~0~0,30213,0~-5~0,23:00:00,GU1,BX08,0~0~0,MDA_4,VACATION,BKN16,1200-2000,2~0~0,2~2~0,2~0~0,0~0~0,30~0~0,7~0~0,14~0~0,7~0~0,BX12,0~0~0,0~8~0,MN02
BX08,0~0~0,1~0~0,29FE,214,27,ROLLOVER,BKN16,0~-23~0,0~-20~0,Some Reasons,Some Comments,0~-6~0,0~-5~0,3~0~0,4~0~0,30214,0~-5~0,23:00:00,GO,BX08,0~0~0,MDA_4A,VACATION,BKN16,0600-1400,2~0~0,2~2~0,2~0~0,0~0~0,30~0~0,7~0~0,14~0~0,7~0~0,BX12,0~0~0,0~8~0,MN02
BX08,0~0~0,1~0~0,29FE,215,27,RELAY,BKN16,0~-23~0,0~-20~0,Some Reasons,Some Comments,0~-6~0,0~-5~0,3~0~0,4~0~0,30215,0~-5~0,23:00:00,MB2,BX08,0~0~0,MDA_1,VACATION,BKN16,0100-0900,2~0~0,2~2~0,2~0~0,0~0~0,30~0~0,7~0~0,14~0~0,7~0~0,BX12,0~0~0,0~8~0,MN02
BX08,0~0~0,1~0~0,29FE,216,26,ROLLOVER,BKN16,0~-23~0,0~-20~0,Some Reasons,Some Comments,0~-6~0,0~-5~0,3~0~0,4~0~0,30216,0~-5~0,23:00:00,MB1,BX08,0~0~0,MDA_1L,VACATION,BKN16,0200-1000,2~0~0,2~2~0,2~0~0,0~0~0,30~0~0,7~0~0,14~0~0,7~0~0,BX12,0~0~0,0~8~0,MN02
BX08,0~0~0,1~0~0,29FE,217,27,ROLLOVER,BKN16,0~-23~0,0~-20~0,Some Reasons,Some Comments,0~-6~0,0~-5~0,3~0~0,4~0~0,30217,0~-5~0,23:00:00,CLK,BX08,0~0~0,MDA_2,VACATION,BKN16,2200-0600,2~0~0,2~2~0,2~0~0,0~0~0,30~0~0,7~0~0,14~0~0,7~0~0,BX12,0~0~0,0~8~0,MN02
BX08,0~0~0,1~0~0,29FE,218,27,RELAY,BKN16,0~-23~0,0~-20~0,Some Reasons,Some Comments,0~-6~0,0~-5~0,3~0~0,4~0~0,30218,0~-5~0,23:00:00,RR,BX08,0~0~0,MDA_3,VACATION,BKN16,0000-0800,2~0~0,2~2~0,2~0~0,0~0~0,30~0~0,7~0~0,14~0~0,7~0~0,BX12,0~0~0,0~8~0,MN02
BX08,0~0~0,1~0~0,29FE,219,64,ROLLOVER,BKN16,0~-23~0,0~-20~0,Some Reasons,Some Comments,0~-6~0,0~-5~0,3~0~0,4~0~0,30219,0~-5~0,23:00:00,BSA,BX08,0~0~0,MDA_4,VACATION,BKN16,2300-0700,2~0~0,2~2~0,2~0~0,0~0~0,30~0~0,7~0~0,14~0~0,7~0~0,BX12,0~0~0,0~8~0,MN02
BX08,0~0~0,1~0~0,29FE,220,27,ROLLOVER,BKN16,0~-23~0,0~-20~0,Some Reasons,Some Comments,0~-6~0,0~-5~0,3~0~0,4~0~0,30220,0~-5~0,23:00:00,SC,BX08,0~0~0,MDA_4A,VACATION,BKN16,2200-0600,2~0~0,2~2~0,2~0~0,0~0~0,30~0~0,7~0~0,14~0~0,7~0~0,BX12,0~0~0,0~8~0,MN02
BX08,0~0~0,1~0~0,29FE,221,11,RELAY,BKN16,0~-23~0,0~-20~0,Some Reasons,Some Comments,0~-6~0,0~-5~0,3~0~0,4~0~0,30221,0~-5~0,23:00:00,WR1,BX08,0~0~0,MDA_1,VACATION,BKN16,0300-1100,2~0~0,2~2~0,2~0~0,0~0~0,30~0~0,7~0~0,14~0~0,7~0~0,BX12,0~0~0,0~8~0,MN02
BX08,0~0~0,1~0~0,29FE,222,66,ROLLOVER,BKN16,0~-23~0,0~-20~0,Some Reasons,Some Comments,0~-6~0,0~-5~0,3~0~0,4~0~0,30222,0~-5~0,23:00:00,GU2,BX08,0~0~0,MDA_1L,VACATION,BKN16,0400-1200,2~0~0,2~2~0,2~0~0,0~0~0,30~0~0,7~0~0,14~0~0,7~0~0,BX12,0~0~0,0~8~0,MN02
BX08,0~0~0,1~0~0,29FE,223,27,ROLLOVER,BKN16,0~-23~0,0~-20~0,Some Reasons,Some Comments,0~-6~0,0~-5~0,3~0~0,4~0~0,30223,0~-5~0,23:00:00,GU3,BX08,0~0~0,MDA_2,VACATION,BKN16,0500-1300,2~0~0,2~2~0,2~0~0,0~0~0,30~0~0,7~0~0,14~0~0,7~0~0,BX12,0~0~0,0~8~0,MN02
BX08,0~0~0,1~0~0,29FE,224,12,RELAY,BKN16,0~-23~0,0~-20~0,Some Reasons,Some Comments,0~-6~0,0~-5~0,3~0~0,4~0~0,30224,0~-5~0,23:00:00,MB3,BX08,0~0~0,MDA_3,VACATION,BKN16,0700-1500,2~0~0,2~2~0,2~0~0,0~0~0,30~0~0,7~0~0,14~0~0,7~0~0,BX12,0~0~0,0~8~0,MN02
BX08,0~0~0,1~0~0,29FE,225,57,ROLLOVER,BKN16,0~-23~0,0~-20~0,Some Reasons,Some Comments,0~-6~0,0~-5~0,3~0~0,4~0~0,30225,0~-5~0,23:00:00,WR2,BX08,0~0~0,MDA_4,VACATION,BKN16,0800-1600,2~0~0,2~2~0,2~0~0,0~0~0,30~0~0,7~0~0,14~0~0,7~0~0,BX12,0~0~0,0~8~0,MN02
BX08,0~0~0,1~0~0,29FE,226,27,ROLLOVER,BKN16,0~-23~0,0~-20~0,Some Reasons,Some Comments,0~-6~0,0~-5~0,3~0~0,4~0~0,30226,0~-5~0,23:00:00,WR3,BX08,0~0~0,MDA_4A,VACATION,BKN16,1000-1800,2~0~0,2~2~0,2~0~0,0~0~0,30~0~0,7~0~0,14~0~0,7~0~0,BX12,0~0~0,0~8~0,MN02
BX08,0~0~0,1~0~0,29FE,227,33,RELAY,BKN16,0~-23~0,0~-20~0,Some Reasons,Some Comments,0~-6~0,0~-5~0,3~0~0,4~0~0,30227,0~-5~0,23:00:00,SKD,BX08,0~0~0,MDA_1,VACATION,BKN16,1100-1900,2~0~0,2~2~0,2~0~0,0~0~0,30~0~0,7~0~0,14~0~0,7~0~0,BX12,0~0~0,0~8~0,MN02
BX08,0~0~0,1~0~0,29FE,228,51,ROLLOVER,BKN16,0~-23~0,0~-20~0,Some Reasons,Some Comments,0~-6~0,0~-5~0,3~0~0,4~0~0,30228,0~-5~0,23:00:00,NS,BX08,0~0~0,MDA_1L,VACATION,BKN16,1200-2000,2~0~0,2~2~0,2~0~0,0~0~0,30~0~0,7~0~0,14~0~0,7~0~0,BX12,0~0~0,0~8~0,MN02
BX08,0~0~0,1~0~0,29FE,229,27,ROLLOVER,BKN16,0~-23~0,0~-20~0,Some Reasons,Some Comments,0~-6~0,0~-5~0,3~0~0,4~0~0,30229,0~-5~0,23:00:00,SS,BX08,0~0~0,MDA_2,VACATION,BKN16,0600-1400,2~0~0,2~2~0,2~0~0,0~0~0,30~0~0,7~0~0,14~0~0,7~0~0,BX12,0~0~0,0~8~0,MN02
BX08,0~0~0,1~0~0,29FE,230,61,RELAY,BKN16,0~-23~0,0~-20~0,Some Reasons,Some Comments,0~-6~0,0~-5~0,3~0~0,4~0~0,30230,0~-5~0,23:00:00,BOA,BX08,0~0~0,MDA_3,VACATION,BKN16,0100-0900,2~0~0,2~2~0,2~0~0,0~0~0,30~0~0,7~0~0,14~0~0,7~0~0,BX12,0~0~0,0~8~0,MN02
BX08,0~0~0,1~0~0,29FE,231,39,ROLLOVER,BKN16,0~-23~0,0~-20~0,Some Reasons,Some Comments,0~-6~0,0~-5~0,3~0~0,4~0~0,30231,0~-5~0,23:00:00,CFC,BX08,0~0~0,MDA_4,VACATION,BKN16,0200-1000,2~0~0,2~2~0,2~0~0,0~0~0,30~0~0,7~0~0,14~0~0,7~0~0,BX12,0~0~0,0~8~0,MN02
BX08,0~0~0,1~0~0,29FE,232,27,ROLLOVER,BKN16,0~-23~0,0~-20~0,Some Reasons,Some Comments,0~-6~0,0~-5~0,3~0~0,4~0~0,30232,0~-5~0,23:00:00,BCA,BX08,0~0~0,MDA_4A,VACATION,BKN16,2200-0600,2~0~0,2~2~0,2~0~0,0~0~0,30~0~0,7~0~0,14~0~0,7~0~0,BX12,0~0~0,0~8~0,MN02
BX08,0~0~0,1~0~0,29FE,233,46,RELAY,BKN16,0~-23~0,0~-20~0,Some Reasons,Some Comments,0~-6~0,0~-5~0,3~0~0,4~0~0,30233,0~-5~0,23:00:00,EZP,BX08,0~0~0,MDA_1,VACATION,BKN16,0000-0800,2~0~0,2~2~0,2~0~0,0~0~0,30~0~0,7~0~0,14~0~0,7~0~0,BX12,0~0~0,0~8~0,MN02
BX08,0~0~0,1~0~0,29FE,234,45,ROLLOVER,BKN16,0~-23~0,0~-20~0,Some Reasons,Some Comments,0~-6~0,0~-5~0,3~0~0,4~0~0,30234,0~-5~0,23:00:00,GU1,BX08,0~0~0,MDA_1L,VACATION,BKN16,2300-0700,2~0~0,2~2~0,2~0~0,0~0~0,30~0~0,7~0~0,14~0~0,7~0~0,BX12,0~0~0,0~8~0,MN02
BX08,0~0~0,1~0~0,29FE,235,27,ROLLOVER,BKN16,0~-23~0,0~-20~0,Some Reasons,Some Comments,0~-6~0,0~-5~0,3~0~0,4~0~0,30235,0~-5~0,23:00:00,GO,BX08,0~0~0,MDA_2,VACATION,BKN16,2200-0600,2~0~0,2~2~0,2~0~0,0~0~0,30~0~0,7~0~0,14~0~0,7~0~0,BX12,0~0~0,0~8~0,MN02
BX08,0~0~0,1~0~0,29FE,236,6,RELAY,BKN16,0~-23~0,0~-20~0,Some Reasons,Some Comments,0~-6~0,0~-5~0,3~0~0,4~0~0,30236,0~-5~0,23:00:00,MB2,BX08,0~0~0,MDA_3,VACATION,BKN16,0300-1100,2~0~0,2~2~0,2~0~0,0~0~0,30~0~0,7~0~0,14~0~0,7~0~0,BX12,0~0~0,0~8~0,MN02
BX08,0~0~0,1~0~0,29FE,237,57,ROLLOVER,BKN16,0~-23~0,0~-20~0,Some Reasons,Some Comments,0~-6~0,0~-5~0,3~0~0,4~0~0,30237,0~-5~0,23:00:00,MB1,BX08,0~0~0,MDA_4,VACATION,BKN16,0400-1200,2~0~0,2~2~0,2~0~0,0~0~0,30~0~0,7~0~0,14~0~0,7~0~0,BX12,0~0~0,0~8~0,MN02
BX08,0~0~0,1~0~0,29FE,238,27,ROLLOVER,BKN16,0~-23~0,0~-20~0,Some Reasons,Some Comments,0~-6~0,0~-5~0,3~0~0,4~0~0,30238,0~-5~0,23:00:00,CLK,BX08,0~0~0,MDA_4A,VACATION,BKN16,0500-1300,2~0~0,2~2~0,2~0~0,0~0~0,30~0~0,7~0~0,14~0~0,7~0~0,BX12,0~0~0,0~8~0,MN02
BX08,0~0~0,1~0~0,29FE,239,11,RELAY,BKN16,0~-23~0,0~-20~0,Some Reasons,Some Comments,0~-6~0,0~-5~0,3~0~0,4~0~0,30239,0~-5~0,23:00:00,RR,BX08,0~0~0,MDA_1,VACATION,BKN16,0700-1500,2~0~0,2~2~0,2~0~0,0~0~0,30~0~0,7~0~0,14~0~0,7~0~0,BX12,0~0~0,0~8~0,MN02
BX08,0~0~0,1~0~0,29FE,240,39,ROLLOVER,BKN16,0~-23~0,0~-20~0,Some Reasons,Some Comments,0~-6~0,0~-5~0,3~0~0,4~0~0,30240,0~-5~0,23:00:00,BSA,BX08,0~0~0,MDA_1L,VACATION,BKN16,0800-1600,2~0~0,2~2~0,2~0~0,0~0~0,30~0~0,7~0~0,14~0~0,7~0~0,BX12,0~0~0,0~8~0,MN02
BX08,0~0~0,1~0~0,29FE,241,27,ROLLOVER,BKN16,0~-23~0,0~-20~0,Some Reasons,Some Comments,0~-6~0,0~-5~0,3~0~0,4~0~0,30241,0~-5~0,23:00:00,SC,BX08,0~0~0,MDA_2,VACATION,BKN16,1000-1800,2~0~0,2~2~0,2~0~0,0~0~0,30~0~0,7~0~0,14~0~0,7~0~0,BX12,0~0~0,0~8~0,MN02
BX08,0~0~0,1~0~0,29FE,242,66,RELAY,BKN16,0~-23~0,0~-20~0,Some Reasons,Some Comments,0~-6~0,0~-5~0,3~0~0,4~0~0,30242,0~-5~0,23:00:00,WR1,BX08,0~0~0,MDA_3,VACATION,BKN16,1100-1900,2~0~0,2~2~0,2~0~0,0~0~0,30~0~0,7~0~0,14~0~0,7~0~0,BX12,0~0~0,0~8~0,MN02
BX08,0~0~0,1~0~0,29FE,243,26,ROLLOVER,BKN16,0~-23~0,0~-20~0,Some Reasons,Some Comments,0~-6~0,0~-5~0,3~0~0,4~0~0,30243,0~-5~0,23:00:00,GU2,BX08,0~0~0,MDA_4,VACATION,BKN16,1200-2000,2~0~0,2~2~0,2~0~0,0~0~0,30~0~0,7~0~0,14~0~0,7~0~0,BX12,0~0~0,0~8~0,MN02
BX08,0~0~0,1~0~0,29FE,244,27,ROLLOVER,BKN16,0~-23~0,0~-20~0,Some Reasons,Some Comments,0~-6~0,0~-5~0,3~0~0,4~0~0,30244,0~-5~0,23:00:00,GU3,BX08,0~0~0,MDA_4A,VACATION,BKN16,0600-1400,2~0~0,2~2~0,2~0~0,0~0~0,30~0~0,7~0~0,14~0~0,7~0~0,BX12,0~0~0,0~8~0,MN02
BX08,0~0~0,1~0~0,29FE,245,64,RELAY,BKN16,0~-23~0,0~-20~0,Some Reasons,Some Comments,0~-6~0,0~-5~0,3~0~0,4~0~0,30245,0~-5~0,23:00:00,MB3,BX08,0~0~0,MDA_1,VACATION,BKN16,0100-0900,2~0~0,2~2~0,2~0~0,0~0~0,30~0~0,7~0~0,14~0~0,7~0~0,BX12,0~0~0,0~8~0,MN02
BX08,0~0~0,1~0~0,29FE,246,53,ROLLOVER,BKN16,0~-23~0,0~-20~0,Some Reasons,Some Comments,0~-6~0,0~-5~0,3~0~0,4~0~0,30246,0~-5~0,23:00:00,WR2,BX08,0~0~0,MDA_1L,VACATION,BKN16,0200-1000,2~0~0,2~2~0,2~0~0,0~0~0,30~0~0,7~0~0,14~0~0,7~0~0,BX12,0~0~0,0~8~0,MN02
BX08,0~0~0,1~0~0,29FE,247,27,ROLLOVER,BKN16,0~-23~0,0~-20~0,Some Reasons,Some Comments,0~-6~0,0~-5~0,3~0~0,4~0~0,30247,0~-5~0,23:00:00,WR3,BX08,0~0~0,MDA_2,VACATION,BKN16,2200-0600,2~0~0,2~2~0,2~0~0,0~0~0,30~0~0,7~0~0,14~0~0,7~0~0,BX12,0~0~0,0~8~0,MN02
BX08,0~0~0,1~0~0,29FE,248,87,RELAY,BKN16,0~-23~0,0~-20~0,Some Reasons,Some Comments,0~-6~0,0~-5~0,3~0~0,4~0~0,30248,0~-5~0,23:00:00,SKD,BX08,0~0~0,MDA_3,VACATION,BKN16,0000-0800,2~0~0,2~2~0,2~0~0,0~0~0,30~0~0,7~0~0,14~0~0,7~0~0,BX12,0~0~0,0~8~0,MN02
BX08,0~0~0,1~0~0,29FE,249,54,ROLLOVER,BKN16,0~-23~0,0~-20~0,Some Reasons,Some Comments,0~-6~0,0~-5~0,3~0~0,4~0~0,30249,0~-5~0,23:00:00,NS,BX08,0~0~0,MDA_4,VACATION,BKN16,2300-0700,2~0~0,2~2~0,2~0~0,0~0~0,30~0~0,7~0~0,14~0~0,7~0~0,BX12,0~0~0,0~8~0,MN02
BX08,0~0~0,1~0~0,29FE,250,27,ROLLOVER,BKN16,0~-23~0,0~-20~0,Some Reasons,Some Comments,0~-6~0,0~-5~0,3~0~0,4~0~0,30250,0~-5~0,23:00:00,SS,BX08,0~0~0,MDA_4A,VACATION,BKN16,2200-0600,2~0~0,2~2~0,2~0~0,0~0~0,30~0~0,7~0~0,14~0~0,7~0~0,BX12,0~0~0,0~8~0,MN02
BX08,0~0~0,1~0~0,29FE,251,82,RELAY,BKN16,0~-23~0,0~-20~0,Some Reasons,Some Comments,0~-6~0,0~-5~0,3~0~0,4~0~0,30251,0~-5~0,23:00:00,BOA,BX08,0~0~0,MDA_1,VACATION,BKN16,0300-1100,2~0~0,2~2~0,2~0~0,0~0~0,30~0~0,7~0~0,14~0~0,7~0~0,BX12,0~0~0,0~8~0,MN02
BX08,0~0~0,1~0~0,29FE,252,15,ROLLOVER,BKN16,0~-23~0,0~-20~0,Some Reasons,Some Comments,0~-6~0,0~-5~0,3~0~0,4~0~0,30252,0~-5~0,23:00:00,CFC,BX08,0~0~0,MDA_1L,VACATION,BKN16,0400-1200,2~0~0,2~2~0,2~0~0,0~0~0,30~0~0,7~0~0,14~0~0,7~0~0,BX12,0~0~0,0~8~0,MN02
BX08,0~0~0,1~0~0,29FE,253,27,ROLLOVER,BKN16,0~-23~0,0~-20~0,Some Reasons,Some Comments,0~-6~0,0~-5~0,3~0~0,4~0~0,30253,0~-5~0,23:00:00,BCA,BX08,0~0~0,MDA_2,VACATION,BKN16,0500-1300,2~0~0,2~2~0,2~0~0,0~0~0,30~0~0,7~0~0,14~0~0,7~0~0,BX12,0~0~0,0~8~0,MN02
BX08,0~0~0,1~0~0,29FE,254,56,RELAY,BKN16,0~-23~0,0~-20~0,Some Reasons,Some Comments,0~-6~0,0~-5~0,3~0~0,4~0~0,30254,0~-5~0,23:00:00,EZP,BX08,0~0~0,MDA_3,VACATION,BKN16,0700-1500,2~0~0,2~2~0,2~0~0,0~0~0,30~0~0,7~0~0,14~0~0,7~0~0,BX12,0~0~0,0~8~0,MN02
BX08,0~0~0,1~0~0,29FE,255,45,ROLLOVER,BKN16,0~-23~0,0~-20~0,Some Reasons,Some Comments,0~-6~0,0~-5~0,3~0~0,4~0~0,30255,0~-5~0,23:00:00,GU1,BX08,0~0~0,MDA_4,VACATION,BKN16,0800-1600,2~0~0,2~2~0,2~0~0,0~0~0,30~0~0,7~0~0,14~0~0,7~0~0,BX12,0~0~0,0~8~0,MN02
BX08,0~0~0,1~0~0,29FE,256,27,ROLLOVER,BKN16,0~-23~0,0~-20~0,Some Reasons,Some Comments,0~-6~0,0~-5~0,3~0~0,4~0~0,30256,0~-5~0,23:00:00,GO,BX08,0~0~0,MDA_4A,VACATION,BKN16,1000-1800,2~0~0,2~2~0,2~0~0,0~0~0,30~0~0,7~0~0,14~0~0,7~0~0,BX12,0~0~0,0~8~0,MN02
BX08,0~0~0,1~0~0,29FE,257,84,RELAY,BKN16,0~-23~0,0~-20~0,Some Reasons,Some Comments,0~-6~0,0~-5~0,3~0~0,4~0~0,30257,0~-5~0,23:00:00,MB2,BX08,0~0~0,MDA_1,VACATION,BKN16,1100-1900,2~0~0,2~2~0,2~0~0,0~0~0,30~0~0,7~0~0,14~0~0,7~0~0,BX12,0~0~0,0~8~0,MN02
BX08,0~0~0,1~0~0,29FE,258,7,ROLLOVER,BKN16,0~-23~0,0~-20~0,Some Reasons,Some Comments,0~-6~0,0~-5~0,3~0~0,4~0~0,30258,0~-5~0,23:00:00,MB1,BX08,0~0~0,MDA_1L,VACATION,BKN16,1200-2000,2~0~0,2~2~0,2~0~0,0~0~0,30~0~0,7~0~0,14~0~0,7~0~0,BX12,0~0~0,0~8~0,MN02
BX08,0~0~0,1~0~0,29FE,259,27,ROLLOVER,BKN16,0~-23~0,0~-20~0,Some Reasons,Some Comments,0~-6~0,0~-5~0,3~0~0,4~0~0,30259,0~-5~0,23:00:00,CLK,BX08,0~0~0,MDA_2,VACATION,BKN16,0600-1400,2~0~0,2~2~0,2~0~0,0~0~0,30~0~0,7~0~0,14~0~0,7~0~0,BX12,0~0~0,0~8~0,MN02
BX08,0~0~0,1~0~0,29FE,260,57,RELAY,BKN16,0~-23~0,0~-20~0,Some Reasons,Some Comments,0~-6~0,0~-5~0,3~0~0,4~0~0,30260,0~-5~0,23:00:00,RR,BX08,0~0~0,MDA_3,VACATION,BKN16,0100-0900,2~0~0,2~2~0,2~0~0,0~0~0,30~0~0,7~0~0,14~0~0,7~0~0,BX12,0~0~0,0~8~0,MN02
BX08,0~0~0,1~0~0,29FE,261,15,ROLLOVER,BKN16,0~-23~0,0~-20~0,Some Reasons,Some Comments,0~-6~0,0~-5~0,3~0~0,4~0~0,30261,0~-5~0,23:00:00,BSA,BX08,0~0~0,MDA_4,VACATION,BKN16,0200-1000,2~0~0,2~2~0,2~0~0,0~0~0,30~0~0,7~0~0,14~0~0,7~0~0,BX12,0~0~0,0~8~0,MN02
BX08,0~0~0,1~0~0,29FE,262,27,ROLLOVER,BKN16,0~-23~0,0~-20~0,Some Reasons,Some Comments,0~-6~0,0~-5~0,3~0~0,4~0~0,30262,0~-5~0,23:00:00,SC,BX08,0~0~0,MDA_4A,VACATION,BKN16,2200-0600,2~0~0,2~2~0,2~0~0,0~0~0,30~0~0,7~0~0,14~0~0,7~0~0,BX12,0~0~0,0~8~0,MN02
BX08,0~0~0,1~0~0,29FE,263,5,RELAY,BKN16,0~-23~0,0~-20~0,Some Reasons,Some Comments,0~-6~0,0~-5~0,3~0~0,4~0~0,30263,0~-5~0,23:00:00,WR1,BX08,0~0~0,MDA_1,VACATION,BKN16,0000-0800,2~0~0,2~2~0,2~0~0,0~0~0,30~0~0,7~0~0,14~0~0,7~0~0,BX12,0~0~0,0~8~0,MN02
BX08,0~0~0,1~0~0,29FE,264,27,ROLLOVER,BKN16,0~-23~0,0~-20~0,Some Reasons,Some Comments,0~-6~0,0~-5~0,3~0~0,4~0~0,30264,0~-5~0,23:00:00,GU2,BX08,0~0~0,MDA_1L,VACATION,BKN16,2300-0700,2~0~0,2~2~0,2~0~0,0~0~0,30~0~0,7~0~0,14~0~0,7~0~0,BX12,0~0~0,0~8~0,MN02
BX08,0~0~0,1~0~0,29FE,265,27,ROLLOVER,BKN16,0~-23~0,0~-20~0,Some Reasons,Some Comments,0~-6~0,0~-5~0,3~0~0,4~0~0,30265,0~-5~0,23:00:00,GU3,BX08,0~0~0,MDA_2,VACATION,BKN16,2200-0600,2~0~0,2~2~0,2~0~0,0~0~0,30~0~0,7~0~0,14~0~0,7~0~0,BX12,0~0~0,0~8~0,MN02
BX08,0~0~0,1~0~0,29FE,266,24,RELAY,BKN16,0~-23~0,0~-20~0,Some Reasons,Some Comments,0~-6~0,0~-5~0,3~0~0,4~0~0,30266,0~-5~0,23:00:00,MB3,BX08,0~0~0,MDA_3,VACATION,BKN16,0300-1100,2~0~0,2~2~0,2~0~0,0~0~0,30~0~0,7~0~0,14~0~0,7~0~0,BX12,0~0~0,0~8~0,MN02
BX08,0~0~0,1~0~0,29FE,267,66,ROLLOVER,BKN16,0~-23~0,0~-20~0,Some Reasons,Some Comments,0~-6~0,0~-5~0,3~0~0,4~0~0,30267,0~-5~0,23:00:00,WR2,BX08,0~0~0,MDA_4,VACATION,BKN16,0400-1200,2~0~0,2~2~0,2~0~0,0~0~0,30~0~0,7~0~0,14~0~0,7~0~0,BX12,0~0~0,0~8~0,MN02
BX08,0~0~0,1~0~0,29FE,268,27,ROLLOVER,BKN16,0~-23~0,0~-20~0,Some Reasons,Some Comments,0~-6~0,0~-5~0,3~0~0,4~0~0,30268,0~-5~0,23:00:00,WR3,BX08,0~0~0,MDA_4A,VACATION,BKN16,0500-1300,2~0~0,2~2~0,2~0~0,0~0~0,30~0~0,7~0~0,14~0~0,7~0~0,BX12,0~0~0,0~8~0,MN02
BX08,0~0~0,1~0~0,29FE,269,39,RELAY,BKN16,0~-23~0,0~-20~0,Some Reasons,Some Comments,0~-6~0,0~-5~0,3~0~0,4~0~0,30269,0~-5~0,23:00:00,SKD,BX08,0~0~0,MDA_1,VACATION,BKN16,0700-1500,2~0~0,2~2~0,2~0~0,0~0~0,30~0~0,7~0~0,14~0~0,7~0~0,BX12,0~0~0,0~8~0,MN02
BX08,0~0~0,1~0~0,29FE,270,24,ROLLOVER,BKN16,0~-23~0,0~-20~0,Some Reasons,Some Comments,0~-6~0,0~-5~0,3~0~0,4~0~0,30270,0~-5~0,23:00:00,NS,BX08,0~0~0,MDA_1L,VACATION,BKN16,0800-1600,2~0~0,2~2~0,2~0~0,0~0~0,30~0~0,7~0~0,14~0~0,7~0~0,BX12,0~0~0,0~8~0,MN02
BX08,0~0~0,1~0~0,29FE,271,27,ROLLOVER,BKN16,0~-23~0,0~-20~0,Some Reasons,Some Comments,0~-6~0,0~-5~0,3~0~0,4~0~0,30271,0~-5~0,23:00:00,SS,BX08,0~0~0,MDA_2,VACATION,BKN16,1000-1800,2~0~0,2~2~0,2~0~0,0~0~0,30~0~0,7~0~0,14~0~0,7~0~0,BX12,0~0~0,0~8~0,MN02
BX08,0~0~0,1~0~0,29FE,272,6,RELAY,BKN16,0~-23~0,0~-20~0,Some Reasons,Some Comments,0~-6~0,0~-5~0,3~0~0,4~0~0,30272,0~-5~0,23:00:00,BOA,BX08,0~0~0,MDA_3,VACATION,BKN16,1100-1900,2~0~0,2~2~0,2~0~0,0~0~0,30~0~0,7~0~0,14~0~0,7~0~0,BX12,0~0~0,0~8~0,MN02
BX08,0~0~0,1~0~0,29FE,273,34,ROLLOVER,BKN16,0~-23~0,0~-20~0,Some Reasons,Some Comments,0~-6~0,0~-5~0,3~0~0,4~0~0,30273,0~-5~0,23:00:00,CFC,BX08,0~0~0,MDA_4,VACATION,BKN16,1200-2000,2~0~0,2~2~0,2~0~0,0~0~0,30~0~0,7~0~0,14~0~0,7~0~0,BX12,0~0~0,0~8~0,MN02
BX08,0~0~0,1~0~0,29FE,274,27,ROLLOVER,BKN16,0~-23~0,0~-20~0,Some Reasons,Some Comments,0~-6~0,0~-5~0,3~0~0,4~0~0,30274,0~-5~0,23:00:00,BCA,BX08,0~0~0,MDA_4A,VACATION,BKN16,0600-1400,2~0~0,2~2~0,2~0~0,0~0~0,30~0~0,7~0~0,14~0~0,7~0~0,BX12,0~0~0,0~8~0,MN02
BX08,0~0~0,1~0~0,29FE,275,84,RELAY,BKN16,0~-23~0,0~-20~0,Some Reasons,Some Comments,0~-6~0,0~-5~0,3~0~0,4~0~0,30275,0~-5~0,23:00:00,EZP,BX08,0~0~0,MDA_1,VACATION,BKN16,0100-0900,2~0~0,2~2~0,2~0~0,0~0~0,30~0~0,7~0~0,14~0~0,7~0~0,BX12,0~0~0,0~8~0,MN02
BX08,0~0~0,1~0~0,29FE,276,31,ROLLOVER,BKN16,0~-23~0,0~-20~0,Some Reasons,Some Comments,0~-6~0,0~-5~0,3~0~0,4~0~0,30276,0~-5~0,23:00:00,GU1,BX08,0~0~0,MDA_1L,VACATION,BKN16,0200-1000,2~0~0,2~2~0,2~0~0,0~0~0,30~0~0,7~0~0,14~0~0,7~0~0,BX12,0~0~0,0~8~0,MN02
BX08,0~0~0,1~0~0,29FE,277,27,ROLLOVER,BKN16,0~-23~0,0~-20~0,Some Reasons,Some Comments,0~-6~0,0~-5~0,3~0~0,4~0~0,30277,0~-5~0,23:00:00,GO,BX08,0~0~0,MDA_2,VACATION,BKN16,2200-0600,2~0~0,2~2~0,2~0~0,0~0~0,30~0~0,7~0~0,14~0~0,7~0~0,BX12,0~0~0,0~8~0,MN02
BX08,0~0~0,1~0~0,29FE,278,56,RELAY,BKN16,0~-23~0,0~-20~0,Some Reasons,Some Comments,0~-6~0,0~-5~0,3~0~0,4~0~0,30278,0~-5~0,23:00:00,MB2,BX08,0~0~0,MDA_3,VACATION,BKN16,0000-0800,2~0~0,2~2~0,2~0~0,0~0~0,30~0~0,7~0~0,14~0~0,7~0~0,BX12,0~0~0,0~8~0,MN02
BX08,0~0~0,1~0~0,29FE,279,24,ROLLOVER,BKN16,0~-23~0,0~-20~0,Some Reasons,Some Comments,0~-6~0,0~-5~0,3~0~0,4~0~0,30279,0~-5~0,23:00:00,MB1,BX08,0~0~0,MDA_4,VACATION,BKN16,2300-0700,2~0~0,2~2~0,2~0~0,0~0~0,30~0~0,7~0~0,14~0~0,7~0~0,BX12,0~0~0,0~8~0,MN02
BX08,0~0~0,1~0~0,29FE,280,27,ROLLOVER,BKN16,0~-23~0,0~-20~0,Some Reasons,Some Comments,0~-6~0,0~-5~0,3~0~0,4~0~0,30280,0~-5~0,23:00:00,CLK,BX08,0~0~0,MDA_4A,VACATION,BKN16,2200-0600,2~0~0,2~2~0,2~0~0,0~0~0,30~0~0,7~0~0,14~0~0,7~0~0,BX12,0~0~0,0~8~0,MN02
BX08,0~0~0,1~0~0,29FE,281,38,RELAY,BKN16,0~-23~0,0~-20~0,Some Reasons,Some Comments,0~-6~0,0~-5~0,3~0~0,4~0~0,30281,0~-5~0,23:00:00,RR,BX08,0~0~0,MDA_1,VACATION,BKN16,0300-1100,2~0~0,2~2~0,2~0~0,0~0~0,30~0~0,7~0~0,14~0~0,7~0~0,BX12,0~0~0,0~8~0,MN02
BX08,0~0~0,1~0~0,29FE,282,96,ROLLOVER,BKN16,0~-23~0,0~-20~0,Some Reasons,Some Comments,0~-6~0,0~-5~0,3~0~0,4~0~0,30282,0~-5~0,23:00:00,BSA,BX08,0~0~0,MDA_1L,VACATION,BKN16,0400-1200,2~0~0,2~2~0,2~0~0,0~0~0,30~0~0,7~0~0,14~0~0,7~0~0,BX12,0~0~0,0~8~0,MN02
BX08,0~0~0,1~0~0,29FE,283,27,ROLLOVER,BKN16,0~-23~0,0~-20~0,Some Reasons,Some Comments,0~-6~0,0~-5~0,3~0~0,4~0~0,30283,0~-5~0,23:00:00,SC,BX08,0~0~0,MDA_2,VACATION,BKN16,0500-1300,2~0~0,2~2~0,2~0~0,0~0~0,30~0~0,7~0~0,14~0~0,7~0~0,BX12,0~0~0,0~8~0,MN02
BX08,0~0~0,1~0~0,29FE,284,52,RELAY,BKN16,0~-23~0,0~-20~0,Some Reasons,Some Comments,0~-6~0,0~-5~0,3~0~0,4~0~0,30284,0~-5~0,23:00:00,WR1,BX08,0~0~0,MDA_3,VACATION,BKN16,0700-1500,2~0~0,2~2~0,2~0~0,0~0~0,30~0~0,7~0~0,14~0~0,7~0~0,BX12,0~0~0,0~8~0,MN02
BX08,0~0~0,1~0~0,29FE,285,29,ROLLOVER,BKN16,0~-23~0,0~-20~0,Some Reasons,Some Comments,0~-6~0,0~-5~0,3~0~0,4~0~0,30285,0~-5~0,23:00:00,GU2,BX08,0~0~0,MDA_4,VACATION,BKN16,0800-1600,2~0~0,2~2~0,2~0~0,0~0~0,30~0~0,7~0~0,14~0~0,7~0~0,BX12,0~0~0,0~8~0,MN02
BX08,0~0~0,1~0~0,29FE,286,27,ROLLOVER,BKN16,0~-23~0,0~-20~0,Some Reasons,Some Comments,0~-6~0,0~-5~0,3~0~0,4~0~0,30286,0~-5~0,23:00:00,GU3,BX08,0~0~0,MDA_4A,VACATION,BKN16,1000-1800,2~0~0,2~2~0,2~0~0,0~0~0,30~0~0,7~0~0,14~0~0,7~0~0,BX12,0~0~0,0~8~0,MN02
BX08,0~0~0,1~0~0,29FE,287,87,RELAY,BKN16,0~-23~0,0~-20~0,Some Reasons,Some Comments,0~-6~0,0~-5~0,3~0~0,4~0~0,30287,0~-5~0,23:00:00,MB3,BX08,0~0~0,MDA_1,VACATION,BKN16,1100-1900,2~0~0,2~2~0,2~0~0,0~0~0,30~0~0,7~0~0,14~0~0,7~0~0,BX12,0~0~0,0~8~0,MN02
BX08,0~0~0,1~0~0,29FE,288,87,ROLLOVER,BKN16,0~-23~0,0~-20~0,Some Reasons,Some Comments,0~-6~0,0~-5~0,3~0~0,4~0~0,30288,0~-5~0,23:00:00,WR2,BX08,0~0~0,MDA_1L,VACATION,BKN16,1200-2000,2~0~0,2~2~0,2~0~0,0~0~0,30~0~0,7~0~0,14~0~0,7~0~0,BX12,0~0~0,0~8~0,MN02
BX08,0~0~0,1~0~0,29FE,289,27,ROLLOVER,BKN16,0~-23~0,0~-20~0,Some Reasons,Some Comments,0~-6~0,0~-5~0,3~0~0,4~0~0,30289,0~-5~0,23:00:00,WR3,BX08,0~0~0,MDA_2,VACATION,BKN16,0600-1400,2~0~0,2~2~0,2~0~0,0~0~0,30~0~0,7~0~0,14~0~0,7~0~0,BX12,0~0~0,0~8~0,MN02
BX08,0~0~0,1~0~0,29FE,290,80,RELAY,BKN16,0~-23~0,0~-20~0,Some Reasons,Some Comments,0~-6~0,0~-5~0,3~0~0,4~0~0,30290,0~-5~0,23:00:00,SKD,BX08,0~0~0,MDA_3,VACATION,BKN16,0100-0900,2~0~0,2~2~0,2~0~0,0~0~0,30~0~0,7~0~0,14~0~0,7~0~0,BX12,0~0~0,0~8~0,MN02
BX08,0~0~0,1~0~0,29FE,291,58,ROLLOVER,BKN16,0~-23~0,0~-20~0,Some Reasons,Some Comments,0~-6~0,0~-5~0,3~0~0,4~0~0,30291,0~-5~0,23:00:00,NS,BX08,0~0~0,MDA_4,VACATION,BKN16,0200-1000,2~0~0,2~2~0,2~0~0,0~0~0,30~0~0,7~0~0,14~0~0,7~0~0,BX12,0~0~0,0~8~0,MN02
BX08,0~0~0,1~0~0,29FE,292,27,ROLLOVER,BKN16,0~-23~0,0~-20~0,Some Reasons,Some Comments,0~-6~0,0~-5~0,3~0~0,4~0~0,30292,0~-5~0,23:00:00,SS,BX08,0~0~0,MDA_4A,VACATION,BKN16,2200-0600,2~0~0,2~2~0,2~0~0,0~0~0,30~0~0,7~0~0,14~0~0,7~0~0,BX12,0~0~0,0~8~0,MN02
BX08,0~0~0,1~0~0,29FE,293,15,RELAY,BKN16,0~-23~0,0~-20~0,Some Reasons,Some Comments,0~-6~0,0~-5~0,3~0~0,4~0~0,30293,0~-5~0,23:00:00,BOA,BX08,0~0~0,MDA_1,VACATION,BKN16,0000-0800,2~0~0,2~2~0,2~0~0,0~0~0,30~0~0,7~0~0,14~0~0,7~0~0,BX12,0~0~0,0~8~0,MN02
BX08,0~0~0,1~0~0,29FE,294,7,ROLLOVER,BKN16,0~-23~0,0~-20~0,Some Reasons,Some Comments,0~-6~0,0~-5~0,3~0~0,4~0~0,30294,0~-5~0,23:00:00,CFC,BX08,0~0~0,MDA_1L,VACATION,BKN16,2300-0700,2~0~0,2~2~0,2~0~0,0~0~0,30~0~0,7~0~0,14~0~0,7~0~0,BX12,0~0~0,0~8~0,MN02
BX08,0~0~0,1~0~0,29FE,295,27,ROLLOVER,BKN16,0~-23~0,0~-20~0,Some Reasons,Some Comments,0~-6~0,0~-5~0,3~0~0,4~0~0,30295,0~-5~0,23:00:00,BCA,BX08,0~0~0,MDA_2,VACATION,BKN16,2200-0600,2~0~0,2~2~0,2~0~0,0~0~0,30~0~0,7~0~0,14~0~0,7~0~0,BX12,0~0~0,0~8~0,MN02
BX08,0~0~0,1~0~0,29FE,296,96,RELAY,BKN16,0~-23~0,0~-20~0,Some Reasons,Some Comments,0~-6~0,0~-5~0,3~0~0,4~0~0,30296,0~-5~0,23:00:00,EZP,BX08,0~0~0,MDA_3,VACATION,BKN16,0300-1100,2~0~0,2~2~0,2~0~0,0~0~0,30~0~0,7~0~0,14~0~0,7~0~0,BX12,0~0~0,0~8~0,MN02
BX08,0~0~0,1~0~0,29FE,297,65,ROLLOVER,BKN16,0~-23~0,0~-20~0,Some Reasons,Some Comments,0~-6~0,0~-5~0,3~0~0,4~0~0,30297,0~-5~0,23:00:00,GU1,BX08,0~0~0,MDA_4,VACATION,BKN16,0400-1200,2~0~0,2~2~0,2~0~0,0~0~0,30~0~0,7~0~0,14~0~0,7~0~0,BX12,0~0~0,0~8~0,MN02
BX08,0~0~0,1~0~0,29FE,298,27,ROLLOVER,BKN16,0~-23~0,0~-20~0,Some Reasons,Some Comments,0~-6~0,0~-5~0,3~0~0,4~0~0,30298,0~-5~0,23:00:00,GO,BX08,0~0~0,MDA_4A,VACATION,BKN16,0500-1300,2~0~0,2~2~0,2~0~0,0~0~0,30~0~0,7~0~0,14~0~0,7~0~0,BX12,0~0~0,0~8~0,MN02
BX08,0~0~0,1~0~0,29FE,299,67,RELAY,BKN16,0~-23~0,0~-20~0,Some Reasons,Some Comments,0~-6~0,0~-5~0,3~0~0,4~0~0,30299,0~-5~0,23:00:00,MB2,BX08,0~0~0,MDA_1,VACATION,BKN16,0700-1500,2~0~0,2~2~0,2~0~0,0~0~0,30~0~0,7~0~0,14~0~0,7~0~0,BX12,0~0~0,0~8~0,MN02
BX08,0~0~0,1~0~0,29FE,300,55,ROLLOVER,BKN16,0~-23~0,0~-20~0,Some Reasons,Some Comments,0~-6~0,0~-5~0,3~0~0,4~0~0,30300,0~-5~0,23:00:00,MB1,BX08,0~0~0,MDA_1L,VACATION,BKN16,0800-1600,2~0~0,2~2~0,2~0~0,0~0~0,30~0~0,7~0~0,14~0~0,7~0~0,BX12,0~0~0,0~8~0,MN02
BX08,0~0~0,1~0~0,29FE,301,27,ROLLOVER,BKN16,0~-23~0,0~-20~0,Some Reasons,Some Comments,0~-6~0,0~-5~0,3~0~0,4~0~0,30301,0~-5~0,23:00:00,CLK,BX08,0~0~0,MDA_2,VACATION,BKN16,1000-1800,2~0~0,2~2~0,2~0~0,0~0~0,30~0~0,7~0~0,14~0~0,7~0~0,BX12,0~0~0,0~8~0,MN02
BX08,0~0~0,1~0~0,29FE,302,32,RELAY,BKN16,0~-23~0,0~-20~0,Some Reasons,Some Comments,0~-6~0,0~-5~0,3~0~0,4~0~0,30302,0~-5~0,23:00:00,RR,BX08,0~0~0,MDA_3,VACATION,BKN16,1100-1900,2~0~0,2~2~0,2~0~0,0~0~0,30~0~0,7~0~0,14~0~0,7~0~0,BX12,0~0~0,0~8~0,MN02
BX08,0~0~0,1~0~0,29FE,303,67,ROLLOVER,BKN16,0~-23~0,0~-20~0,Some Reasons,Some Comments,0~-6~0,0~-5~0,3~0~0,4~0~0,30303,0~-5~0,23:00:00,BSA,BX08,0~0~0,MDA_4,VACATION,BKN16,1200-2000,2~0~0,2~2~0,2~0~0,0~0~0,30~0~0,7~0~0,14~0~0,7~0~0,BX12,0~0~0,0~8~0,MN02
BX08,0~0~0,1~0~0,29FE,304,27,ROLLOVER,BKN16,0~-23~0,0~-20~0,Some Reasons,Some Comments,0~-6~0,0~-5~0,3~0~0,4~0~0,30304,0~-5~0,23:00:00,SC,BX08,0~0~0,MDA_4A,VACATION,BKN16,0600-1400,2~0~0,2~2~0,2~0~0,0~0~0,30~0~0,7~0~0,14~0~0,7~0~0,BX12,0~0~0,0~8~0,MN02
BX08,0~0~0,1~0~0,29FE,305,60,RELAY,BKN16,0~-23~0,0~-20~0,Some Reasons,Some Comments,0~-6~0,0~-5~0,3~0~0,4~0~0,30305,0~-5~0,23:00:00,WR1,BX08,0~0~0,MDA_1,VACATION,BKN16,0100-0900,2~0~0,2~2~0,2~0~0,0~0~0,30~0~0,7~0~0,14~0~0,7~0~0,BX12,0~0~0,0~8~0,MN02
BX08,0~0~0,1~0~0,29FE,306,34,ROLLOVER,BKN16,0~-23~0,0~-20~0,Some Reasons,Some Comments,0~-6~0,0~-5~0,3~0~0,4~0~0,30306,0~-5~0,23:00:00,GU2,BX08,0~0~0,MDA_1L,VACATION,BKN16,0200-1000,2~0~0,2~2~0,2~0~0,0~0~0,30~0~0,7~0~0,14~0~0,7~0~0,BX12,0~0~0,0~8~0,MN02
BX08,0~0~0,1~0~0,29FE,307,27,ROLLOVER,BKN16,0~-23~0,0~-20~0,Some Reasons,Some Comments,0~-6~0,0~-5~0,3~0~0,4~0~0,30307,0~-5~0,23:00:00,GU3,BX08,0~0~0,MDA_2,VACATION,BKN16,2200-0600,2~0~0,2~2~0,2~0~0,0~0~0,30~0~0,7~0~0,14~0~0,7~0~0,BX12,0~0~0,0~8~0,MN02
BX08,0~0~0,1~0~0,29FE,308,63,RELAY,BKN16,0~-23~0,0~-20~0,Some Reasons,Some Comments,0~-6~0,0~-5~0,3~0~0,4~0~0,30308,0~-5~0,23:00:00,MB3,BX08,0~0~0,MDA_3,VACATION,BKN16,0000-0800,2~0~0,2~2~0,2~0~0,0~0~0,30~0~0,7~0~0,14~0~0,7~0~0,BX12,0~0~0,0~8~0,MN02
BX08,0~0~0,1~0~0,29FE,309,59,ROLLOVER,BKN16,0~-23~0,0~-20~0,Some Reasons,Some Comments,0~-6~0,0~-5~0,3~0~0,4~0~0,30309,0~-5~0,23:00:00,WR2,BX08,0~0~0,MDA_4,VACATION,BKN16,2300-0700,2~0~0,2~2~0,2~0~0,0~0~0,30~0~0,7~0~0,14~0~0,7~0~0,BX12,0~0~0,0~8~0,MN02
BX08,0~0~0,1~0~0,29FE,310,27,ROLLOVER,BKN16,0~-23~0,0~-20~0,Some Reasons,Some Comments,0~-6~0,0~-5~0,3~0~0,4~0~0,30310,0~-5~0,23:00:00,WR3,BX08,0~0~0,MDA_4A,VACATION,BKN16,2200-0600,2~0~0,2~2~0,2~0~0,0~0~0,30~0~0,7~0~0,14~0~0,7~0~0,BX12,0~0~0,0~8~0,MN02
BX08,0~0~0,1~0~0,29FE,311,11,RELAY,BKN16,0~-23~0,0~-20~0,Some Reasons,Some Comments,0~-6~0,0~-5~0,3~0~0,4~0~0,30311,0~-5~0,23:00:00,SKD,BX08,0~0~0,MDA_1,VACATION,BKN16,0300-1100,2~0~0,2~2~0,2~0~0,0~0~0,30~0~0,7~0~0,14~0~0,7~0~0,BX12,0~0~0,0~8~0,MN02
BX08,0~0~0,1~0~0,29FE,312,97,ROLLOVER,BKN16,0~-23~0,0~-20~0,Some Reasons,Some Comments,0~-6~0,0~-5~0,3~0~0,4~0~0,30312,0~-5~0,23:00:00,NS,BX08,0~0~0,MDA_1L,VACATION,BKN16,0400-1200,2~0~0,2~2~0,2~0~0,0~0~0,30~0~0,7~0~0,14~0~0,7~0~0,BX12,0~0~0,0~8~0,MN02
BX08,0~0~0,1~0~0,29FE,313,27,ROLLOVER,BKN16,0~-23~0,0~-20~0,Some Reasons,Some Comments,0~-6~0,0~-5~0,3~0~0,4~0~0,30313,0~-5~0,23:00:00,SS,BX08,0~0~0,MDA_2,VACATION,BKN16,0500-1300,2~0~0,2~2~0,2~0~0,0~0~0,30~0~0,7~0~0,14~0~0,7~0~0,BX12,0~0~0,0~8~0,MN02
BX08,0~0~0,1~0~0,29FE,314,39,RELAY,BKN16,0~-23~0,0~-20~0,Some Reasons,Some Comments,0~-6~0,0~-5~0,3~0~0,4~0~0,30314,0~-5~0,23:00:00,BOA,BX08,0~0~0,MDA_3,VACATION,BKN16,0700-1500,2~0~0,2~2~0,2~0~0,0~0~0,30~0~0,7~0~0,14~0~0,7~0~0,BX12,0~0~0,0~8~0,MN02
BX08,0~0~0,1~0~0,29FE,315,32,ROLLOVER,BKN16,0~-23~0,0~-20~0,Some Reasons,Some Comments,0~-6~0,0~-5~0,3~0~0,4~0~0,30315,0~-5~0,23:00:00,CFC,BX08,0~0~0,MDA_4,VACATION,BKN16,0800-1600,2~0~0,2~2~0,2~0~0,0~0~0,30~0~0,7~0~0,14~0~0,7~0~0,BX12,0~0~0,0~8~0,MN02
BX08,0~0~0,1~0~0,29FE,316,27,ROLLOVER,BKN16,0~-23~0,0~-20~0,Some Reasons,Some Comments,0~-6~0,0~-5~0,3~0~0,4~0~0,30316,0~-5~0,23:00:00,BCA,BX08,0~0~0,MDA_4A,VACATION,BKN16,1000-1800,2~0~0,2~2~0,2~0~0,0~0~0,30~0~0,7~0~0,14~0~0,7~0~0,BX12,0~0~0,0~8~0,MN02
BX08,0~0~0,1~0~0,29FE,317,29,RELAY,BKN16,0~-23~0,0~-20~0,Some Reasons,Some Comments,0~-6~0,0~-5~0,3~0~0,4~0~0,30317,0~-5~0,23:00:00,EZP,BX08,0~0~0,MDA_1,VACATION,BKN16,1100-1900,2~0~0,2~2~0,2~0~0,0~0~0,30~0~0,7~0~0,14~0~0,7~0~0,BX12,0~0~0,0~8~0,MN02
BX08,0~0~0,1~0~0,29FE,318,54,ROLLOVER,BKN16,0~-23~0,0~-20~0,Some Reasons,Some Comments,0~-6~0,0~-5~0,3~0~0,4~0~0,30318,0~-5~0,23:00:00,GU1,BX08,0~0~0,MDA_1L,VACATION,BKN16,1200-2000,2~0~0,2~2~0,2~0~0,0~0~0,30~0~0,7~0~0,14~0~0,7~0~0,BX12,0~0~0,0~8~0,MN02
BX08,0~0~0,1~0~0,29FE,319,27,ROLLOVER,BKN16,0~-23~0,0~-20~0,Some Reasons,Some Comments,0~-6~0,0~-5~0,3~0~0,4~0~0,30319,0~-5~0,23:00:00,GO,BX08,0~0~0,MDA_2,VACATION,BKN16,0600-1400,2~0~0,2~2~0,2~0~0,0~0~0,30~0~0,7~0~0,14~0~0,7~0~0,BX12,0~0~0,0~8~0,MN02
BX08,0~0~0,1~0~0,29FE,320,34,RELAY,BKN16,0~-23~0,0~-20~0,Some Reasons,Some Comments,0~-6~0,0~-5~0,3~0~0,4~0~0,30320,0~-5~0,23:00:00,MB2,BX08,0~0~0,MDA_3,VACATION,BKN16,0100-0900,2~0~0,2~2~0,2~0~0,0~0~0,30~0~0,7~0~0,14~0~0,7~0~0,BX12,0~0~0,0~8~0,MN02
BX08,0~0~0,1~0~0,29FE,321,52,ROLLOVER,BKN16,0~-23~0,0~-20~0,Some Reasons,Some Comments,0~-6~0,0~-5~0,3~0~0,4~0~0,30321,0~-5~0,23:00:00,MB1,BX08,0~0~0,MDA_4,VACATION,BKN16,0200-1000,2~0~0,2~2~0,2~0~0,0~0~0,30~0~0,7~0~0,14~0~0,7~0~0,BX12,0~0~0,0~8~0,MN02
BX08,0~0~0,1~0~0,29FE,322,27,ROLLOVER,BKN16,0~-23~0,0~-20~0,Some Reasons,Some Comments,0~-6~0,0~-5~0,3~0~0,4~0~0,30322,0~-5~0,23:00:00,CLK,BX08,0~0~0,MDA_4A,VACATION,BKN16,2200-0600,2~0~0,2~2~0,2~0~0,0~0~0,30~0~0,7~0~0,14~0~0,7~0~0,BX12,0~0~0,0~8~0,MN02
BX08,0~0~0,1~0~0,29FE,323,53,RELAY,BKN16,0~-23~0,0~-20~0,Some Reasons,Some Comments,0~-6~0,0~-5~0,3~0~0,4~0~0,30323,0~-5~0,23:00:00,RR,BX08,0~0~0,MDA_1,VACATION,BKN16,0000-0800,2~0~0,2~2~0,2~0~0,0~0~0,30~0~0,7~0~0,14~0~0,7~0~0,BX12,0~0~0,0~8~0,MN02
BX08,0~0~0,1~0~0,29FE,324,96,ROLLOVER,BKN16,0~-23~0,0~-20~0,Some Reasons,Some Comments,0~-6~0,0~-5~0,3~0~0,4~0~0,30324,0~-5~0,23:00:00,BSA,BX08,0~0~0,MDA_1L,VACATION,BKN16,2300-0700,2~0~0,2~2~0,2~0~0,0~0~0,30~0~0,7~0~0,14~0~0,7~0~0,BX12,0~0~0,0~8~0,MN02
BX08,0~0~0,1~0~0,29FE,325,27,ROLLOVER,BKN16,0~-23~0,0~-20~0,Some Reasons,Some Comments,0~-6~0,0~-5~0,3~0~0,4~0~0,30325,0~-5~0,23:00:00,SC,BX08,0~0~0,MDA_2,VACATION,BKN16,2200-0600,2~0~0,2~2~0,2~0~0,0~0~0,30~0~0,7~0~0,14~0~0,7~0~0,BX12,0~0~0,0~8~0,MN02
BX08,0~0~0,1~0~0,29FE,326,58,RELAY,BKN16,0~-23~0,0~-20~0,Some Reasons,Some Comments,0~-6~0,0~-5~0,3~0~0,4~0~0,30326,0~-5~0,23:00:00,WR1,BX08,0~0~0,MDA_3,VACATION,BKN16,0300-1100,2~0~0,2~2~0,2~0~0,0~0~0,30~0~0,7~0~0,14~0~0,7~0~0,BX12,0~0~0,0~8~0,MN02
BX08,0~0~0,1~0~0,29FE,327,82,ROLLOVER,BKN16,0~-23~0,0~-20~0,Some Reasons,Some Comments,0~-6~0,0~-5~0,3~0~0,4~0~0,30327,0~-5~0,23:00:00,GU2,BX08,0~0~0,MDA_4,VACATION,BKN16,0400-1200,2~0~0,2~2~0,2~0~0,0~0~0,30~0~0,7~0~0,14~0~0,7~0~0,BX12,0~0~0,0~8~0,MN02
BX08,0~0~0,1~0~0,29FE,328,27,ROLLOVER,BKN16,0~-23~0,0~-20~0,Some Reasons,Some Comments,0~-6~0,0~-5~0,3~0~0,4~0~0,30328,0~-5~0,23:00:00,GU3,BX08,0~0~0,MDA_4A,VACATION,BKN16,0500-1300,2~0~0,2~2~0,2~0~0,0~0~0,30~0~0,7~0~0,14~0~0,7~0~0,BX12,0~0~0,0~8~0,MN02
BX08,0~0~0,1~0~0,29FE,329,58,RELAY,BKN16,0~-23~0,0~-20~0,Some Reasons,Some Comments,0~-6~0,0~-5~0,3~0~0,4~0~0,30329,0~-5~0,23:00:00,MB3,BX08,0~0~0,MDA_1,VACATION,BKN16,0700-1500,2~0~0,2~2~0,2~0~0,0~0~0,30~0~0,7~0~0,14~0~0,7~0~0,BX12,0~0~0,0~8~0,MN02
BX08,0~0~0,1~0~0,29FE,330,65,ROLLOVER,BKN16,0~-23~0,0~-20~0,Some Reasons,Some Comments,0~-6~0,0~-5~0,3~0~0,4~0~0,30330,0~-5~0,23:00:00,WR2,BX08,0~0~0,MDA_1L,VACATION,BKN16,0800-1600,2~0~0,2~2~0,2~0~0,0~0~0,30~0~0,7~0~0,14~0~0,7~0~0,BX12,0~0~0,0~8~0,MN02
BX08,0~0~0,1~0~0,29FE,331,27,ROLLOVER,BKN16,0~-23~0,0~-20~0,Some Reasons,Some Comments,0~-6~0,0~-5~0,3~0~0,4~0~0,30331,0~-5~0,23:00:00,WR3,BX08,0~0~0,MDA_2,VACATION,BKN16,1000-1800,2~0~0,2~2~0,2~0~0,0~0~0,30~0~0,7~0~0,14~0~0,7~0~0,BX12,0~0~0,0~8~0,MN02
BX08,0~0~0,1~0~0,29FE,332,37,RELAY,BKN16,0~-23~0,0~-20~0,Some Reasons,Some Comments,0~-6~0,0~-5~0,3~0~0,4~0~0,30332,0~-5~0,23:00:00,SKD,BX08,0~0~0,MDA_3,VACATION,BKN16,1100-1900,2~0~0,2~2~0,2~0~0,0~0~0,30~0~0,7~0~0,14~0~0,7~0~0,BX12,0~0~0,0~8~0,MN02
BX08,0~0~0,1~0~0,29FE,333,32,ROLLOVER,BKN16,0~-23~0,0~-20~0,Some Reasons,Some Comments,0~-6~0,0~-5~0,3~0~0,4~0~0,30333,0~-5~0,23:00:00,NS,BX08,0~0~0,MDA_4,VACATION,BKN16,1200-2000,2~0~0,2~2~0,2~0~0,0~0~0,30~0~0,7~0~0,14~0~0,7~0~0,BX12,0~0~0,0~8~0,MN02
BX08,0~0~0,1~0~0,29FE,334,27,ROLLOVER,BKN16,0~-23~0,0~-20~0,Some Reasons,Some Comments,0~-6~0,0~-5~0,3~0~0,4~0~0,30334,0~-5~0,23:00:00,SS,BX08,0~0~0,MDA_4A,VACATION,BKN16,0600-1400,2~0~0,2~2~0,2~0~0,0~0~0,30~0~0,7~0~0,14~0~0,7~0~0,BX12,0~0~0,0~8~0,MN02
BX08,0~0~0,1~0~0,29FE,335,62,RELAY,BKN16,0~-23~0,0~-20~0,Some Reasons,Some Comments,0~-6~0,0~-5~0,3~0~0,4~0~0,30335,0~-5~0,23:00:00,BOA,BX08,0~0~0,MDA_1,VACATION,BKN16,0100-0900,2~0~0,2~2~0,2~0~0,0~0~0,30~0~0,7~0~0,14~0~0,7~0~0,BX12,0~0~0,0~8~0,MN02
BX08,0~0~0,1~0~0,29FE,336,10,ROLLOVER,BKN16,0~-23~0,0~-20~0,Some Reasons,Some Comments,0~-6~0,0~-5~0,3~0~0,4~0~0,30336,0~-5~0,23:00:00,CFC,BX08,0~0~0,MDA_1L,VACATION,BKN16,0200-1000,2~0~0,2~2~0,2~0~0,0~0~0,30~0~0,7~0~0,14~0~0,7~0~0,BX12,0~0~0,0~8~0,MN02
BX08,0~0~0,1~0~0,29FE,337,27,ROLLOVER,BKN16,0~-23~0,0~-20~0,Some Reasons,Some Comments,0~-6~0,0~-5~0,3~0~0,4~0~0,30337,0~-5~0,23:00:00,BCA,BX08,0~0~0,MDA_2,VACATION,BKN16,2200-0600,2~0~0,2~2~0,2~0~0,0~0~0,30~0~0,7~0~0,14~0~0,7~0~0,BX12,0~0~0,0~8~0,MN02
BX08,0~0~0,1~0~0,29FE,338,55,RELAY,BKN16,0~-23~0,0~-20~0,Some Reasons,Some Comments,0~-6~0,0~-5~0,3~0~0,4~0~0,30338,0~-5~0,23:00:00,EZP,BX08,0~0~0,MDA_3,VACATION,BKN16,0000-0800,2~0~0,2~2~0,2~0~0,0~0~0,30~0~0,7~0~0,14~0~0,7~0~0,BX12,0~0~0,0~8~0,MN02
BX08,0~0~0,1~0~0,29FE,339,29,ROLLOVER,BKN16,0~-23~0,0~-20~0,Some Reasons,Some Comments,0~-6~0,0~-5~0,3~0~0,4~0~0,30339,0~-5~0,23:00:00,GU1,BX08,0~0~0,MDA_4,VACATION,BKN16,2300-0700,2~0~0,2~2~0,2~0~0,0~0~0,30~0~0,7~0~0,14~0~0,7~0~0,BX12,0~0~0,0~8~0,MN02
BX08,0~0~0,1~0~0,29FE,340,27,ROLLOVER,BKN16,0~-23~0,0~-20~0,Some Reasons,Some Comments,0~-6~0,0~-5~0,3~0~0,4~0~0,30340,0~-5~0,23:00:00,GO,BX08,0~0~0,MDA_4A,VACATION,BKN16,2200-0600,2~0~0,2~2~0,2~0~0,0~0~0,30~0~0,7~0~0,14~0~0,7~0~0,BX12,0~0~0,0~8~0,MN02
BX08,0~0~0,1~0~0,29FE,341,46,RELAY,BKN16,0~-23~0,0~-20~0,Some Reasons,Some Comments,0~-6~0,0~-5~0,3~0~0,4~0~0,30341,0~-5~0,23:00:00,MB2,BX08,0~0~0,MDA_1,VACATION,BKN16,0300-1100,2~0~0,2~2~0,2~0~0,0~0~0,30~0~0,7~0~0,14~0~0,7~0~0,BX12,0~0~0,0~8~0,MN02
BX08,0~0~0,1~0~0,29FE,342,80,ROLLOVER,BKN16,0~-23~0,0~-20~0,Some Reasons,Some Comments,0~-6~0,0~-5~0,3~0~0,4~0~0,30342,0~-5~0,23:00:00,MB1,BX08,0~0~0,MDA_1L,VACATION,BKN16,0400-1200,2~0~0,2~2~0,2~0~0,0~0~0,30~0~0,7~0~0,14~0~0,7~0~0,BX12,0~0~0,0~8~0,MN02
BX08,0~0~0,1~0~0,29FE,343,27,ROLLOVER,BKN16,0~-23~0,0~-20~0,Some Reasons,Some Comments,0~-6~0,0~-5~0,3~0~0,4~0~0,30343,0~-5~0,23:00:00,CLK,BX08,0~0~0,MDA_2,VACATION,BKN16,0500-1300,2~0~0,2~2~0,2~0~0,0~0~0,30~0~0,7~0~0,14~0~0,7~0~0,BX12,0~0~0,0~8~0,MN02
BX08,0~0~0,1~0~0,29FE,344,7,RELAY,BKN16,0~-23~0,0~-20~0,Some Reasons,Some Comments,0~-6~0,0~-5~0,3~0~0,4~0~0,30344,0~-5~0,23:00:00,RR,BX08,0~0~0,MDA_3,VACATION,BKN16,0700-1500,2~0~0,2~2~0,2~0~0,0~0~0,30~0~0,7~0~0,14~0~0,7~0~0,BX12,0~0~0,0~8~0,MN02
BX08,0~0~0,1~0~0,29FE,345,27,ROLLOVER,BKN16,0~-23~0,0~-20~0,Some Reasons,Some Comments,0~-6~0,0~-5~0,3~0~0,4~0~0,30345,0~-5~0,23:00:00,BSA,BX08,0~0~0,MDA_4,VACATION,BKN16,0800-1600,2~0~0,2~2~0,2~0~0,0~0~0,30~0~0,7~0~0,14~0~0,7~0~0,BX12,0~0~0,0~8~0,MN02
BX08,0~0~0,1~0~0,29FE,346,27,ROLLOVER,BKN16,0~-23~0,0~-20~0,Some Reasons,Some Comments,0~-6~0,0~-5~0,3~0~0,4~0~0,30346,0~-5~0,23:00:00,SC,BX08,0~0~0,MDA_4A,VACATION,BKN16,1000-1800,2~0~0,2~2~0,2~0~0,0~0~0,30~0~0,7~0~0,14~0~0,7~0~0,BX12,0~0~0,0~8~0,MN02
BX08,0~0~0,1~0~0,29FE,347,64,RELAY,BKN16,0~-23~0,0~-20~0,Some Reasons,Some Comments,0~-6~0,0~-5~0,3~0~0,4~0~0,30347,0~-5~0,23:00:00,WR1,BX08,0~0~0,MDA_1,VACATION,BKN16,1100-1900,2~0~0,2~2~0,2~0~0,0~0~0,30~0~0,7~0~0,14~0~0,7~0~0,BX12,0~0~0,0~8~0,MN02
BX08,0~0~0,1~0~0,29FE,348,24,ROLLOVER,BKN16,0~-23~0,0~-20~0,Some Reasons,Some Comments,0~-6~0,0~-5~0,3~0~0,4~0~0,30348,0~-5~0,23:00:00,GU2,BX08,0~0~0,MDA_1L,VACATION,BKN16,1200-2000,2~0~0,2~2~0,2~0~0,0~0~0,30~0~0,7~0~0,14~0~0,7~0~0,BX12,0~0~0,0~8~0,MN02
BX08,0~0~0,1~0~0,29FE,349,27,ROLLOVER,BKN16,0~-23~0,0~-20~0,Some Reasons,Some Comments,0~-6~0,0~-5~0,3~0~0,4~0~0,30349,0~-5~0,23:00:00,GU3,BX08,0~0~0,MDA_2,VACATION,BKN16,0600-1400,2~0~0,2~2~0,2~0~0,0~0~0,30~0~0,7~0~0,14~0~0,7~0~0,BX12,0~0~0,0~8~0,MN02
BX08,0~0~0,1~0~0,29FE,350,54,RELAY,BKN16,0~-23~0,0~-20~0,Some Reasons,Some Comments,0~-6~0,0~-5~0,3~0~0,4~0~0,30350,0~-5~0,23:00:00,MB3,BX08,0~0~0,MDA_3,VACATION,BKN16,0100-0900,2~0~0,2~2~0,2~0~0,0~0~0,30~0~0,7~0~0,14~0~0,7~0~0,BX12,0~0~0,0~8~0,MN02
BX08,0~0~0,1~0~0,29FE,351,25,ROLLOVER,BKN16,0~-23~0,0~-20~0,Some Reasons,Some Comments,0~-6~0,0~-5~0,3~0~0,4~0~0,30351,0~-5~0,23:00:00,WR2,BX08,0~0~0,MDA_4,VACATION,BKN16,0200-1000,2~0~0,2~2~0,2~0~0,0~0~0,30~0~0,7~0~0,14~0~0,7~0~0,BX12,0~0~0,0~8~0,MN02
BX08,0~0~0,1~0~0,29FE,352,27,ROLLOVER,BKN16,0~-23~0,0~-20~0,Some Reasons,Some Comments,0~-6~0,0~-5~0,3~0~0,4~0~0,30352,0~-5~0,23:00:00,WR3,BX08,0~0~0,MDA_4A,VACATION,BKN16,2200-0600,2~0~0,2~2~0,2~0~0,0~0~0,30~0~0,7~0~0,14~0~0,7~0~0,BX12,0~0~0,0~8~0,MN02
BX08,0~0~0,1~0~0,29FE,353,65,RELAY,BKN16,0~-23~0,0~-20~0,Some Reasons,Some Comments,0~-6~0,0~-5~0,3~0~0,4~0~0,30353,0~-5~0,23:00:00,SKD,BX08,0~0~0,MDA_1,VACATION,BKN16,0000-0800,2~0~0,2~2~0,2~0~0,0~0~0,30~0~0,7~0~0,14~0~0,7~0~0,BX12,0~0~0,0~8~0,MN02
BX08,0~0~0,1~0~0,29FE,354,1,ROLLOVER,BKN16,0~-23~0,0~-20~0,Some Reasons,Some Comments,0~-6~0,0~-5~0,3~0~0,4~0~0,30354,0~-5~0,23:00:00,NS,BX08,0~0~0,MDA_1L,VACATION,BKN16,2300-0700,2~0~0,2~2~0,2~0~0,0~0~0,30~0~0,7~0~0,14~0~0,7~0~0,BX12,0~0~0,0~8~0,MN02
BX08,0~0~0,1~0~0,29FE,355,27,ROLLOVER,BKN16,0~-23~0,0~-20~0,Some Reasons,Some Comments,0~-6~0,0~-5~0,3~0~0,4~0~0,30355,0~-5~0,23:00:00,SS,BX08,0~0~0,MDA_2,VACATION,BKN16,2200-0600,2~0~0,2~2~0,2~0~0,0~0~0,30~0~0,7~0~0,14~0~0,7~0~0,BX12,0~0~0,0~8~0,MN02
BX08,0~0~0,1~0~0,29FE,356,97,RELAY,BKN16,0~-23~0,0~-20~0,Some Reasons,Some Comments,0~-6~0,0~-5~0,3~0~0,4~0~0,30356,0~-5~0,23:00:00,BOA,BX08,0~0~0,MDA_3,VACATION,BKN16,0300-1100,2~0~0,2~2~0,2~0~0,0~0~0,30~0~0,7~0~0,14~0~0,7~0~0,BX12,0~0~0,0~8~0,MN02
BX08,0~0~0,1~0~0,29FE,357,56,ROLLOVER,BKN16,0~-23~0,0~-20~0,Some Reasons,Some Comments,0~-6~0,0~-5~0,3~0~0,4~0~0,30357,0~-5~0,23:00:00,CFC,BX08,0~0~0,MDA_4,VACATION,BKN16,0400-1200,2~0~0,2~2~0,2~0~0,0~0~0,30~0~0,7~0~0,14~0~0,7~0~0,BX12,0~0~0,0~8~0,MN02
BX08,0~0~0,1~0~0,29FE,358,27,ROLLOVER,BKN16,0~-23~0,0~-20~0,Some Reasons,Some Comments,0~-6~0,0~-5~0,3~0~0,4~0~0,30358,0~-5~0,23:00:00,BCA,BX08,0~0~0,MDA_4A,VACATION,BKN16,0500-1300,2~0~0,2~2~0,2~0~0,0~0~0,30~0~0,7~0~0,14~0~0,7~0~0,BX12,0~0~0,0~8~0,MN02
BX08,0~0~0,1~0~0,29FE,359,39,RELAY,BKN16,0~-23~0,0~-20~0,Some Reasons,Some Comments,0~-6~0,0~-5~0,3~0~0,4~0~0,30359,0~-5~0,23:00:00,EZP,BX08,0~0~0,MDA_1,VACATION,BKN16,0700-1500,2~0~0,2~2~0,2~0~0,0~0~0,30~0~0,7~0~0,14~0~0,7~0~0,BX12,0~0~0,0~8~0,MN02
BX08,0~0~0,1~0~0,29FE,360,67,ROLLOVER,BKN16,0~-23~0,0~-20~0,Some Reasons,Some Comments,0~-6~0,0~-5~0,3~0~0,4~0~0,30360,0~-5~0,23:00:00,GU1,BX08,0~0~0,MDA_1L,VACATION,BKN16,0800-1600,2~0~0,2~2~0,2~0~0,0~0~0,30~0~0,7~0~0,14~0~0,7~0~0,BX12,0~0~0,0~8~0,MN02
BX08,0~0~0,1~0~0,29FE,361,27,ROLLOVER,BKN16,0~-23~0,0~-20~0,Some Reasons,Some Comments,0~-6~0,0~-5~0,3~0~0,4~0~0,30361,0~-5~0,23:00:00,GO,BX08,0~0~0,MDA_2,VACATION,BKN16,1000-1800,2~0~0,2~2~0,2~0~0,0~0~0,30~0~0,7~0~0,14~0~0,7~0~0,BX12,0~0~0,0~8~0,MN02
BX08,0~0~0,1~0~0,29FE,362,59,RELAY,BKN16,0~-23~0,0~-20~0,Some Reasons,Some Comments,0~-6~0,0~-5~0,3~0~0,4~0~0,30362,0~-5~0,23:00:00,MB2,BX08,0~0~0,MDA_3,VACATION,BKN16,1100-1900,2~0~0,2~2~0,2~0~0,0~0~0,30~0~0,7~0~0,14~0~0,7~0~0,BX12,0~0~0,0~8~0,MN02
BX08,0~0~0,1~0~0,29FE,363,39,ROLLOVER,BKN16,0~-23~0,0~-20~0,Some Reasons,Some Comments,0~-6~0,0~-5~0,3~0~0,4~0~0,30363,0~-5~0,23:00:00,MB1,BX08,0~0~0,MDA_4,VACATION,BKN16,1200-2000,2~0~0,2~2~0,2~0~0,0~0~0,30~0~0,7~0~0,14~0~0,7~0~0,BX12,0~0~0,0~8~0,MN02
BX08,0~0~0,1~0~0,29FE,364,27,ROLLOVER,BKN16,0~-23~0,0~-20~0,Some Reasons,Some Comments,0~-6~0,0~-5~0,3~0~0,4~0~0,30364,0~-5~0,23:00:00,CLK,BX08,0~0~0,MDA_4A,VACATION,BKN16,0600-1400,2~0~0,2~2~0,2~0~0,0~0~0,30~0~0,7~0~0,14~0~0,7~0~0,BX12,0~0~0,0~8~0,MN02
BX08,0~0~0,1~0~0,29FE,365,98,RELAY,BKN16,0~-23~0,0~-20~0,Some Reasons,Some Comments,0~-6~0,0~-5~0,3~0~0,4~0~0,30365,0~-5~0,23:00:00,RR,BX08,0~0~0,MDA_1,VACATION,BKN16,0100-0900,2~0~0,2~2~0,2~0~0,0~0~0,30~0~0,7~0~0,14~0~0,7~0~0,BX12,0~0~0,0~8~0,MN02
BX08,0~0~0,1~0~0,29FE,366,39,ROLLOVER,BKN16,0~-23~0,0~-20~0,Some Reasons,Some Comments,0~-6~0,0~-5~0,3~0~0,4~0~0,30366,0~-5~0,23:00:00,BSA,BX08,0~0~0,MDA_1L,VACATION,BKN16,0200-1000,2~0~0,2~2~0,2~0~0,0~0~0,30~0~0,7~0~0,14~0~0,7~0~0,BX12,0~0~0,0~8~0,MN02
BX08,0~0~0,1~0~0,29FE,367,27,ROLLOVER,BKN16,0~-23~0,0~-20~0,Some Reasons,Some Comments,0~-6~0,0~-5~0,3~0~0,4~0~0,30367,0~-5~0,23:00:00,SC,BX08,0~0~0,MDA_2,VACATION,BKN16,2200-0600,2~0~0,2~2~0,2~0~0,0~0~0,30~0~0,7~0~0,14~0~0,7~0~0,BX12,0~0~0,0~8~0,MN02
BX08,0~0~0,1~0~0,29FE,368,53,RELAY,BKN16,0~-23~0,0~-20~0,Some Reasons,Some Comments,0~-6~0,0~-5~0,3~0~0,4~0~0,30368,0~-5~0,23:00:00,WR1,BX08,0~0~0,MDA_3,VACATION,BKN16,0000-0800,2~0~0,2~2~0,2~0~0,0~0~0,30~0~0,7~0~0,14~0~0,7~0~0,BX12,0~0~0,0~8~0,MN02
BX08,0~0~0,1~0~0,29FE,369,98,ROLLOVER,BKN16,0~-23~0,0~-20~0,Some Reasons,Some Comments,0~-6~0,0~-5~0,3~0~0,4~0~0,30369,0~-5~0,23:00:00,GU2,BX08,0~0~0,MDA_4,VACATION,BKN16,2300-0700,2~0~0,2~2~0,2~0~0,0~0~0,30~0~0,7~0~0,14~0~0,7~0~0,BX12,0~0~0,0~8~0,MN02
BX08,0~0~0,1~0~0,29FE,370,27,ROLLOVER,BKN16,0~-23~0,0~-20~0,Some Reasons,Some Comments,0~-6~0,0~-5~0,3~0~0,4~0~0,30370,0~-5~0,23:00:00,GU3,BX08,0~0~0,MDA_4A,VACATION,BKN16,2200-0600,2~0~0,2~2~0,2~0~0,0~0~0,30~0~0,7~0~0,14~0~0,7~0~0,BX12,0~0~0,0~8~0,MN02
BX08,0~0~0,1~0~0,29FE,371,84,RELAY,BKN16,0~-23~0,0~-20~0,Some Reasons,Some Comments,0~-6~0,0~-5~0,3~0~0,4~0~0,30371,0~-5~0,23:00:00,MB3,BX08,0~0~0,MDA_1,VACATION,BKN16,0300-1100,2~0~0,2~2~0,2~0~0,0~0~0,30~0~0,7~0~0,14~0~0,7~0~0,BX12,0~0~0,0~8~0,MN02
BX08,0~0~0,1~0~0,29FE,372,81,ROLLOVER,BKN16,0~-23~0,0~-20~0,Some Reasons,Some Comments,0~-6~0,0~-5~0,3~0~0,4~0~0,30372,0~-5~0,23:00:00,WR2,BX08,0~0~0,MDA_1L,VACATION,BKN16,0400-1200,2~0~0,2~2~0,2~0~0,0~0~0,30~0~0,7~0~0,14~0~0,7~0~0,BX12,0~0~0,0~8~0,MN02
BX08,0~0~0,1~0~0,29FE,373,27,ROLLOVER,BKN16,0~-23~0,0~-20~0,Some Reasons,Some Comments,0~-6~0,0~-5~0,3~0~0,4~0~0,30373,0~-5~0,23:00:00,WR3,BX08,0~0~0,MDA_2,VACATION,BKN16,0500-1300,2~0~0,2~2~0,2~0~0,0~0~0,30~0~0,7~0~0,14~0~0,7~0~0,BX12,0~0~0,0~8~0,MN02
BX08,0~0~0,1~0~0,29FE,374,54,RELAY,BKN16,0~-23~0,0~-20~0,Some Reasons,Some Comments,0~-6~0,0~-5~0,3~0~0,4~0~0,30374,0~-5~0,23:00:00,SKD,BX08,0~0~0,MDA_3,VACATION,BKN16,0700-1500,2~0~0,2~2~0,2~0~0,0~0~0,30~0~0,7~0~0,14~0~0,7~0~0,BX12,0~0~0,0~8~0,MN02
BX08,0~0~0,1~0~0,29FE,375,51,ROLLOVER,BKN16,0~-23~0,0~-20~0,Some Reasons,Some Comments,0~-6~0,0~-5~0,3~0~0,4~0~0,30375,0~-5~0,23:00:00,NS,BX08,0~0~0,MDA_4,VACATION,BKN16,0800-1600,2~0~0,2~2~0,2~0~0,0~0~0,30~0~0,7~0~0,14~0~0,7~0~0,BX12,0~0~0,0~8~0,MN02
BX08,0~0~0,1~0~0,29FE,376,27,ROLLOVER,BKN16,0~-23~0,0~-20~0,Some Reasons,Some Comments,0~-6~0,0~-5~0,3~0~0,4~0~0,30376,0~-5~0,23:00:00,SS,BX08,0~0~0,MDA_4A,VACATION,BKN16,1000-1800,2~0~0,2~2~0,2~0~0,0~0~0,30~0~0,7~0~0,14~0~0,7~0~0,BX12,0~0~0,0~8~0,MN02
BX08,0~0~0,1~0~0,29FE,377,11,RELAY,BKN16,0~-23~0,0~-20~0,Some Reasons,Some Comments,0~-6~0,0~-5~0,3~0~0,4~0~0,30377,0~-5~0,23:00:00,BOA,BX08,0~0~0,MDA_1,VACATION,BKN16,1100-1900,2~0~0,2~2~0,2~0~0,0~0~0,30~0~0,7~0~0,14~0~0,7~0~0,BX12,0~0~0,0~8~0,MN02
BX08,0~0~0,1~0~0,29FE,378,14,ROLLOVER,BKN16,0~-23~0,0~-20~0,Some Reasons,Some Comments,0~-6~0,0~-5~0,3~0~0,4~0~0,30378,0~-5~0,23:00:00,CFC,BX08,0~0~0,MDA_1L,VACATION,BKN16,1200-2000,2~0~0,2~2~0,2~0~0,0~0~0,30~0~0,7~0~0,14~0~0,7~0~0,BX12,0~0~0,0~8~0,MN02
BX08,0~0~0,1~0~0,29FE,379,27,ROLLOVER,BKN16,0~-23~0,0~-20~0,Some Reasons,Some Comments,0~-6~0,0~-5~0,3~0~0,4~0~0,30379,0~-5~0,23:00:00,BCA,BX08,0~0~0,MDA_2,VACATION,BKN16,0600-1400,2~0~0,2~2~0,2~0~0,0~0~0,30~0~0,7~0~0,14~0~0,7~0~0,BX12,0~0~0,0~8~0,MN02
BX08,0~0~0,1~0~0,29FE,380,25,RELAY,BKN16,0~-23~0,0~-20~0,Some Reasons,Some Comments,0~-6~0,0~-5~0,3~0~0,4~0~0,30380,0~-5~0,23:00:00,EZP,BX08,0~0~0,MDA_3,VACATION,BKN16,0100-0900,2~0~0,2~2~0,2~0~0,0~0~0,30~0~0,7~0~0,14~0~0,7~0~0,BX12,0~0~0,0~8~0,MN02
BX08,0~0~0,1~0~0,29FE,381,32,ROLLOVER,BKN16,0~-23~0,0~-20~0,Some Reasons,Some Comments,0~-6~0,0~-5~0,3~0~0,4~0~0,30381,0~-5~0,23:00:00,GU1,BX08,0~0~0,MDA_4,VACATION,BKN16,0200-1000,2~0~0,2~2~0,2~0~0,0~0~0,30~0~0,7~0~0,14~0~0,7~0~0,BX12,0~0~0,0~8~0,MN02
BX08,0~0~0,1~0~0,29FE,382,27,ROLLOVER,BKN16,0~-23~0,0~-20~0,Some Reasons,Some Comments,0~-6~0,0~-5~0,3~0~0,4~0~0,30382,0~-5~0,23:00:00,GO,BX08,0~0~0,MDA_4A,VACATION,BKN16,2200-0600,2~0~0,2~2~0,2~0~0,0~0~0,30~0~0,7~0~0,14~0~0,7~0~0,BX12,0~0~0,0~8~0,MN02
BX08,0~0~0,1~0~0,29FE,383,1,RELAY,BKN16,0~-23~0,0~-20~0,Some Reasons,Some Comments,0~-6~0,0~-5~0,3~0~0,4~0~0,30383,0~-5~0,23:00:00,MB2,BX08,0~0~0,MDA_1,VACATION,BKN16,0000-0800,2~0~0,2~2~0,2~0~0,0~0~0,30~0~0,7~0~0,14~0~0,7~0~0,BX12,0~0~0,0~8~0,MN02
BX08,0~0~0,1~0~0,29FE,384,66,ROLLOVER,BKN16,0~-23~0,0~-20~0,Some Reasons,Some Comments,0~-6~0,0~-5~0,3~0~0,4~0~0,30384,0~-5~0,23:00:00,MB1,BX08,0~0~0,MDA_1L,VACATION,BKN16,2300-0700,2~0~0,2~2~0,2~0~0,0~0~0,30~0~0,7~0~0,14~0~0,7~0~0,BX12,0~0~0,0~8~0,MN02
BX08,0~0~0,1~0~0,29FE,385,27,ROLLOVER,BKN16,0~-23~0,0~-20~0,Some Reasons,Some Comments,0~-6~0,0~-5~0,3~0~0,4~0~0,30385,0~-5~0,23:00:00,CLK,BX08,0~0~0,MDA_2,VACATION,BKN16,2200-0600,2~0~0,2~2~0,2~0~0,0~0~0,30~0~0,7~0~0,14~0~0,7~0~0,BX12,0~0~0,0~8~0,MN02
BX08,0~0~0,1~0~0,29FE,386,2,RELAY,BKN16,0~-23~0,0~-20~0,Some Reasons,Some Comments,0~-6~0,0~-5~0,3~0~0,4~0~0,30386,0~-5~0,23:00:00,RR,BX08,0~0~0,MDA_3,VACATION,BKN16,0300-1100,2~0~0,2~2~0,2~0~0,0~0~0,30~0~0,7~0~0,14~0~0,7~0~0,BX12,0~0~0,0~8~0,MN02
BX08,0~0~0,1~0~0,29FE,387,61,ROLLOVER,BKN16,0~-23~0,0~-20~0,Some Reasons,Some Comments,0~-6~0,0~-5~0,3~0~0,4~0~0,30387,0~-5~0,23:00:00,BSA,BX08,0~0~0,MDA_4,VACATION,BKN16,0400-1200,2~0~0,2~2~0,2~0~0,0~0~0,30~0~0,7~0~0,14~0~0,7~0~0,BX12,0~0~0,0~8~0,MN02
BX08,0~0~0,1~0~0,29FE,388,27,ROLLOVER,BKN16,0~-23~0,0~-20~0,Some Reasons,Some Comments,0~-6~0,0~-5~0,3~0~0,4~0~0,30388,0~-5~0,23:00:00,SC,BX08,0~0~0,MDA_4A,VACATION,BKN16,0500-1300,2~0~0,2~2~0,2~0~0,0~0~0,30~0~0,7~0~0,14~0~0,7~0~0,BX12,0~0~0,0~8~0,MN02
BX08,0~0~0,1~0~0,29FE,389,59,RELAY,BKN16,0~-23~0,0~-20~0,Some Reasons,Some Comments,0~-6~0,0~-5~0,3~0~0,4~0~0,30389,0~-5~0,23:00:00,WR1,BX08,0~0~0,MDA_1,VACATION,BKN16,0700-1500,2~0~0,2~2~0,2~0~0,0~0~0,30~0~0,7~0~0,14~0~0,7~0~0,BX12,0~0~0,0~8~0,MN02
BX08,0~0~0,1~0~0,29FE,390,87,ROLLOVER,BKN16,0~-23~0,0~-20~0,Some Reasons,Some Comments,0~-6~0,0~-5~0,3~0~0,4~0~0,30390,0~-5~0,23:00:00,GU2,BX08,0~0~0,MDA_1L,VACATION,BKN16,0800-1600,2~0~0,2~2~0,2~0~0,0~0~0,30~0~0,7~0~0,14~0~0,7~0~0,BX12,0~0~0,0~8~0,MN02
BX08,0~0~0,1~0~0,29FE,391,27,ROLLOVER,BKN16,0~-23~0,0~-20~0,Some Reasons,Some Comments,0~-6~0,0~-5~0,3~0~0,4~0~0,30391,0~-5~0,23:00:00,GU3,BX08,0~0~0,MDA_2,VACATION,BKN16,1000-1800,2~0~0,2~2~0,2~0~0,0~0~0,30~0~0,7~0~0,14~0~0,7~0~0,BX12,0~0~0,0~8~0,MN02
BX08,0~0~0,1~0~0,29FE,392,28,RELAY,BKN16,0~-23~0,0~-20~0,Some Reasons,Some Comments,0~-6~0,0~-5~0,3~0~0,4~0~0,30392,0~-5~0,23:00:00,MB3,BX08,0~0~0,MDA_3,VACATION,BKN16,1100-1900,2~0~0,2~2~0,2~0~0,0~0~0,30~0~0,7~0~0,14~0~0,7~0~0,BX12,0~0~0,0~8~0,MN02
BX08,0~0~0,1~0~0,29FE,393,56,ROLLOVER,BKN16,0~-23~0,0~-20~0,Some Reasons,Some Comments,0~-6~0,0~-5~0,3~0~0,4~0~0,30393,0~-5~0,23:00:00,WR2,BX08,0~0~0,MDA_4,VACATION,BKN16,1200-2000,2~0~0,2~2~0,2~0~0,0~0~0,30~0~0,7~0~0,14~0~0,7~0~0,BX12,0~0~0,0~8~0,MN02
BX08,0~0~0,1~0~0,29FE,394,27,ROLLOVER,BKN16,0~-23~0,0~-20~0,Some Reasons,Some Comments,0~-6~0,0~-5~0,3~0~0,4~0~0,30394,0~-5~0,23:00:00,WR3,BX08,0~0~0,MDA_4A,VACATION,BKN16,0600-1400,2~0~0,2~2~0,2~0~0,0~0~0,30~0~0,7~0~0,14~0~0,7~0~0,BX12,0~0~0,0~8~0,MN02
BX08,0~0~0,1~0~0,29FE,395,33,RELAY,BKN16,0~-23~0,0~-20~0,Some Reasons,Some Comments,0~-6~0,0~-5~0,3~0~0,4~0~0,30395,0~-5~0,23:00:00,SKD,BX08,0~0~0,MDA_1,VACATION,BKN16,0100-0900,2~0~0,2~2~0,2~0~0,0~0~0,30~0~0,7~0~0,14~0~0,7~0~0,BX12,0~0~0,0~8~0,MN02
BX08,0~0~0,1~0~0,29FE,396,33,ROLLOVER,BKN16,0~-23~0,0~-20~0,Some Reasons,Some Comments,0~-6~0,0~-5~0,3~0~0,4~0~0,30396,0~-5~0,23:00:00,NS,BX08,0~0~0,MDA_1L,VACATION,BKN16,0200-1000,2~0~0,2~2~0,2~0~0,0~0~0,30~0~0,7~0~0,14~0~0,7~0~0,BX12,0~0~0,0~8~0,MN02
BX08,0~0~0,1~0~0,29FE,397,27,ROLLOVER,BKN16,0~-23~0,0~-20~0,Some Reasons,Some Comments,0~-6~0,0~-5~0,3~0~0,4~0~0,30397,0~-5~0,23:00:00,SS,BX08,0~0~0,MDA_2,VACATION,BKN16,2200-0600,2~0~0,2~2~0,2~0~0,0~0~0,30~0~0,7~0~0,14~0~0,7~0~0,BX12,0~0~0,0~8~0,MN02
BX08,0~0~0,1~0~0,29FE,398,60,RELAY,BKN16,0~-23~0,0~-20~0,Some Reasons,Some Comments,0~-6~0,0~-5~0,3~0~0,4~0~0,30398,0~-5~0,23:00:00,BOA,BX08,0~0~0,MDA_3,VACATION,BKN16,0000-0800,2~0~0,2~2~0,2~0~0,0~0~0,30~0~0,7~0~0,14~0~0,7~0~0,BX12,0~0~0,0~8~0,MN02
BX08,0~0~0,1~0~0,29FE,399,63,ROLLOVER,BKN16,0~-23~0,0~-20~0,Some Reasons,Some Comments,0~-6~0,0~-5~0,3~0~0,4~0~0,30399,0~-5~0,23:00:00,CFC,BX08,0~0~0,MDA_4,VACATION,BKN16,2300-0700,2~0~0,2~2~0,2~0~0,0~0~0,30~0~0,7~0~0,14~0~0,7~0~0,BX12,0~0~0,0~8~0,MN02
BX08,0~0~0,1~0~0,29FE,400,78,RELAY,BKN16,0~-23~0,0~-20~0,Some Reasons,Some Comments,0~-6~0,0~-5~0,3~0~0,4~0~0,30400,0~-5~0,23:00:00,BCA,BX08,0~0~0,MDA_4A,VACATION,BKN16,2200-0600,2~0~0,2~2~0,2~0~0,0~0~0,30~0~0,7~0~0,14~0~0,7~0~0,BX12,0~0~0,0~8~0,MN02
